%YAML 1.1
%TAG !u! tag:unity3d.com,2011:
--- !u!21 &2100000
Material:
  serializedVersion: 6
  m_ObjectHideFlags: 0
  m_CorrespondingSourceObject: {fileID: 0}
  m_PrefabInstance: {fileID: 0}
  m_PrefabAsset: {fileID: 0}
  m_Name: OutlineMaterial
  m_Shader: {fileID: -6465566751694194690, guid: b331f04aa6acf074199fcc691f9970f3,
    type: 3}
  m_ShaderKeywords: ETC1_EXTERNAL_ALPHA
  m_LightmapFlags: 4
  m_EnableInstancingVariants: 0
  m_DoubleSidedGI: 0
  m_CustomRenderQueue: -1
  stringTagMap: {}
  disabledShaderPasses: []
  m_SavedProperties:
    serializedVersion: 3
    m_TexEnvs:
    - Texture2D_2DDA5888:
        m_Texture: {fileID: 2800000, guid: 33429c6cae4d4fe41af6f01433677dc9, type: 3}
        m_Scale: {x: 1, y: 1}
        m_Offset: {x: 0, y: 0}
    - _MainTex:
        m_Texture: {fileID: 0}
        m_Scale: {x: 1, y: 1}
        m_Offset: {x: 0, y: 0}
    - _MainTexture:
        m_Texture: {fileID: 0}
        m_Scale: {x: 1, y: 1}
        m_Offset: {x: 0, y: 0}
    m_Floats:
    - Vector1_816F650B: 0.1
    - Vector1_B3667A4F: 0.1
    - _Alpha: 0.5
    - _OutlineThickness: 0.541
    - _ShowOutline: 1
    m_Colors:
    - Vector4_FFA44162: {r: 1, g: 1, b: 0, a: 1}
    - _OutlineColour: {r: 2.342685, g: 1.8805931, b: 0.54146963, a: 1}
    - _Sensitivity: {r: 5.51, g: 1.65, b: 0, a: 0}
