{
    "transformations": [
        {
            "position": {
                "x": 27.535335540771486,
                "y": 1.4047549962997437,
                "z": -38.033321380615237
            },
            "rotation": {
                "x": 0.05392378196120262,
                "y": 0.2949238121509552,
                "z": -0.01667281985282898,
                "w": 0.9538522958755493
            },
            "time": 0.031335100531578067
        },
        {
            "position": {
                "x": 27.535335540771486,
                "y": 1.4047549962997437,
                "z": -38.033321380615237
            },
            "rotation": {
                "x": 0.05392378196120262,
                "y": 0.2949238121509552,
                "z": -0.01667281985282898,
                "w": 0.9538522958755493
            },
            "time": 0.06345440447330475
        },
        {
            "position": {
                "x": 27.535335540771486,
                "y": 1.4047549962997437,
                "z": -38.033321380615237
            },
            "rotation": {
                "x": 0.05392378196120262,
                "y": 0.2949238121509552,
                "z": -0.01667281985282898,
                "w": 0.9538522958755493
            },
            "time": 0.09444200247526169
        },
        {
            "position": {
                "x": 27.535335540771486,
                "y": 1.4047549962997437,
                "z": -38.033321380615237
            },
            "rotation": {
                "x": 0.05392378196120262,
                "y": 0.2949238121509552,
                "z": -0.01667281985282898,
                "w": 0.9538522958755493
            },
            "time": 0.12591680884361268
        },
        {
            "position": {
                "x": 27.535335540771486,
                "y": 1.4047549962997437,
                "z": -38.033321380615237
            },
            "rotation": {
                "x": 0.05392378196120262,
                "y": 0.2949238121509552,
                "z": -0.01667281985282898,
                "w": 0.9538522958755493
            },
            "time": 0.15964770317077638
        },
        {
            "position": {
                "x": 27.535335540771486,
                "y": 1.4047549962997437,
                "z": -38.033321380615237
            },
            "rotation": {
                "x": 0.05392378196120262,
                "y": 0.2949238121509552,
                "z": -0.01667281985282898,
                "w": 0.9538522958755493
            },
            "time": 0.19049440324306489
        },
        {
            "position": {
                "x": 27.535335540771486,
                "y": 1.4047549962997437,
                "z": -38.033321380615237
            },
            "rotation": {
                "x": 0.05441277101635933,
                "y": 0.2907518744468689,
                "z": -0.01656424254179001,
                "w": 0.9551064372062683
            },
            "time": 0.22263650596141816
        },
        {
            "position": {
                "x": 27.535335540771486,
                "y": 1.4047549962997437,
                "z": -38.033321380615237
            },
            "rotation": {
                "x": 0.05343683809041977,
                "y": 0.27405887842178347,
                "z": -0.015253356657922268,
                "w": 0.9601060748100281
            },
            "time": 0.2554498016834259
        },
        {
            "position": {
                "x": 27.535335540771486,
                "y": 1.4047549962997437,
                "z": -38.033321380615237
            },
            "rotation": {
                "x": 0.048743195831775668,
                "y": 0.24974539875984193,
                "z": -0.01258879341185093,
                "w": 0.9670020341873169
            },
            "time": 0.28812479972839358
        },
        {
            "position": {
                "x": 27.535335540771486,
                "y": 1.4047549962997437,
                "z": -38.033321380615237
            },
            "rotation": {
                "x": 0.03980166092514992,
                "y": 0.21466270089149476,
                "z": -0.008755484595894814,
                "w": 0.9758376479148865
            },
            "time": 0.3233186900615692
        },
        {
            "position": {
                "x": 27.535335540771486,
                "y": 1.4047549962997437,
                "z": -38.033321380615237
            },
            "rotation": {
                "x": 0.03621182590723038,
                "y": 0.18221840262413026,
                "z": -0.006715525407344103,
                "w": 0.982568085193634
            },
            "time": 0.35539910197257998
        },
        {
            "position": {
                "x": 27.609146118164064,
                "y": 1.389561653137207,
                "z": -37.841163635253909
            },
            "rotation": {
                "x": 0.03810827434062958,
                "y": 0.15470224618911744,
                "z": -0.005971827544271946,
                "w": 0.9872078895568848
            },
            "time": 0.38980019092559817
        },
        {
            "position": {
                "x": 27.66914176940918,
                "y": 1.3743972778320313,
                "z": -37.65443801879883
            },
            "rotation": {
                "x": 0.03649879992008209,
                "y": 0.13357055187225343,
                "z": -0.004922644235193729,
                "w": 0.9903547763824463
            },
            "time": 0.42258548736572268
        },
        {
            "position": {
                "x": 27.715953826904298,
                "y": 1.361355185508728,
                "z": -37.48405075073242
            },
            "rotation": {
                "x": 0.03568676859140396,
                "y": 0.12233085930347443,
                "z": -0.00440151896327734,
                "w": 0.9918378591537476
            },
            "time": 0.45211589336395266
        },
        {
            "position": {
                "x": 27.766908645629884,
                "y": 1.3462446928024293,
                "z": -37.28062438964844
            },
            "rotation": {
                "x": 0.036216042935848239,
                "y": 0.09849396347999573,
                "z": -0.003586889710277319,
                "w": 0.9944719672203064
            },
            "time": 0.4871581792831421
        },
        {
            "position": {
                "x": 27.79991912841797,
                "y": 1.3339717388153077,
                "z": -37.1156120300293
            },
            "rotation": {
                "x": 0.036273129284381869,
                "y": 0.08112303167581558,
                "z": -0.0029542865231633188,
                "w": 0.9960395097732544
            },
            "time": 0.5152795910835266
        },
        {
            "position": {
                "x": 27.831165313720704,
                "y": 1.319888949394226,
                "z": -36.9250602722168
            },
            "rotation": {
                "x": 0.035452742129564288,
                "y": 0.061988621950149539,
                "z": -0.0022032971028238537,
                "w": 0.9974445700645447
            },
            "time": 0.5475478172302246
        },
        {
            "position": {
                "x": 27.85447120666504,
                "y": 1.306491494178772,
                "z": -36.73828125
            },
            "rotation": {
                "x": 0.032876864075660709,
                "y": 0.04108980670571327,
                "z": -0.0013527796836569906,
                "w": 0.9986135363578796
            },
            "time": 0.5789984464645386
        },
        {
            "position": {
                "x": 27.869338989257814,
                "y": 1.2945618629455567,
                "z": -36.55791091918945
            },
            "rotation": {
                "x": 0.029410244897007943,
                "y": 0.019297488033771516,
                "z": -0.0005678953602910042,
                "w": 0.9993810057640076
            },
            "time": 0.6092274188995361
        },
        {
            "position": {
                "x": 27.87598991394043,
                "y": 1.2844133377075196,
                "z": -36.38576126098633
            },
            "rotation": {
                "x": 0.0281069315969944,
                "y": 0.00490611745044589,
                "z": -0.00013795206905342638,
                "w": 0.9995929002761841
            },
            "time": 0.6379901170730591
        },
        {
            "position": {
                "x": 27.877655029296876,
                "y": 1.2748628854751588,
                "z": -36.2160758972168
            },
            "rotation": {
                "x": 0.02766861766576767,
                "y": -0.013412343338131905,
                "z": 0.00037127654650248587,
                "w": 0.9995271563529968
            },
            "time": 0.66631680727005
        },
        {
            "position": {
                "x": 27.873350143432618,
                "y": 1.2659752368927003,
                "z": -36.05572509765625
            },
            "rotation": {
                "x": -0.025909915566444398,
                "y": 0.03565112128853798,
                "z": -0.0009246162371709943,
                "w": -0.9990279674530029
            },
            "time": 0.6930925846099854
        },
        {
            "position": {
                "x": 27.860607147216798,
                "y": 1.2566955089569092,
                "z": -35.87739944458008
            },
            "rotation": {
                "x": -0.025020401924848558,
                "y": 0.051775507628917697,
                "z": -0.0012975923018530012,
                "w": -0.9983444213867188
            },
            "time": 0.7229296565055847
        },
        {
            "position": {
                "x": 27.84306526184082,
                "y": 1.248189926147461,
                "z": -35.70872497558594
            },
            "rotation": {
                "x": -0.023696092888712884,
                "y": 0.06440597027540207,
                "z": -0.0015297780046239496,
                "w": -0.9976412653923035
            },
            "time": 0.7512292861938477
        },
        {
            "position": {
                "x": 27.822547912597658,
                "y": 1.2406054735183716,
                "z": -35.550479888916019
            },
            "rotation": {
                "x": -0.02325189858675003,
                "y": 0.07006444782018662,
                "z": -0.0016335910186171532,
                "w": -0.9972701072692871
            },
            "time": 0.7778539657592773
        },
        {
            "position": {
                "x": 27.79885482788086,
                "y": 1.2326995134353638,
                "z": -35.382694244384769
            },
            "rotation": {
                "x": -0.023231038823723794,
                "y": 0.08180813491344452,
                "z": -0.0019074013689532877,
                "w": -0.9963755011558533
            },
            "time": 0.8061264753341675
        },
        {
            "position": {
                "x": 27.772459030151368,
                "y": 1.225149393081665,
                "z": -35.22303771972656
            },
            "rotation": {
                "x": -0.022766010835766794,
                "y": 0.09658138453960419,
                "z": -0.002209683647379279,
                "w": -0.9950622916221619
            },
            "time": 0.8331262469291687
        },
        {
            "position": {
                "x": 27.742246627807618,
                "y": 1.2179570198059083,
                "z": -35.068870544433597
            },
            "rotation": {
                "x": -0.022312067449092866,
                "y": 0.1052621528506279,
                "z": -0.002362338127568364,
                "w": -0.9941914081573486
            },
            "time": 0.8593371510505676
        },
        {
            "position": {
                "x": 27.704130172729493,
                "y": 1.2097830772399903,
                "z": -34.89088821411133
            },
            "rotation": {
                "x": -0.021431243047118188,
                "y": 0.11090181767940521,
                "z": -0.0023920792154967787,
                "w": -0.9935973882675171
            },
            "time": 0.8897038698196411
        },
        {
            "position": {
                "x": 27.668676376342775,
                "y": 1.2028433084487916,
                "z": -34.734046936035159
            },
            "rotation": {
                "x": -0.0205539483577013,
                "y": 0.1152382418513298,
                "z": -0.0023850039578974249,
                "w": -0.9931223392486572
            },
            "time": 0.9165283441543579
        },
        {
            "position": {
                "x": 27.636627197265626,
                "y": 1.197047472000122,
                "z": -34.59780502319336
            },
            "rotation": {
                "x": -0.0188048854470253,
                "y": 0.12217272073030472,
                "z": -0.002315206453204155,
                "w": -0.9923279881477356
            },
            "time": 0.939875066280365
        },
        {
            "position": {
                "x": 27.595449447631837,
                "y": 1.1906110048294068,
                "z": -34.433109283447269
            },
            "rotation": {
                "x": -0.015322952531278134,
                "y": 0.1312679648399353,
                "z": -0.0020292161498218776,
                "w": -0.9912264347076416
            },
            "time": 0.9681894779205322
        },
        {
            "position": {
                "x": 27.554492950439454,
                "y": 1.185745120048523,
                "z": -34.281185150146487
            },
            "rotation": {
                "x": -0.012714249081909657,
                "y": 0.139054074883461,
                "z": -0.0017854627221822739,
                "w": -0.9902015924453735
            },
            "time": 0.9944266676902771
        },
        {
            "position": {
                "x": 27.51496124267578,
                "y": 1.1820586919784547,
                "z": -34.14320755004883
            },
            "rotation": {
                "x": -0.010107755661010743,
                "y": 0.1485573649406433,
                "z": -0.0015185115626081825,
                "w": -0.988851010799408
            },
            "time": 1.0183559656143189
        },
        {
            "position": {
                "x": 27.464984893798829,
                "y": 1.1785812377929688,
                "z": -33.980628967285159
            },
            "rotation": {
                "x": -0.0075050899758934979,
                "y": 0.16020017862319947,
                "z": -0.001218084478750825,
                "w": -0.9870553016662598
            },
            "time": 1.046709418296814
        },
        {
            "position": {
                "x": 27.41628074645996,
                "y": 1.1762393712997437,
                "z": -33.83454132080078
            },
            "rotation": {
                "x": -0.006635537836700678,
                "y": 0.16751839220523835,
                "z": -0.0011275338474661112,
                "w": -0.9858459830284119
            },
            "time": 1.0723778009414673
        },
        {
            "position": {
                "x": 27.370113372802736,
                "y": 1.1743577718734742,
                "z": -33.702613830566409
            },
            "rotation": {
                "x": -0.0066264779306948189,
                "y": 0.17525596916675569,
                "z": -0.001179613871499896,
                "w": -0.9844999313354492
            },
            "time": 1.0956753492355347
        },
        {
            "position": {
                "x": 27.47447967529297,
                "y": 1.1719907522201539,
                "z": -33.47690200805664
            },
            "rotation": {
                "x": -0.00618296954780817,
                "y": 0.18727102875709535,
                "z": -0.0011787692783400417,
                "w": -0.982288122177124
            },
            "time": 1.1249831914901734
        },
        {
            "position": {
                "x": 27.550168991088868,
                "y": 1.170295238494873,
                "z": -33.302120208740237
            },
            "rotation": {
                "x": -0.007028806488960981,
                "y": 0.19540680944919587,
                "z": -0.0014005120610818267,
                "w": -0.9806960821151733
            },
            "time": 1.1474308967590333
        },
        {
            "position": {
                "x": 27.624553680419923,
                "y": 1.168322205543518,
                "z": -33.12223434448242
            },
            "rotation": {
                "x": -0.008726485073566437,
                "y": 0.20310023427009583,
                "z": -0.0018101518508046866,
                "w": -0.9791173934936523
            },
            "time": 1.1703728437423707
        },
        {
            "position": {
                "x": 27.702329635620118,
                "y": 1.1656553745269776,
                "z": -32.92546463012695
            },
            "rotation": {
                "x": -0.011266776360571385,
                "y": 0.21248403191566468,
                "z": -0.0024501264560967685,
                "w": -0.9770964980125427
            },
            "time": 1.1953102350234986
        },
        {
            "position": {
                "x": 27.7791690826416,
                "y": 1.1620724201202393,
                "z": -32.71961975097656
            },
            "rotation": {
                "x": -0.013780046254396439,
                "y": 0.22652293741703034,
                "z": -0.003205140819773078,
                "w": -0.9739031195640564
            },
            "time": 1.2212077379226685
        },
        {
            "position": {
                "x": 27.85334014892578,
                "y": 1.1574726104736329,
                "z": -32.50204086303711
            },
            "rotation": {
                "x": -0.01542134303599596,
                "y": 0.24178606271743775,
                "z": -0.0038431952707469465,
                "w": -0.970199465751648
            },
            "time": 1.2483038902282715
        },
        {
            "position": {
                "x": 27.914220809936525,
                "y": 1.1527990102767945,
                "z": -32.303245544433597
            },
            "rotation": {
                "x": -0.015385481528937817,
                "y": 0.2506658732891083,
                "z": -0.003984340000897646,
                "w": -0.9679431915283203
            },
            "time": 1.2728123664855958
        },
        {
            "position": {
                "x": 27.9703311920166,
                "y": 1.1482166051864625,
                "z": -32.107269287109378
            },
            "rotation": {
                "x": -0.01660250872373581,
                "y": 0.261624813079834,
                "z": -0.004501092713326216,
                "w": -0.9650163650512695
            },
            "time": 1.2968426942825318
        },
        {
            "position": {
                "x": 28.02265739440918,
                "y": 1.1431926488876343,
                "z": -31.907522201538087
            },
            "rotation": {
                "x": -0.017368203029036523,
                "y": 0.27674615383148196,
                "z": -0.005002828314900398,
                "w": -0.9607731103897095
            },
            "time": 1.3211846351623536
        },
        {
            "position": {
                "x": 28.070877075195314,
                "y": 1.1376628875732422,
                "z": -31.696664810180665
            },
            "rotation": {
                "x": -0.019334672018885614,
                "y": 0.29804348945617678,
                "z": -0.006038297433406115,
                "w": -0.9543373584747315
            },
            "time": 1.3466843366622925
        },
        {
            "position": {
                "x": 28.107101440429689,
                "y": 1.1318782567977906,
                "z": -31.498044967651368
            },
            "rotation": {
                "x": -0.020471513271331788,
                "y": 0.3142310380935669,
                "z": -0.006777761969715357,
                "w": -0.9491016268730164
            },
            "time": 1.3704876899719239
        },
        {
            "position": {
                "x": 28.139299392700197,
                "y": 1.1251463890075684,
                "z": -31.27971649169922
            },
            "rotation": {
                "x": -0.02283049374818802,
                "y": 0.3294922411441803,
                "z": -0.007969996891915799,
                "w": -0.9438486099243164
            },
            "time": 1.3965083360671998
        },
        {
            "position": {
                "x": 28.16335678100586,
                "y": 1.1179275512695313,
                "z": -31.070064544677736
            },
            "rotation": {
                "x": -0.02351021207869053,
                "y": 0.34549790620803835,
                "z": -0.00865884032100439,
                "w": -0.9380850195884705
            },
            "time": 1.421392798423767
        },
        {
            "position": {
                "x": 28.17991065979004,
                "y": 1.1106092929840088,
                "z": -30.864248275756837
            },
            "rotation": {
                "x": -0.02537565305829048,
                "y": 0.3630158007144928,
                "z": -0.009890393353998661,
                "w": -0.9313849210739136
            },
            "time": 1.4457420110702515
        },
        {
            "position": {
                "x": 28.192106246948243,
                "y": 1.09963858127594,
                "z": -30.57977867126465
            },
            "rotation": {
                "x": -0.02702312543988228,
                "y": 0.3948744833469391,
                "z": -0.01162056252360344,
                "w": -0.9182639718055725
            },
            "time": 1.4793226718902588
        },
        {
            "position": {
                "x": 28.188364028930665,
                "y": 1.0936418771743775,
                "z": -30.435739517211915
            },
            "rotation": {
                "x": -0.027261776849627496,
                "y": 0.4072533845901489,
                "z": -0.0121627077460289,
                "w": -0.9128272533416748
            },
            "time": 1.4963182210922242
        },
        {
            "position": {
                "x": 28.180221557617189,
                "y": 1.0871493816375733,
                "z": -30.28223419189453
            },
            "rotation": {
                "x": -0.027105696499347688,
                "y": 0.41877123713493349,
                "z": -0.012506691738963128,
                "w": -0.907600998878479
            },
            "time": 1.5144506692886353
        },
        {
            "position": {
                "x": 28.164325714111329,
                "y": 1.0785666704177857,
                "z": -30.079647064208986
            },
            "rotation": {
                "x": -0.026866286993026735,
                "y": 0.43572524189949038,
                "z": -0.013013028539717198,
                "w": -0.8995845913887024
            },
            "time": 1.5384204387664796
        },
        {
            "position": {
                "x": 28.140626907348634,
                "y": 1.0699059963226319,
                "z": -29.875967025756837
            },
            "rotation": {
                "x": -0.02774701826274395,
                "y": 0.4548393189907074,
                "z": -0.014179814606904984,
                "w": -0.8900282382965088
            },
            "time": 1.5626078844070435
        },
        {
            "position": {
                "x": 28.11215591430664,
                "y": 1.0619535446166993,
                "z": -29.697853088378908
            },
            "rotation": {
                "x": -0.028125667944550515,
                "y": 0.47835150361061098,
                "z": -0.015330675058066845,
                "w": -0.8775840401649475
            },
            "time": 1.583885908126831
        },
        {
            "position": {
                "x": 28.0699405670166,
                "y": 1.0528472661972047,
                "z": -29.501420974731447
            },
            "rotation": {
                "x": -0.02963862381875515,
                "y": 0.499236136674881,
                "z": -0.017090365290641786,
                "w": -0.8657902479171753
            },
            "time": 1.6075884103775025
        },
        {
            "position": {
                "x": 28.01882553100586,
                "y": 1.043204665184021,
                "z": -29.308917999267579
            },
            "rotation": {
                "x": -0.0292664784938097,
                "y": 0.5176315903663635,
                "z": -0.017720097675919534,
                "w": -0.8549193143844605
            },
            "time": 1.6310888528823853
        },
        {
            "position": {
                "x": 27.966655731201173,
                "y": 1.0347212553024293,
                "z": -29.141633987426759
            },
            "rotation": {
                "x": -0.029600756242871286,
                "y": 0.5365099906921387,
                "z": -0.018835118040442468,
                "w": -0.8431643843650818
            },
            "time": 1.651764154434204
        },
        {
            "position": {
                "x": 27.892271041870118,
                "y": 1.02385413646698,
                "z": -28.935779571533204
            },
            "rotation": {
                "x": -0.02839093841612339,
                "y": 0.5576908588409424,
                "z": -0.019091449677944185,
                "w": -0.829343318939209
            },
            "time": 1.677591323852539
        },
        {
            "position": {
                "x": 27.83217430114746,
                "y": 1.0163370370864869,
                "z": -28.7926082611084
            },
            "rotation": {
                "x": -0.026427026838064195,
                "y": 0.5806639194488525,
                "z": -0.018863307312130929,
                "w": -0.8134957551956177
            },
            "time": 1.6959117650985718
        },
        {
            "position": {
                "x": 27.743947982788087,
                "y": 1.0070831775665284,
                "z": -28.611534118652345
            },
            "rotation": {
                "x": -0.024135302752256395,
                "y": 0.603888213634491,
                "z": -0.018298989161849023,
                "w": -0.796493411064148
            },
            "time": 1.7196749448776246
        },
        {
            "position": {
                "x": 27.663330078125,
                "y": 1.0000203847885132,
                "z": -28.467784881591798
            },
            "rotation": {
                "x": -0.022456077858805658,
                "y": 0.617042601108551,
                "z": -0.017619717866182329,
                "w": -0.7864120006561279
            },
            "time": 1.7391160726547242
        },
        {
            "position": {
                "x": 27.55909538269043,
                "y": 0.9918926358222961,
                "z": -28.295612335205079
            },
            "rotation": {
                "x": -0.020100481808185579,
                "y": 0.6313950419425964,
                "z": -0.016375338658690454,
                "w": -0.775027871131897
            },
            "time": 1.7628549337387086
        },
        {
            "position": {
                "x": 27.476774215698243,
                "y": 0.9863929748535156,
                "z": -28.170286178588868
            },
            "rotation": {
                "x": -0.019285306334495546,
                "y": 0.6381484270095825,
                "z": -0.015993241220712663,
                "w": -0.7695056200027466
            },
            "time": 1.7805379629135132
        },
        {
            "position": {
                "x": 27.357261657714845,
                "y": 0.978876531124115,
                "z": -27.995098114013673
            },
            "rotation": {
                "x": -0.018924666568636895,
                "y": 0.6551126837730408,
                "z": -0.016418397426605226,
                "w": -0.7551156878471375
            },
            "time": 1.805546522140503
        },
        {
            "position": {
                "x": 27.2724666595459,
                "y": 0.9738653898239136,
                "z": -27.881961822509767
            },
            "rotation": {
                "x": -0.017689578235149385,
                "y": 0.6669138073921204,
                "z": -0.015840647742152215,
                "w": -0.7447564005851746
            },
            "time": 1.8222194910049439
        },
        {
            "position": {
                "x": 27.137332916259767,
                "y": 0.966598391532898,
                "z": -27.7130184173584
            },
            "rotation": {
                "x": -0.015079101547598839,
                "y": 0.6846393942832947,
                "z": -0.014169523492455483,
                "w": -0.7285881638526917
            },
            "time": 1.8477298021316529
        },
        {
            "position": {
                "x": 27.144123077392579,
                "y": 0.966598391532898,
                "z": -27.603958129882814
            },
            "rotation": {
                "x": -0.014258387498557568,
                "y": 0.6944438219070435,
                "z": -0.013766172342002392,
                "w": -0.7192739844322205
            },
            "time": 1.8659416437149048
        },
        {
            "position": {
                "x": 27.148561477661134,
                "y": 0.966598391532898,
                "z": -27.477645874023439
            },
            "rotation": {
                "x": -0.01338725071400404,
                "y": 0.7075198888778687,
                "z": -0.013407724909484387,
                "w": -0.7064394354820252
            },
            "time": 1.8870065212249756
        },
        {
            "position": {
                "x": 27.148408889770509,
                "y": 0.966598391532898,
                "z": -27.377634048461915
            },
            "rotation": {
                "x": -0.013496575877070427,
                "y": 0.7176122665405273,
                "z": -0.01391221210360527,
                "w": -0.6961730718612671
            },
            "time": 1.9036753177642823
        },
        {
            "position": {
                "x": 27.14463996887207,
                "y": 0.966598391532898,
                "z": -27.25337028503418
            },
            "rotation": {
                "x": -0.014014145359396935,
                "y": 0.7355707883834839,
                "z": -0.015223617665469647,
                "w": -0.6771318316459656
            },
            "time": 1.9243954420089722
        },
        {
            "position": {
                "x": 27.136035919189454,
                "y": 0.966598391532898,
                "z": -27.149555206298829
            },
            "rotation": {
                "x": -0.014543848112225533,
                "y": 0.750146210193634,
                "z": -0.01650766283273697,
                "w": -0.6609058976173401
            },
            "time": 1.941757321357727
        },
        {
            "position": {
                "x": 27.118419647216798,
                "y": 0.966598391532898,
                "z": -27.010845184326173
            },
            "rotation": {
                "x": -0.011707091704010964,
                "y": 0.774467408657074,
                "z": -0.014338360168039799,
                "w": -0.6323429942131043
            },
            "time": 1.9650611877441407
        },
        {
            "position": {
                "x": 27.09841537475586,
                "y": 0.966598391532898,
                "z": -26.912853240966798
            },
            "rotation": {
                "x": -0.01001538522541523,
                "y": 0.7897158265113831,
                "z": -0.012897249311208725,
                "w": -0.6132554411888123
            },
            "time": 1.9817299842834473
        },
        {
            "position": {
                "x": 27.09841537475586,
                "y": 0.966598391532898,
                "z": -26.912853240966798
            },
            "rotation": {
                "x": -0.005239290650933981,
                "y": 0.8089213371276856,
                "z": -0.007209624629467726,
                "w": -0.5878494381904602
            },
            "time": 1.9992088079452515
        },
        {
            "position": {
                "x": 27.09841537475586,
                "y": 0.966598391532898,
                "z": -26.912853240966798
            },
            "rotation": {
                "x": -0.003613109001889825,
                "y": 0.818823516368866,
                "z": -0.0051540806889534,
                "w": -0.5740109086036682
            },
            "time": 2.0184884071350099
        },
        {
            "position": {
                "x": 27.09841537475586,
                "y": 0.966598391532898,
                "z": -26.912853240966798
            },
            "rotation": {
                "x": -0.0015721428208053113,
                "y": 0.827996551990509,
                "z": -0.0023215049877762796,
                "w": -0.5607262849807739
            },
            "time": 2.035325288772583
        },
        {
            "position": {
                "x": 27.09841537475586,
                "y": 0.966598391532898,
                "z": -26.912853240966798
            },
            "rotation": {
                "x": -0.0008202454773709178,
                "y": 0.8359866738319397,
                "z": -0.0012495984556153417,
                "w": -0.548747718334198
            },
            "time": 2.0529286861419679
        },
        {
            "position": {
                "x": 27.09841537475586,
                "y": 0.966598391532898,
                "z": -26.912853240966798
            },
            "rotation": {
                "x": -0.00032463701791130006,
                "y": 0.8530393242835999,
                "z": -0.0005306699313223362,
                "w": -0.521846354007721
            },
            "time": 2.080444574356079
        },
        {
            "position": {
                "x": 27.09841537475586,
                "y": 0.966598391532898,
                "z": -26.912853240966798
            },
            "rotation": {
                "x": 0.0012419840786606074,
                "y": 0.8597946166992188,
                "z": 0.0020912252366542818,
                "w": -0.5106343030929565
            },
            "time": 2.0971202850341799
        },
        {
            "position": {
                "x": 27.09841537475586,
                "y": 0.966598391532898,
                "z": -26.912853240966798
            },
            "rotation": {
                "x": -0.0021175940055400135,
                "y": -0.862009584903717,
                "z": -0.0036012567579746248,
                "w": 0.5068747997283936
            },
            "time": 2.1141018867492677
        },
        {
            "position": {
                "x": 27.09841537475586,
                "y": 0.966598391532898,
                "z": -26.912853240966798
            },
            "rotation": {
                "x": -0.0027665907982736828,
                "y": -0.8635482788085938,
                "z": -0.0047380258329212669,
                "w": 0.5042362809181213
            },
            "time": 2.131171226501465
        },
        {
            "position": {
                "x": 27.09841537475586,
                "y": 0.966598391532898,
                "z": -26.912853240966798
            },
            "rotation": {
                "x": -0.0027665907982736828,
                "y": -0.8635482788085938,
                "z": -0.0047380258329212669,
                "w": 0.5042362809181213
            },
            "time": 2.1478233337402345
        },
        {
            "position": {
                "x": 27.09841537475586,
                "y": 0.966598391532898,
                "z": -26.912853240966798
            },
            "rotation": {
                "x": -0.0027665907982736828,
                "y": -0.8635482788085938,
                "z": -0.0047380258329212669,
                "w": 0.5042362809181213
            },
            "time": 2.1650662422180177
        },
        {
            "position": {
                "x": 27.09841537475586,
                "y": 0.966598391532898,
                "z": -26.912853240966798
            },
            "rotation": {
                "x": -0.0027665907982736828,
                "y": -0.8635482788085938,
                "z": -0.0047380258329212669,
                "w": 0.5042362809181213
            },
            "time": 2.1820027828216554
        },
        {
            "position": {
                "x": 27.09841537475586,
                "y": 0.966598391532898,
                "z": -26.912853240966798
            },
            "rotation": {
                "x": -0.0027665907982736828,
                "y": -0.8635482788085938,
                "z": -0.0047380258329212669,
                "w": 0.5042362809181213
            },
            "time": 2.198917865753174
        },
        {
            "position": {
                "x": 27.09841537475586,
                "y": 0.966598391532898,
                "z": -26.912853240966798
            },
            "rotation": {
                "x": -0.0027665907982736828,
                "y": -0.8635482788085938,
                "z": -0.0047380258329212669,
                "w": 0.5042362809181213
            },
            "time": 2.215925931930542
        },
        {
            "position": {
                "x": 27.09841537475586,
                "y": 0.966598391532898,
                "z": -26.912853240966798
            },
            "rotation": {
                "x": -0.0027665907982736828,
                "y": -0.8635482788085938,
                "z": -0.0047380258329212669,
                "w": 0.5042362809181213
            },
            "time": 2.232590675354004
        }
    ]
}