{
    "transformations": [
        {
            "position": {
                "x": 71.59974670410156,
                "y": 2.0682661533355715,
                "z": -51.798648834228519
            },
            "rotation": {
                "x": -0.07353832572698593,
                "y": 0.6806244850158691,
                "z": -0.06897424906492233,
                "w": -0.7256618738174439
            },
            "time": 0.03407200053334236
        },
        {
            "position": {
                "x": 71.59974670410156,
                "y": 2.0682661533355715,
                "z": -51.798648834228519
            },
            "rotation": {
                "x": -0.07353832572698593,
                "y": 0.6806244850158691,
                "z": -0.06897424906492233,
                "w": -0.7256618738174439
            },
            "time": 0.07008840143680573
        },
        {
            "position": {
                "x": 71.59974670410156,
                "y": 2.0682661533355715,
                "z": -51.798648834228519
            },
            "rotation": {
                "x": -0.07353832572698593,
                "y": 0.6806244850158691,
                "z": -0.06897424906492233,
                "w": -0.7256618738174439
            },
            "time": 0.10592730343341828
        },
        {
            "position": {
                "x": 71.59974670410156,
                "y": 2.0682661533355715,
                "z": -51.798648834228519
            },
            "rotation": {
                "x": -0.07353832572698593,
                "y": 0.6806244850158691,
                "z": -0.06897424906492233,
                "w": -0.7256618738174439
            },
            "time": 0.13818210363388062
        },
        {
            "position": {
                "x": 71.59974670410156,
                "y": 2.0682661533355715,
                "z": -51.798648834228519
            },
            "rotation": {
                "x": -0.07273675501346588,
                "y": 0.6791290640830994,
                "z": -0.06792473047971726,
                "w": -0.7272409796714783
            },
            "time": 0.17403170466423036
        },
        {
            "position": {
                "x": 71.59974670410156,
                "y": 2.0682661533355715,
                "z": -51.798648834228519
            },
            "rotation": {
                "x": -0.071439228951931,
                "y": 0.6760953068733215,
                "z": -0.06613186746835709,
                "w": -0.7303548455238342
            },
            "time": 0.20997650921344758
        },
        {
            "position": {
                "x": 71.37043762207031,
                "y": 2.0228381156921388,
                "z": -51.78092956542969
            },
            "rotation": {
                "x": -0.06952589005231857,
                "y": 0.6689561605453491,
                "z": -0.0630769208073616,
                "w": -0.7373500466346741
            },
            "time": 0.24904941022396089
        },
        {
            "position": {
                "x": 71.17280578613281,
                "y": 1.9850554466247559,
                "z": -51.761661529541019
            },
            "rotation": {
                "x": -0.06787140667438507,
                "y": 0.6578306555747986,
                "z": -0.059711962938308719,
                "w": -0.7477210760116577
            },
            "time": 0.28273800015449526
        },
        {
            "position": {
                "x": 70.9722671508789,
                "y": 1.9480448961257935,
                "z": -51.735904693603519
            },
            "rotation": {
                "x": -0.0649757906794548,
                "y": 0.6443154215812683,
                "z": -0.055085331201553348,
                "w": -0.7600008845329285
            },
            "time": 0.31699588894844057
        },
        {
            "position": {
                "x": 70.7665786743164,
                "y": 1.9121309518814088,
                "z": -51.701786041259769
            },
            "rotation": {
                "x": -0.05820605158805847,
                "y": 0.631126344203949,
                "z": -0.04758294299244881,
                "w": -0.7720281481742859
            },
            "time": 0.3522578775882721
        },
        {
            "position": {
                "x": 70.56011199951172,
                "y": 1.8801820278167725,
                "z": -51.65989685058594
            },
            "rotation": {
                "x": -0.052434828132390979,
                "y": 0.6066128611564636,
                "z": -0.040148504078388217,
                "w": -0.7922496795654297
            },
            "time": 0.38777196407318118
        },
        {
            "position": {
                "x": 70.3587875366211,
                "y": 1.8524563312530518,
                "z": -51.605506896972659
            },
            "rotation": {
                "x": -0.04971497878432274,
                "y": 0.5830214023590088,
                "z": -0.03577742725610733,
                "w": -0.8101447820663452
            },
            "time": 0.4228343665599823
        },
        {
            "position": {
                "x": 70.14664459228516,
                "y": 1.8248945474624634,
                "z": -51.53445053100586
            },
            "rotation": {
                "x": -0.04880279675126076,
                "y": 0.5533926486968994,
                "z": -0.03250524029135704,
                "w": -0.8308539390563965
            },
            "time": 0.4604036808013916
        },
        {
            "position": {
                "x": 69.93336486816406,
                "y": 1.7976477146148682,
                "z": -51.445369720458987
            },
            "rotation": {
                "x": -0.04706719145178795,
                "y": 0.5204502940177918,
                "z": -0.02874765172600746,
                "w": -0.8521090149879456
            },
            "time": 0.49919289350509646
        },
        {
            "position": {
                "x": 69.72779083251953,
                "y": 1.772042989730835,
                "z": -51.33986282348633
            },
            "rotation": {
                "x": -0.04428981989622116,
                "y": 0.48898935317993166,
                "z": -0.0248702485114336,
                "w": -0.8708095550537109
            },
            "time": 0.5379399657249451
        },
        {
            "position": {
                "x": 69.52949523925781,
                "y": 1.7483582496643067,
                "z": -51.21897506713867
            },
            "rotation": {
                "x": -0.0383988618850708,
                "y": 0.46503278613090517,
                "z": -0.02019467204809189,
                "w": -0.8842297792434692
            },
            "time": 0.5768470764160156
        },
        {
            "position": {
                "x": 69.3245620727539,
                "y": 1.7267149686813355,
                "z": -51.07802963256836
            },
            "rotation": {
                "x": -0.03657608851790428,
                "y": 0.44138455390930178,
                "z": -0.018010124564170839,
                "w": -0.8963913917541504
            },
            "time": 0.6184578537940979
        },
        {
            "position": {
                "x": 69.13923645019531,
                "y": 1.707602620124817,
                "z": -50.93547439575195
            },
            "rotation": {
                "x": -0.03443974256515503,
                "y": 0.43005141615867617,
                "z": -0.016420062631368638,
                "w": -0.9019978046417236
            },
            "time": 0.6575560569763184
        },
        {
            "position": {
                "x": 68.93693542480469,
                "y": 1.687690019607544,
                "z": -50.77154541015625
            },
            "rotation": {
                "x": -0.030350012704730035,
                "y": 0.41471168398857119,
                "z": -0.01384134404361248,
                "w": -0.9093412756919861
            },
            "time": 0.7010797262191773
        },
        {
            "position": {
                "x": 68.91095733642578,
                "y": 1.6699707508087159,
                "z": -50.39704132080078
            },
            "rotation": {
                "x": -0.026737114414572717,
                "y": 0.3868008852005005,
                "z": -0.01122041791677475,
                "w": -0.9217072129249573
            },
            "time": 0.7453707456588745
        },
        {
            "position": {
                "x": 68.90787506103516,
                "y": 1.654964804649353,
                "z": -50.03126525878906
            },
            "rotation": {
                "x": -0.022210916504263879,
                "y": 0.3552628755569458,
                "z": -0.008444104343652726,
                "w": -0.9344643354415894
            },
            "time": 0.7885154485702515
        },
        {
            "position": {
                "x": 68.92692565917969,
                "y": 1.6441688537597657,
                "z": -49.710655212402347
            },
            "rotation": {
                "x": -0.01791497878730297,
                "y": 0.32783007621765139,
                "z": -0.006217872723937035,
                "w": -0.9445463418960571
            },
            "time": 0.8263876438140869
        },
        {
            "position": {
                "x": 68.96796417236328,
                "y": 1.6347891092300416,
                "z": -49.363380432128909
            },
            "rotation": {
                "x": -0.013919832184910775,
                "y": 0.3017672598361969,
                "z": -0.004406464286148548,
                "w": -0.9532698392868042
            },
            "time": 0.8676139712333679
        },
        {
            "position": {
                "x": 69.02719116210938,
                "y": 1.6276615858078004,
                "z": -49.023353576660159
            },
            "rotation": {
                "x": -0.010654634796082974,
                "y": 0.2834239900112152,
                "z": -0.00314911175519228,
                "w": -0.9589303731918335
            },
            "time": 0.9082985520362854
        },
        {
            "position": {
                "x": 69.10669708251953,
                "y": 1.6216901540756226,
                "z": -48.651737213134769
            },
            "rotation": {
                "x": -0.007342082913964987,
                "y": 0.2674948573112488,
                "z": -0.0020383084192872049,
                "w": -0.9635291695594788
            },
            "time": 0.9530904293060303
        },
        {
            "position": {
                "x": 69.18328857421875,
                "y": 1.6182717084884644,
                "z": -48.34389877319336
            },
            "rotation": {
                "x": -0.006095320917665958,
                "y": 0.2590788006782532,
                "z": -0.0016350281657651067,
                "w": -0.9658355712890625
            },
            "time": 0.9904778003692627
        },
        {
            "position": {
                "x": 69.27440643310547,
                "y": 1.6151236295700074,
                "z": -48.003150939941409
            },
            "rotation": {
                "x": -0.005697100888937712,
                "y": 0.24387703835964204,
                "z": -0.0014326755190268159,
                "w": -0.9697884321212769
            },
            "time": 1.0320478677749634
        },
        {
            "position": {
                "x": 69.3690414428711,
                "y": 1.6123988628387452,
                "z": -47.689125061035159
            },
            "rotation": {
                "x": -0.0031679815147072078,
                "y": 0.23158909380435944,
                "z": -0.000754177279304713,
                "w": -0.972808301448822
            },
            "time": 1.0707014799118043
        },
        {
            "position": {
                "x": 69.4729995727539,
                "y": 1.6108675003051758,
                "z": -47.373291015625
            },
            "rotation": {
                "x": 0.0002284400979988277,
                "y": 0.2192622721195221,
                "z": 0.00005133754893904552,
                "w": -0.9756659269332886
            },
            "time": 1.1098878383636475
        },
        {
            "position": {
                "x": 69.58486938476563,
                "y": 1.6109775304794312,
                "z": -47.06031799316406
            },
            "rotation": {
                "x": -0.001082436996512115,
                "y": -0.2090330868959427,
                "z": -0.0002313767181476578,
                "w": 0.9779079556465149
            },
            "time": 1.1490576267242432
        },
        {
            "position": {
                "x": 69.70372009277344,
                "y": 1.6114997863769532,
                "z": -46.74857711791992
            },
            "rotation": {
                "x": -0.0019413591362535954,
                "y": -0.19535884261131288,
                "z": -0.0003867137129418552,
                "w": 0.980729877948761
            },
            "time": 1.1883760690689088
        },
        {
            "position": {
                "x": 69.83576202392578,
                "y": 1.6124669313430787,
                "z": -46.42931365966797
            },
            "rotation": {
                "x": -0.003228371497243643,
                "y": -0.19022051990032197,
                "z": -0.0006255272310227156,
                "w": 0.98173588514328
            },
            "time": 1.2290927171707154
        },
        {
            "position": {
                "x": 69.9640884399414,
                "y": 1.6139899492263795,
                "z": -46.12800979614258
            },
            "rotation": {
                "x": -0.003659765236079693,
                "y": -0.18593482673168183,
                "z": -0.0006925594643689692,
                "w": 0.9825550317764282
            },
            "time": 1.2676883935928345
        },
        {
            "position": {
                "x": 70.09254455566406,
                "y": 1.6156821250915528,
                "z": -45.83355712890625
            },
            "rotation": {
                "x": -0.004090137779712677,
                "y": -0.18379035592079163,
                "z": -0.0007647619349882007,
                "w": 0.9829566478729248
            },
            "time": 1.3055487871170045
        },
        {
            "position": {
                "x": 70.20198822021485,
                "y": 1.617276906967163,
                "z": -45.585636138916019
            },
            "rotation": {
                "x": -0.004090137779712677,
                "y": -0.18379035592079163,
                "z": -0.0007647619349882007,
                "w": 0.9829566478729248
            },
            "time": 1.3374873399734498
        },
        {
            "position": {
                "x": 70.37701416015625,
                "y": 1.619827151298523,
                "z": -45.18916702270508
            },
            "rotation": {
                "x": -0.004090137779712677,
                "y": -0.18379035592079163,
                "z": -0.0007647619349882007,
                "w": 0.9829566478729248
            },
            "time": 1.388562798500061
        },
        {
            "position": {
                "x": 70.45404815673828,
                "y": 1.620949625968933,
                "z": -45.014671325683597
            },
            "rotation": {
                "x": -0.004090137779712677,
                "y": -0.18379035592079163,
                "z": -0.0007647619349882007,
                "w": 0.9829566478729248
            },
            "time": 1.4110424518585206
        },
        {
            "position": {
                "x": 70.584228515625,
                "y": 1.6228464841842652,
                "z": -44.719791412353519
            },
            "rotation": {
                "x": -0.004090137779712677,
                "y": -0.18379035592079163,
                "z": -0.0007647619349882007,
                "w": 0.9829566478729248
            },
            "time": 1.4490309953689576
        },
        {
            "position": {
                "x": 70.71227264404297,
                "y": 1.6247122287750245,
                "z": -44.42974853515625
            },
            "rotation": {
                "x": -0.004090137779712677,
                "y": -0.18379035592079163,
                "z": -0.0007647619349882007,
                "w": 0.9829566478729248
            },
            "time": 1.4863961935043336
        },
        {
            "position": {
                "x": 70.83438110351563,
                "y": 1.6264914274215699,
                "z": -44.15314865112305
            },
            "rotation": {
                "x": -0.004090137779712677,
                "y": -0.18379035592079163,
                "z": -0.0007647619349882007,
                "w": 0.9829566478729248
            },
            "time": 1.5220296382904053
        },
        {
            "position": {
                "x": 70.95022583007813,
                "y": 1.6281794309616089,
                "z": -43.89073944091797
            },
            "rotation": {
                "x": -0.004090137779712677,
                "y": -0.18379035592079163,
                "z": -0.0007647619349882007,
                "w": 0.9829566478729248
            },
            "time": 1.5558348894119263
        },
        {
            "position": {
                "x": 71.07874298095703,
                "y": 1.630052089691162,
                "z": -43.59961700439453
            },
            "rotation": {
                "x": -0.004518033470958471,
                "y": -0.18464791774749757,
                "z": -0.0008488508174195886,
                "w": 0.9827939867973328
            },
            "time": 1.593338966369629
        },
        {
            "position": {
                "x": 70.9996566772461,
                "y": 1.6320555210113526,
                "z": -43.39657974243164
            },
            "rotation": {
                "x": -0.0053732022643089298,
                "y": -0.1872192621231079,
                "z": -0.0010240903357043863,
                "w": 0.9823029637336731
            },
            "time": 1.6296563148498536
        },
        {
            "position": {
                "x": 70.91790008544922,
                "y": 1.6344871520996094,
                "z": -43.18989562988281
            },
            "rotation": {
                "x": -0.005372306331992149,
                "y": -0.18807658553123475,
                "z": -0.0010287798941135407,
                "w": 0.9821391701698303
            },
            "time": 1.6667027473449708
        },
        {
            "position": {
                "x": 70.84423828125,
                "y": 1.6366684436798096,
                "z": -43.00461959838867
            },
            "rotation": {
                "x": -0.005372305866330862,
                "y": -0.18807682394981385,
                "z": -0.0010287811746820808,
                "w": 0.9821391105651856
            },
            "time": 1.6999348402023316
        },
        {
            "position": {
                "x": 70.76350402832031,
                "y": 1.63905930519104,
                "z": -42.80154800415039
            },
            "rotation": {
                "x": -0.005372305866330862,
                "y": -0.18807682394981385,
                "z": -0.0010287811746820808,
                "w": 0.9821391105651856
            },
            "time": 1.7363592386245728
        },
        {
            "position": {
                "x": 70.68174743652344,
                "y": 1.6414803266525269,
                "z": -42.59591293334961
            },
            "rotation": {
                "x": -0.005372305866330862,
                "y": -0.18807682394981385,
                "z": -0.0010287811746820808,
                "w": 0.9821391105651856
            },
            "time": 1.7732431888580323
        },
        {
            "position": {
                "x": 70.6011962890625,
                "y": 1.643865704536438,
                "z": -42.39330291748047
            },
            "rotation": {
                "x": -0.007088353857398033,
                "y": -0.18678903579711915,
                "z": -0.001347783487290144,
                "w": 0.9823735356330872
            },
            "time": 1.809584617614746
        },
        {
            "position": {
                "x": 70.52285766601563,
                "y": 1.6469463109970093,
                "z": -42.194740295410159
            },
            "rotation": {
                "x": -0.00966715719550848,
                "y": -0.1829257607460022,
                "z": -0.001798812416382134,
                "w": 0.9830775856971741
            },
            "time": 1.8451645374298096
        },
        {
            "position": {
                "x": 70.44400024414063,
                "y": 1.6512584686279297,
                "z": -41.990177154541019
            },
            "rotation": {
                "x": -0.012257215566933155,
                "y": -0.17562352120876313,
                "z": -0.0021868161857128145,
                "w": 0.9843786954879761
            },
            "time": 1.8817108869552613
        },
        {
            "position": {
                "x": 70.36998748779297,
                "y": 1.656589388847351,
                "z": -41.78935241699219
            },
            "rotation": {
                "x": -0.013560185208916664,
                "y": -0.16960404813289643,
                "z": -0.002333899261429906,
                "w": 0.9854162335395813
            },
            "time": 1.9173935651779175
        },
        {
            "position": {
                "x": 70.30152893066406,
                "y": 1.6622263193130494,
                "z": -41.59635925292969
            },
            "rotation": {
                "x": -0.015285872854292393,
                "y": -0.16744965314865113,
                "z": -0.002596592763438821,
                "w": 0.9857587218284607
            },
            "time": 1.9515360593795777
        },
        {
            "position": {
                "x": 70.22901916503906,
                "y": 1.6690378189086915,
                "z": -41.38909912109375
            },
            "rotation": {
                "x": -0.01701643317937851,
                "y": -0.1640031933784485,
                "z": -0.0028294879011809828,
                "w": 0.9863089919090271
            },
            "time": 1.988149881362915
        },
        {
            "position": {
                "x": 70.16371154785156,
                "y": 1.6760035753250123,
                "z": -41.198143005371097
            },
            "rotation": {
                "x": -0.017884811386466028,
                "y": -0.161418154835701,
                "z": -0.0029257885180413725,
                "w": 0.9867197275161743
            },
            "time": 2.021805763244629
        },
        {
            "position": {
                "x": 70.10419464111328,
                "y": 1.6827765703201295,
                "z": -41.02110290527344
            },
            "rotation": {
                "x": -0.01789240725338459,
                "y": -0.1588345319032669,
                "z": -0.002878959057852626,
                "w": 0.9871388673782349
            },
            "time": 2.052955389022827
        },
        {
            "position": {
                "x": 70.04097747802735,
                "y": 1.690084457397461,
                "z": -40.829750061035159
            },
            "rotation": {
                "x": -0.017899883911013604,
                "y": -0.15624959766864777,
                "z": -0.002832105616107583,
                "w": 0.9875513315200806
            },
            "time": 2.086564779281616
        },
        {
            "position": {
                "x": 69.97449493408203,
                "y": 1.6978940963745118,
                "z": -40.624908447265628
            },
            "rotation": {
                "x": -0.018333284184336664,
                "y": -0.1553865373134613,
                "z": -0.0028842813335359098,
                "w": 0.9876794219017029
            },
            "time": 2.1224818229675295
        },
        {
            "position": {
                "x": 69.90811157226563,
                "y": 1.7059231996536255,
                "z": -40.41914749145508
            },
            "rotation": {
                "x": -0.018333284184336664,
                "y": -0.1553865373134613,
                "z": -0.0028842813335359098,
                "w": 0.9876794219017029
            },
            "time": 2.158540725708008
        },
        {
            "position": {
                "x": 69.85111236572266,
                "y": 1.7128169536590577,
                "z": -40.24248123168945
            },
            "rotation": {
                "x": -0.018333284184336664,
                "y": -0.1553865373134613,
                "z": -0.0028842813335359098,
                "w": 0.9876794219017029
            },
            "time": 2.1895008087158205
        },
        {
            "position": {
                "x": 69.79306030273438,
                "y": 1.7198377847671509,
                "z": -40.06256103515625
            },
            "rotation": {
                "x": -0.018333284184336664,
                "y": -0.1553865373134613,
                "z": -0.0028842813335359098,
                "w": 0.9876794219017029
            },
            "time": 2.221031665802002
        },
        {
            "position": {
                "x": 69.7333984375,
                "y": 1.7270534038543702,
                "z": -39.877647399902347
            },
            "rotation": {
                "x": -0.018333284184336664,
                "y": -0.1553865373134613,
                "z": -0.0028842813335359098,
                "w": 0.9876794219017029
            },
            "time": 2.2534372806549074
        },
        {
            "position": {
                "x": 69.67396545410156,
                "y": 1.734241247177124,
                "z": -39.69344711303711
            },
            "rotation": {
                "x": -0.01745925471186638,
                "y": -0.15969711542129517,
                "z": -0.002824894618242979,
                "w": 0.9870076179504395
            },
            "time": 2.285717725753784
        },
        {
            "position": {
                "x": 69.81073760986328,
                "y": 1.7418731451034547,
                "z": -39.420745849609378
            },
            "rotation": {
                "x": -0.014852462336421013,
                "y": -0.168741375207901,
                "z": -0.0025429832749068739,
                "w": 0.9855452179908752
            },
            "time": 2.3216826915740969
        },
        {
            "position": {
                "x": 69.91423034667969,
                "y": 1.7469815015792847,
                "z": -39.204551696777347
            },
            "rotation": {
                "x": -0.01355218980461359,
                "y": -0.17304325103759767,
                "z": -0.00238126702606678,
                "w": 0.9848181009292603
            },
            "time": 2.3499367237091066
        },
        {
            "position": {
                "x": 70.02217864990235,
                "y": 1.751937747001648,
                "z": -38.9738883972168
            },
            "rotation": {
                "x": -0.010528400540351868,
                "y": -0.18120864033699037,
                "z": -0.0019400686724111438,
                "w": 0.9833864569664002
            },
            "time": 2.379955768585205
        },
        {
            "position": {
                "x": 70.13291931152344,
                "y": 1.7560399770736695,
                "z": -38.72661590576172
            },
            "rotation": {
                "x": -0.007075706031173468,
                "y": -0.19578318297863007,
                "z": -0.0014126809546723962,
                "w": 0.9806206822395325
            },
            "time": 2.4118895530700685
        },
        {
            "position": {
                "x": 70.23797607421875,
                "y": 1.7588506937026978,
                "z": -38.47200012207031
            },
            "rotation": {
                "x": -0.0023581685964018108,
                "y": -0.21713361144065858,
                "z": -0.0005245541105978191,
                "w": 0.9761389493942261
            },
            "time": 2.444352149963379
        },
        {
            "position": {
                "x": 70.33733367919922,
                "y": 1.7598470449447632,
                "z": -38.19780731201172
            },
            "rotation": {
                "x": 0.0006212760345079005,
                "y": -0.23116672039031983,
                "z": 0.00014761669444851577,
                "w": 0.9729139804840088
            },
            "time": 2.47872257232666
        },
        {
            "position": {
                "x": 70.42579650878906,
                "y": 1.7595921754837037,
                "z": -37.92982482910156
            },
            "rotation": {
                "x": -0.0027338687796145679,
                "y": 0.24557335674762727,
                "z": -0.0006925762281753123,
                "w": -0.9693739414215088
            },
            "time": 2.5119807720184328
        },
        {
            "position": {
                "x": 70.52079772949219,
                "y": 1.7582634687423707,
                "z": -37.61052322387695
            },
            "rotation": {
                "x": -0.010700222104787827,
                "y": 0.2691683769226074,
                "z": -0.002990731503814459,
                "w": -0.9630290865898132
            },
            "time": 2.551241397857666
        },
        {
            "position": {
                "x": 70.58770751953125,
                "y": 1.7538480758666993,
                "z": -37.337608337402347
            },
            "rotation": {
                "x": -0.01768505945801735,
                "y": 0.2980031967163086,
                "z": -0.005522094201296568,
                "w": -0.9543851017951965
            },
            "time": 2.5843613147735597
        },
        {
            "position": {
                "x": 70.6404037475586,
                "y": 1.7461529970169068,
                "z": -37.048736572265628
            },
            "rotation": {
                "x": -0.022508786991238595,
                "y": 0.320370078086853,
                "z": -0.007614767178893089,
                "w": -0.946994423866272
            },
            "time": 2.618978977203369
        },
        {
            "position": {
                "x": 70.680908203125,
                "y": 1.7359261512756348,
                "z": -36.74720001220703
            },
            "rotation": {
                "x": -0.027257664129137994,
                "y": 0.34090542793273928,
                "z": -0.009889088571071625,
                "w": -0.9396503567695618
            },
            "time": 2.6548547744750978
        },
        {
            "position": {
                "x": 70.70690155029297,
                "y": 1.7240841388702393,
                "z": -36.459712982177737
            },
            "rotation": {
                "x": -0.03501053526997566,
                "y": 0.3717638850212097,
                "z": -0.01403212919831276,
                "w": -0.9275608062744141
            },
            "time": 2.6889023780822756
        },
        {
            "position": {
                "x": 70.71446990966797,
                "y": 1.7075504064559937,
                "z": -36.150062561035159
            },
            "rotation": {
                "x": -0.03999677672982216,
                "y": 0.4081893563270569,
                "z": -0.017904644832015039,
                "w": -0.9118449091911316
            },
            "time": 2.7254576683044435
        },
        {
            "position": {
                "x": 70.6991958618164,
                "y": 1.6901493072509766,
                "z": -35.86996078491211
            },
            "rotation": {
                "x": -0.04318695887923241,
                "y": 0.44280335307121279,
                "z": -0.02135913074016571,
                "w": -0.8953233957290649
            },
            "time": 2.758580446243286
        },
        {
            "position": {
                "x": 70.6573257446289,
                "y": 1.6682617664337159,
                "z": -35.551849365234378
            },
            "rotation": {
                "x": -0.04551846534013748,
                "y": 0.4859151244163513,
                "z": -0.025351673364639283,
                "w": -0.872451663017273
            },
            "time": 2.7964816093444826
        },
        {
            "position": {
                "x": 70.57848358154297,
                "y": 1.642548680305481,
                "z": -35.2123908996582
            },
            "rotation": {
                "x": -0.047293875366449359,
                "y": 0.5352174639701843,
                "z": -0.03003188595175743,
                "w": -0.8428544998168945
            },
            "time": 2.837663412094116
        },
        {
            "position": {
                "x": 70.57848358154297,
                "y": 1.642548680305481,
                "z": -35.2123908996582
            },
            "rotation": {
                "x": -0.048052575439214709,
                "y": 0.580621600151062,
                "z": -0.034358881413936618,
                "w": -0.8120276927947998
            },
            "time": 2.875256061553955
        },
        {
            "position": {
                "x": 70.57848358154297,
                "y": 1.642548680305481,
                "z": -35.2123908996582
            },
            "rotation": {
                "x": -0.04778143763542175,
                "y": 0.6174797415733337,
                "z": -0.03762159124016762,
                "w": -0.7842323780059815
            },
            "time": 2.9115262031555177
        },
        {
            "position": {
                "x": 70.57848358154297,
                "y": 1.642548680305481,
                "z": -35.2123908996582
            },
            "rotation": {
                "x": -0.04708108678460121,
                "y": 0.6384497284889221,
                "z": -0.039178866893053058,
                "w": -0.7672224640846252
            },
            "time": 2.9489598274230959
        },
        {
            "position": {
                "x": 70.57848358154297,
                "y": 1.642548680305481,
                "z": -35.2123908996582
            },
            "rotation": {
                "x": -0.04680642858147621,
                "y": 0.6437902450561523,
                "z": -0.039506588131189349,
                "w": -0.7627467513084412
            },
            "time": 2.9896583557128908
        },
        {
            "position": {
                "x": 70.57848358154297,
                "y": 1.642548680305481,
                "z": -35.2123908996582
            },
            "rotation": {
                "x": -0.04678918421268463,
                "y": 0.6441229581832886,
                "z": -0.039527006447315219,
                "w": -0.76246577501297
            },
            "time": 3.027522563934326
        },
        {
            "position": {
                "x": 70.57848358154297,
                "y": 1.642548680305481,
                "z": -35.2123908996582
            },
            "rotation": {
                "x": -0.045189160853624347,
                "y": 0.649498701095581,
                "z": -0.03871915489435196,
                "w": -0.7580305337905884
            },
            "time": 3.0683741569519045
        },
        {
            "position": {
                "x": 70.57848358154297,
                "y": 1.642548680305481,
                "z": -35.2123908996582
            },
            "rotation": {
                "x": -0.04477444291114807,
                "y": 0.6511678695678711,
                "z": -0.0385335348546505,
                "w": -0.7566312551498413
            },
            "time": 3.1078646183013918
        },
        {
            "position": {
                "x": 70.57848358154297,
                "y": 1.642548680305481,
                "z": -35.2123908996582
            },
            "rotation": {
                "x": -0.04474079981446266,
                "y": 0.6518278121948242,
                "z": -0.03857259079813957,
                "w": -0.7560627460479736
            },
            "time": 3.1491525173187258
        },
        {
            "position": {
                "x": 70.57848358154297,
                "y": 1.642548680305481,
                "z": -35.2123908996582
            },
            "rotation": {
                "x": -0.04467340186238289,
                "y": 0.653146505355835,
                "z": -0.038650620728731158,
                "w": -0.7549238204956055
            },
            "time": 3.1885626316070558
        },
        {
            "position": {
                "x": 70.57848358154297,
                "y": 1.642548680305481,
                "z": -35.2123908996582
            },
            "rotation": {
                "x": -0.04467340558767319,
                "y": 0.653146505355835,
                "z": -0.038650624454021457,
                "w": -0.7549238204956055
            },
            "time": 3.2276761531829836
        },
        {
            "position": {
                "x": 70.57848358154297,
                "y": 1.642548680305481,
                "z": -35.2123908996582
            },
            "rotation": {
                "x": -0.044673409312963489,
                "y": 0.653146505355835,
                "z": -0.03865062817931175,
                "w": -0.7549238204956055
            },
            "time": 3.2678680419921877
        },
        {
            "position": {
                "x": 70.57848358154297,
                "y": 1.642548680305481,
                "z": -35.2123908996582
            },
            "rotation": {
                "x": -0.044673413038253787,
                "y": 0.653146505355835,
                "z": -0.03865063190460205,
                "w": -0.7549238204956055
            },
            "time": 3.30657696723938
        },
        {
            "position": {
                "x": 70.57848358154297,
                "y": 1.642548680305481,
                "z": -35.2123908996582
            },
            "rotation": {
                "x": -0.0444776751101017,
                "y": 0.6505240797996521,
                "z": -0.03821062296628952,
                "w": -0.7572187185287476
            },
            "time": 3.3473269939422609
        },
        {
            "position": {
                "x": 70.57848358154297,
                "y": 1.642548680305481,
                "z": -35.2123908996582
            },
            "rotation": {
                "x": -0.04216468334197998,
                "y": 0.6506377458572388,
                "z": -0.03622353821992874,
                "w": -0.7573509812355042
            },
            "time": 3.3875768184661867
        },
        {
            "position": {
                "x": 70.57848358154297,
                "y": 1.642548680305481,
                "z": -35.2123908996582
            },
            "rotation": {
                "x": -0.04042103886604309,
                "y": 0.6526960134506226,
                "z": -0.0349099226295948,
                "w": -0.7557349801063538
            },
            "time": 3.4264016151428224
        },
        {
            "position": {
                "x": 70.57848358154297,
                "y": 1.642548680305481,
                "z": -35.2123908996582
            },
            "rotation": {
                "x": -0.03901343047618866,
                "y": 0.6547322869300842,
                "z": -0.033872950822114947,
                "w": -0.7540929913520813
            },
            "time": 3.469421148300171
        },
        {
            "position": {
                "x": 70.57848358154297,
                "y": 1.642548680305481,
                "z": -35.2123908996582
            },
            "rotation": {
                "x": -0.03901343047618866,
                "y": 0.6547322869300842,
                "z": -0.033872950822114947,
                "w": -0.7540929913520813
            },
            "time": 3.507045030593872
        },
        {
            "position": {
                "x": 70.57848358154297,
                "y": 1.642548680305481,
                "z": -35.2123908996582
            },
            "rotation": {
                "x": -0.037410177290439609,
                "y": 0.6613466143608093,
                "z": -0.03305789455771446,
                "w": -0.7484171986579895
            },
            "time": 3.5462846755981447
        },
        {
            "position": {
                "x": 70.57848358154297,
                "y": 1.642548680305481,
                "z": -35.2123908996582
            },
            "rotation": {
                "x": -0.035079192370176318,
                "y": 0.6702030301094055,
                "z": -0.03174184262752533,
                "w": -0.7406684756278992
            },
            "time": 3.586667537689209
        },
        {
            "position": {
                "x": 70.57848358154297,
                "y": 1.642548680305481,
                "z": -35.2123908996582
            },
            "rotation": {
                "x": -0.03326432779431343,
                "y": 0.675104558467865,
                "z": -0.03049798123538494,
                "w": -0.7363404631614685
            },
            "time": 3.625516176223755
        },
        {
            "position": {
                "x": 70.57848358154297,
                "y": 1.642548680305481,
                "z": -35.2123908996582
            },
            "rotation": {
                "x": -0.03277118504047394,
                "y": 0.6792836785316467,
                "z": -0.030389780178666116,
                "w": -0.7325136661529541
            },
            "time": 3.6709725856781008
        },
        {
            "position": {
                "x": 70.57848358154297,
                "y": 1.642548680305481,
                "z": -35.2123908996582
            },
            "rotation": {
                "x": -0.03259827941656113,
                "y": 0.6834276914596558,
                "z": -0.03057517483830452,
                "w": -0.7286489009857178
            },
            "time": 3.7136919498443605
        },
        {
            "position": {
                "x": 70.57848358154297,
                "y": 1.642548680305481,
                "z": -35.2123908996582
            },
            "rotation": {
                "x": -0.03257158398628235,
                "y": 0.6840634346008301,
                "z": -0.030603619292378427,
                "w": -0.7280520796775818
            },
            "time": 3.742828130722046
        },
        {
            "position": {
                "x": 70.57848358154297,
                "y": 1.642548680305481,
                "z": -35.2123908996582
            },
            "rotation": {
                "x": -0.03257158771157265,
                "y": 0.6840634346008301,
                "z": -0.030603623017668725,
                "w": -0.7280520796775818
            },
            "time": 3.7828450202941896
        },
        {
            "position": {
                "x": 70.57848358154297,
                "y": 1.642548680305481,
                "z": -35.2123908996582
            },
            "rotation": {
                "x": -0.03249136731028557,
                "y": 0.685966968536377,
                "z": -0.03068879246711731,
                "w": -0.7262587547302246
            },
            "time": 3.8208656311035158
        },
        {
            "position": {
                "x": 70.57848358154297,
                "y": 1.642548680305481,
                "z": -35.2123908996582
            },
            "rotation": {
                "x": -0.032330237329006198,
                "y": 0.6897603869438171,
                "z": -0.030858507379889489,
                "w": -0.7226570248603821
            },
            "time": 3.8579697608947756
        },
        {
            "position": {
                "x": 70.57848358154297,
                "y": 1.642548680305481,
                "z": -35.2123908996582
            },
            "rotation": {
                "x": -0.03238610550761223,
                "y": 0.6957141757011414,
                "z": -0.031429044902324679,
                "w": -0.7168997526168823
            },
            "time": 3.897249937057495
        },
        {
            "position": {
                "x": 70.57848358154297,
                "y": 1.642548680305481,
                "z": -35.2123908996582
            },
            "rotation": {
                "x": -0.0311263557523489,
                "y": 0.703224241733551,
                "z": -0.03084597736597061,
                "w": -0.7096163034439087
            },
            "time": 3.939512252807617
        },
        {
            "position": {
                "x": 70.57848358154297,
                "y": 1.642548680305481,
                "z": -35.2123908996582
            },
            "rotation": {
                "x": -0.029347026720643045,
                "y": 0.7088419795036316,
                "z": -0.029543114826083185,
                "w": -0.7041371464729309
            },
            "time": 3.975144147872925
        },
        {
            "position": {
                "x": 70.57848358154297,
                "y": 1.642548680305481,
                "z": -35.2123908996582
            },
            "rotation": {
                "x": -0.028975937515497209,
                "y": 0.7103893756866455,
                "z": -0.029297111555933954,
                "w": -0.7026016116142273
            },
            "time": 4.016218662261963
        },
        {
            "position": {
                "x": 70.57848358154297,
                "y": 1.642548680305481,
                "z": -35.2123908996582
            },
            "rotation": {
                "x": -0.02897593565285206,
                "y": 0.7103893756866455,
                "z": -0.029297109693288804,
                "w": -0.7026016116142273
            },
            "time": 4.053938388824463
        },
        {
            "position": {
                "x": 70.57848358154297,
                "y": 1.642548680305481,
                "z": -35.2123908996582
            },
            "rotation": {
                "x": -0.02897593565285206,
                "y": 0.7103893756866455,
                "z": -0.029297109693288804,
                "w": -0.7026016116142273
            },
            "time": 4.09000825881958
        },
        {
            "position": {
                "x": 70.57848358154297,
                "y": 1.642548680305481,
                "z": -35.2123908996582
            },
            "rotation": {
                "x": -0.02897593565285206,
                "y": 0.7103893756866455,
                "z": -0.029297109693288804,
                "w": -0.7026016116142273
            },
            "time": 4.132699489593506
        },
        {
            "position": {
                "x": 70.57848358154297,
                "y": 1.642548680305481,
                "z": -35.2123908996582
            },
            "rotation": {
                "x": -0.02897593565285206,
                "y": 0.7103893756866455,
                "z": -0.029297109693288804,
                "w": -0.7026016116142273
            },
            "time": 4.169997215270996
        },
        {
            "position": {
                "x": 70.57848358154297,
                "y": 1.642548680305481,
                "z": -35.2123908996582
            },
            "rotation": {
                "x": -0.02833775244653225,
                "y": 0.7110275626182556,
                "z": -0.0287019070237875,
                "w": -0.7020063996315002
            },
            "time": 4.206238746643066
        },
        {
            "position": {
                "x": 70.57848358154297,
                "y": 1.642548680305481,
                "z": -35.2123908996582
            },
            "rotation": {
                "x": -0.025783948600292207,
                "y": 0.7138752341270447,
                "z": -0.02632124349474907,
                "w": -0.6993029117584229
            },
            "time": 4.24521017074585
        },
        {
            "position": {
                "x": 70.57848358154297,
                "y": 1.642548680305481,
                "z": -35.2123908996582
            },
            "rotation": {
                "x": -0.02543337456882,
                "y": 0.7151063680648804,
                "z": -0.026054194197058679,
                "w": -0.6980668306350708
            },
            "time": 4.282802581787109
        },
        {
            "position": {
                "x": 70.57848358154297,
                "y": 1.642548680305481,
                "z": -35.2123908996582
            },
            "rotation": {
                "x": -0.025433367118239404,
                "y": 0.7151065468788147,
                "z": -0.026054199784994127,
                "w": -0.6980666518211365
            },
            "time": 4.32020378112793
        },
        {
            "position": {
                "x": 70.57848358154297,
                "y": 1.642548680305481,
                "z": -35.2123908996582
            },
            "rotation": {
                "x": -0.025433367118239404,
                "y": 0.7151065468788147,
                "z": -0.026054199784994127,
                "w": -0.6980666518211365
            },
            "time": 4.357049465179443
        },
        {
            "position": {
                "x": 70.57848358154297,
                "y": 1.642548680305481,
                "z": -35.2123908996582
            },
            "rotation": {
                "x": -0.025128774344921113,
                "y": 0.715117871761322,
                "z": -0.025742171332240106,
                "w": -0.6980776786804199
            },
            "time": 4.405083179473877
        },
        {
            "position": {
                "x": 70.57848358154297,
                "y": 1.642548680305481,
                "z": -35.2123908996582
            },
            "rotation": {
                "x": -0.025128774344921113,
                "y": 0.715117871761322,
                "z": -0.025742171332240106,
                "w": -0.6980776786804199
            },
            "time": 4.435446262359619
        },
        {
            "position": {
                "x": 70.57848358154297,
                "y": 1.642548680305481,
                "z": -35.2123908996582
            },
            "rotation": {
                "x": -0.025128774344921113,
                "y": 0.715117871761322,
                "z": -0.025742171332240106,
                "w": -0.6980776786804199
            },
            "time": 4.471960067749023
        },
        {
            "position": {
                "x": 70.57848358154297,
                "y": 1.642548680305481,
                "z": -35.2123908996582
            },
            "rotation": {
                "x": -0.025128774344921113,
                "y": 0.715117871761322,
                "z": -0.025742171332240106,
                "w": -0.6980776786804199
            },
            "time": 4.507322788238525
        },
        {
            "position": {
                "x": 70.57848358154297,
                "y": 1.642548680305481,
                "z": -35.2123908996582
            },
            "rotation": {
                "x": -0.025128774344921113,
                "y": 0.715117871761322,
                "z": -0.025742171332240106,
                "w": -0.6980776786804199
            },
            "time": 4.547433853149414
        },
        {
            "position": {
                "x": 70.57848358154297,
                "y": 1.642548680305481,
                "z": -35.2123908996582
            },
            "rotation": {
                "x": -0.025128774344921113,
                "y": 0.715117871761322,
                "z": -0.025742171332240106,
                "w": -0.6980776786804199
            },
            "time": 4.584949016571045
        },
        {
            "position": {
                "x": 70.57848358154297,
                "y": 1.642548680305481,
                "z": -35.2123908996582
            },
            "rotation": {
                "x": -0.025128774344921113,
                "y": 0.715117871761322,
                "z": -0.025742171332240106,
                "w": -0.6980776786804199
            },
            "time": 4.623168468475342
        }
    ]
}