{
    "transformations": [
        {
            "position": {
                "x": -4.9855122566223148,
                "y": 1.572021245956421,
                "z": -13.785828590393067
            },
            "rotation": {
                "x": -0.014823438599705696,
                "y": 0.07442596554756165,
                "z": -0.0011064399732276798,
                "w": -0.9971157312393189
            },
            "time": 0.016667500138282777
        },
        {
            "position": {
                "x": -4.9855122566223148,
                "y": 1.572021245956421,
                "z": -13.785828590393067
            },
            "rotation": {
                "x": -0.014823438599705696,
                "y": 0.07442596554756165,
                "z": -0.0011064399732276798,
                "w": -0.9971157312393189
            },
            "time": 0.03340639919042587
        },
        {
            "position": {
                "x": -4.9855122566223148,
                "y": 1.572021245956421,
                "z": -13.785828590393067
            },
            "rotation": {
                "x": -0.014823438599705696,
                "y": 0.07442596554756165,
                "z": -0.0011064399732276798,
                "w": -0.9971157312393189
            },
            "time": 0.05030369758605957
        },
        {
            "position": {
                "x": -4.9855122566223148,
                "y": 1.572021245956421,
                "z": -13.785828590393067
            },
            "rotation": {
                "x": -0.014823438599705696,
                "y": 0.07442596554756165,
                "z": -0.0011064399732276798,
                "w": -0.9971157312393189
            },
            "time": 0.06697089970111847
        },
        {
            "position": {
                "x": -4.9855122566223148,
                "y": 1.572021245956421,
                "z": -13.785828590393067
            },
            "rotation": {
                "x": -0.014823438599705696,
                "y": 0.07442596554756165,
                "z": -0.0011064399732276798,
                "w": -0.9971157312393189
            },
            "time": 0.0836367979645729
        },
        {
            "position": {
                "x": -4.9855122566223148,
                "y": 1.572021245956421,
                "z": -13.785828590393067
            },
            "rotation": {
                "x": -0.014823438599705696,
                "y": 0.07442596554756165,
                "z": -0.0011064399732276798,
                "w": -0.9971157312393189
            },
            "time": 0.1003056988120079
        },
        {
            "position": {
                "x": -4.9855122566223148,
                "y": 1.572021245956421,
                "z": -13.785828590393067
            },
            "rotation": {
                "x": -0.014823438599705696,
                "y": 0.07442596554756165,
                "z": -0.0011064399732276798,
                "w": -0.9971157312393189
            },
            "time": 0.11697249859571457
        },
        {
            "position": {
                "x": -4.9855122566223148,
                "y": 1.572021245956421,
                "z": -13.785828590393067
            },
            "rotation": {
                "x": -0.014823438599705696,
                "y": 0.07442596554756165,
                "z": -0.0011064399732276798,
                "w": -0.9971157312393189
            },
            "time": 0.1336548924446106
        },
        {
            "position": {
                "x": -4.9855122566223148,
                "y": 1.572021245956421,
                "z": -13.785828590393067
            },
            "rotation": {
                "x": -0.014823438599705696,
                "y": 0.07442596554756165,
                "z": -0.0011064399732276798,
                "w": -0.9971157312393189
            },
            "time": 0.1503053903579712
        },
        {
            "position": {
                "x": -4.9855122566223148,
                "y": 1.572021245956421,
                "z": -13.785828590393067
            },
            "rotation": {
                "x": -0.014823438599705696,
                "y": 0.07442596554756165,
                "z": -0.0011064399732276798,
                "w": -0.9971157312393189
            },
            "time": 0.1669916957616806
        },
        {
            "position": {
                "x": -4.9855122566223148,
                "y": 1.572021245956421,
                "z": -13.785828590393067
            },
            "rotation": {
                "x": -0.014823438599705696,
                "y": 0.07442596554756165,
                "z": -0.0011064399732276798,
                "w": -0.9971157312393189
            },
            "time": 0.18365830183029176
        },
        {
            "position": {
                "x": -4.9855122566223148,
                "y": 1.572021245956421,
                "z": -13.785828590393067
            },
            "rotation": {
                "x": -0.014823438599705696,
                "y": 0.07442596554756165,
                "z": -0.0011064399732276798,
                "w": -0.9971157312393189
            },
            "time": 0.2009871006011963
        },
        {
            "position": {
                "x": -4.9855122566223148,
                "y": 1.572021245956421,
                "z": -13.785828590393067
            },
            "rotation": {
                "x": -0.014823438599705696,
                "y": 0.07442596554756165,
                "z": -0.0011064399732276798,
                "w": -0.9971157312393189
            },
            "time": 0.21799570322036744
        },
        {
            "position": {
                "x": -4.9855122566223148,
                "y": 1.572021245956421,
                "z": -13.785828590393067
            },
            "rotation": {
                "x": -0.014823438599705696,
                "y": 0.07442596554756165,
                "z": -0.0011064399732276798,
                "w": -0.9971157312393189
            },
            "time": 0.23491279780864716
        },
        {
            "position": {
                "x": -4.9855122566223148,
                "y": 1.572021245956421,
                "z": -13.785828590393067
            },
            "rotation": {
                "x": -0.014823438599705696,
                "y": 0.07442596554756165,
                "z": -0.0011064399732276798,
                "w": -0.9971157312393189
            },
            "time": 0.2518618106842041
        },
        {
            "position": {
                "x": -4.9855122566223148,
                "y": 1.572021245956421,
                "z": -13.785828590393067
            },
            "rotation": {
                "x": -0.014823438599705696,
                "y": 0.07442596554756165,
                "z": -0.0011064399732276798,
                "w": -0.9971157312393189
            },
            "time": 0.268685907125473
        },
        {
            "position": {
                "x": -4.9855122566223148,
                "y": 1.572021245956421,
                "z": -13.785828590393067
            },
            "rotation": {
                "x": -0.014823438599705696,
                "y": 0.07442596554756165,
                "z": -0.0011064399732276798,
                "w": -0.9971157312393189
            },
            "time": 0.28582361340522768
        },
        {
            "position": {
                "x": -4.9855122566223148,
                "y": 1.572021245956421,
                "z": -13.785828590393067
            },
            "rotation": {
                "x": -0.014823438599705696,
                "y": 0.07442596554756165,
                "z": -0.0011064399732276798,
                "w": -0.9971157312393189
            },
            "time": 0.3025937080383301
        },
        {
            "position": {
                "x": -4.9855122566223148,
                "y": 1.572021245956421,
                "z": -13.785828590393067
            },
            "rotation": {
                "x": -0.014823438599705696,
                "y": 0.07442596554756165,
                "z": -0.0011064399732276798,
                "w": -0.9971157312393189
            },
            "time": 0.3192625045776367
        },
        {
            "position": {
                "x": -4.9855122566223148,
                "y": 1.572021245956421,
                "z": -13.785828590393067
            },
            "rotation": {
                "x": -0.014822468161582947,
                "y": 0.07529603689908982,
                "z": -0.0011193747632205487,
                "w": -0.9970504641532898
            },
            "time": 0.3359310030937195
        },
        {
            "position": {
                "x": -4.9855122566223148,
                "y": 1.572021245956421,
                "z": -13.785828590393067
            },
            "rotation": {
                "x": -0.014812137000262738,
                "y": 0.08399391174316406,
                "z": -0.0012486802879720927,
                "w": -0.996355414390564
            },
            "time": 0.35259538888931277
        },
        {
            "position": {
                "x": -4.9855122566223148,
                "y": 1.572021245956421,
                "z": -13.785828590393067
            },
            "rotation": {
                "x": -0.014507485553622246,
                "y": 0.09529199451208115,
                "z": -0.0013889159308746458,
                "w": -0.9953426718711853
            },
            "time": 0.36926278471946719
        },
        {
            "position": {
                "x": -4.9855122566223148,
                "y": 1.572021245956421,
                "z": -13.785828590393067
            },
            "rotation": {
                "x": -0.014761069789528847,
                "y": 0.11784869432449341,
                "z": -0.0017519763205200434,
                "w": -0.9929202795028687
            },
            "time": 0.38592949509620669
        },
        {
            "position": {
                "x": -4.9855122566223148,
                "y": 1.572021245956421,
                "z": -13.785828590393067
            },
            "rotation": {
                "x": -0.014587604440748692,
                "y": 0.1334303468465805,
                "z": -0.001964207272976637,
                "w": -0.9909489154815674
            },
            "time": 0.4025965929031372
        },
        {
            "position": {
                "x": -4.9855122566223148,
                "y": 1.572021245956421,
                "z": -13.785828590393067
            },
            "rotation": {
                "x": -0.013981562107801438,
                "y": 0.14811742305755616,
                "z": -0.002094224328175187,
                "w": -0.9888687133789063
            },
            "time": 0.41939279437065127
        },
        {
            "position": {
                "x": -4.9855122566223148,
                "y": 1.572021245956421,
                "z": -13.785828590393067
            },
            "rotation": {
                "x": -0.01323340367525816,
                "y": 0.1619115024805069,
                "z": -0.0021714901085942985,
                "w": -0.9867141842842102
            },
            "time": 0.43605929613113406
        },
        {
            "position": {
                "x": -4.9855122566223148,
                "y": 1.572021245956421,
                "z": -13.785828590393067
            },
            "rotation": {
                "x": -0.01248497236520052,
                "y": 0.1761036515235901,
                "z": -0.0022337413392961027,
                "w": -0.9842899441719055
            },
            "time": 0.4532395005226135
        },
        {
            "position": {
                "x": -4.9855122566223148,
                "y": 1.572021245956421,
                "z": -13.785828590393067
            },
            "rotation": {
                "x": -0.012025218456983567,
                "y": 0.18940186500549317,
                "z": -0.002319764345884323,
                "w": -0.9818233251571655
            },
            "time": 0.4699060916900635
        },
        {
            "position": {
                "x": -4.9855122566223148,
                "y": 1.572021245956421,
                "z": -13.785828590393067
            },
            "rotation": {
                "x": -0.011563404463231564,
                "y": 0.20351989567279817,
                "z": -0.0024038648698478939,
                "w": -0.9789996147155762
            },
            "time": 0.48678287863731387
        },
        {
            "position": {
                "x": -4.9855122566223148,
                "y": 1.572021245956421,
                "z": -13.785828590393067
            },
            "rotation": {
                "x": -0.010816793888807297,
                "y": 0.21802259981632234,
                "z": -0.0024165918584913017,
                "w": -0.9758808016777039
            },
            "time": 0.5037057995796204
        },
        {
            "position": {
                "x": -4.9855122566223148,
                "y": 1.572021245956421,
                "z": -13.785828590393067
            },
            "rotation": {
                "x": -0.009920596145093441,
                "y": 0.2367192953824997,
                "z": -0.002417228417471051,
                "w": -0.9715244770050049
            },
            "time": 0.5207207202911377
        },
        {
            "position": {
                "x": -4.9855122566223148,
                "y": 1.572021245956421,
                "z": -13.785828590393067
            },
            "rotation": {
                "x": -0.009753805585205555,
                "y": 0.24688059091567994,
                "z": -0.0024850782938301565,
                "w": -0.9689936637878418
            },
            "time": 0.5376151204109192
        },
        {
            "position": {
                "x": -4.9855122566223148,
                "y": 1.572021245956421,
                "z": -13.785828590393067
            },
            "rotation": {
                "x": -0.0095866983756423,
                "y": 0.25701460242271426,
                "z": -0.0025497020687907936,
                "w": -0.966356635093689
            },
            "time": 0.5545791983604431
        },
        {
            "position": {
                "x": -4.9855122566223148,
                "y": 1.572021245956421,
                "z": -13.785828590393067
            },
            "rotation": {
                "x": -0.00942386407405138,
                "y": 0.2654380798339844,
                "z": -0.0025946565438061954,
                "w": -0.964078426361084
            },
            "time": 0.5715221166610718
        },
        {
            "position": {
                "x": -4.9855122566223148,
                "y": 1.572021245956421,
                "z": -13.785828590393067
            },
            "rotation": {
                "x": -0.008828050456941128,
                "y": 0.2788745164871216,
                "z": -0.0025637405924499037,
                "w": -0.9602835774421692
            },
            "time": 0.5881884098052979
        },
        {
            "position": {
                "x": -4.9855122566223148,
                "y": 1.572021245956421,
                "z": -13.785828590393067
            },
            "rotation": {
                "x": -0.008525608107447625,
                "y": 0.28766265511512759,
                "z": -0.002560847206041217,
                "w": -0.9576904773712158
            },
            "time": 0.6048575043678284
        },
        {
            "position": {
                "x": -4.9855122566223148,
                "y": 1.572021245956421,
                "z": -13.785828590393067
            },
            "rotation": {
                "x": -0.008498325012624264,
                "y": 0.2976756691932678,
                "z": -0.002649986185133457,
                "w": -0.9546255469322205
            },
            "time": 0.621526300907135
        },
        {
            "position": {
                "x": -4.9855122566223148,
                "y": 1.572021245956421,
                "z": -13.785828590393067
            },
            "rotation": {
                "x": -0.008881490677595139,
                "y": 0.30889996886253359,
                "z": -0.0028847018256783487,
                "w": -0.951048731803894
            },
            "time": 0.6381909251213074
        },
        {
            "position": {
                "x": -4.9855122566223148,
                "y": 1.572021245956421,
                "z": -13.785828590393067
            },
            "rotation": {
                "x": -0.008567522279918194,
                "y": 0.32132312655448916,
                "z": -0.0029072407633066179,
                "w": -0.9469264149665833
            },
            "time": 0.6548589468002319
        },
        {
            "position": {
                "x": -4.9855122566223148,
                "y": 1.572021245956421,
                "z": -13.785828590393067
            },
            "rotation": {
                "x": -0.008119934238493443,
                "y": 0.3328690230846405,
                "z": -0.0028664518613368274,
                "w": -0.9429337978363037
            },
            "time": 0.6715251207351685
        },
        {
            "position": {
                "x": -4.9855122566223148,
                "y": 1.572021245956421,
                "z": -13.785828590393067
            },
            "rotation": {
                "x": -0.007806211244314909,
                "y": 0.3460029363632202,
                "z": -0.0028788975905627014,
                "w": -0.93819659948349
            },
            "time": 0.6881960034370422
        },
        {
            "position": {
                "x": -4.9855122566223148,
                "y": 1.572021245956421,
                "z": -13.785828590393067
            },
            "rotation": {
                "x": -0.007617930416017771,
                "y": 0.3627309799194336,
                "z": -0.002965321997180581,
                "w": -0.9318580627441406
            },
            "time": 0.7051076292991638
        },
        {
            "position": {
                "x": -4.9855122566223148,
                "y": 1.572021245956421,
                "z": -13.785828590393067
            },
            "rotation": {
                "x": -0.0071802809834480289,
                "y": 0.37287554144859316,
                "z": -0.002885545836761594,
                "w": -0.9278491139411926
            },
            "time": 0.7220109105110169
        },
        {
            "position": {
                "x": -4.9855122566223148,
                "y": 1.572021245956421,
                "z": -13.785828590393067
            },
            "rotation": {
                "x": -0.006612169556319714,
                "y": 0.38257303833961489,
                "z": -0.0027380071114748718,
                "w": -0.9238975048065186
            },
            "time": 0.7390522956848145
        },
        {
            "position": {
                "x": -4.9855122566223148,
                "y": 1.572021245956421,
                "z": -13.785828590393067
            },
            "rotation": {
                "x": -0.006047992501407862,
                "y": 0.39222854375839236,
                "z": -0.0025789097417145969,
                "w": -0.9198442697525024
            },
            "time": 0.7559146881103516
        },
        {
            "position": {
                "x": -4.9855122566223148,
                "y": 1.572021245956421,
                "z": -13.785828590393067
            },
            "rotation": {
                "x": -0.005754292476922274,
                "y": 0.40184029936790469,
                "z": -0.002525211777538061,
                "w": -0.9156882166862488
            },
            "time": 0.7729901671409607
        },
        {
            "position": {
                "x": -4.9855122566223148,
                "y": 1.572021245956421,
                "z": -13.785828590393067
            },
            "rotation": {
                "x": -0.005727533251047134,
                "y": 0.4114072322845459,
                "z": -0.0025853312108665706,
                "w": -0.9114300012588501
            },
            "time": 0.7896555662155151
        },
        {
            "position": {
                "x": -4.9855122566223148,
                "y": 1.572021245956421,
                "z": -13.785828590393067
            },
            "rotation": {
                "x": -0.005558027885854244,
                "y": 0.42448824644088747,
                "z": -0.0026057923678308727,
                "w": -0.9054126739501953
            },
            "time": 0.8068168759346008
        },
        {
            "position": {
                "x": -4.9855122566223148,
                "y": 1.572021245956421,
                "z": -13.785828590393067
            },
            "rotation": {
                "x": -0.005144869443029165,
                "y": 0.43119367957115176,
                "z": -0.0024588045198470356,
                "w": -0.9022414088249207
            },
            "time": 0.8238508701324463
        },
        {
            "position": {
                "x": -4.9855122566223148,
                "y": 1.572021245956421,
                "z": -13.785828590393067
            },
            "rotation": {
                "x": -0.0048670414835214619,
                "y": 0.437090128660202,
                "z": -0.0023652794770896436,
                "w": -0.8994014859199524
            },
            "time": 0.8406733870506287
        },
        {
            "position": {
                "x": -4.9855122566223148,
                "y": 1.572021245956421,
                "z": -13.785828590393067
            },
            "rotation": {
                "x": -0.004852502606809139,
                "y": 0.44257616996765139,
                "z": -0.0023949670139700176,
                "w": -0.8967146277427673
            },
            "time": 0.857754111289978
        },
        {
            "position": {
                "x": -4.9855122566223148,
                "y": 1.572021245956421,
                "z": -13.785828590393067
            },
            "rotation": {
                "x": -0.0045777298510074619,
                "y": 0.44804635643959048,
                "z": -0.002294234000146389,
                "w": -0.8939956426620483
            },
            "time": 0.8745896220207214
        },
        {
            "position": {
                "x": -4.9855122566223148,
                "y": 1.572021245956421,
                "z": -13.785828590393067
            },
            "rotation": {
                "x": -0.004423125181347132,
                "y": 0.457771897315979,
                "z": -0.0022774524986743929,
                "w": -0.8890557885169983
            },
            "time": 0.8915461301803589
        },
        {
            "position": {
                "x": -4.9855122566223148,
                "y": 1.572021245956421,
                "z": -13.785828590393067
            },
            "rotation": {
                "x": -0.004543192218989134,
                "y": 0.46125951409339907,
                "z": -0.002361892955377698,
                "w": -0.8872504830360413
            },
            "time": 0.908553421497345
        },
        {
            "position": {
                "x": -4.9855122566223148,
                "y": 1.572021245956421,
                "z": -13.785828590393067
            },
            "rotation": {
                "x": -0.005284525919705629,
                "y": 0.47167786955833437,
                "z": -0.002826869720593095,
                "w": -0.8817505836486816
            },
            "time": 0.9255660176277161
        },
        {
            "position": {
                "x": -4.9855122566223148,
                "y": 1.572021245956421,
                "z": -13.785828590393067
            },
            "rotation": {
                "x": -0.005257145967334509,
                "y": 0.48012033104896548,
                "z": -0.002877466846257448,
                "w": -0.8771821856498718
            },
            "time": 0.9424850940704346
        },
        {
            "position": {
                "x": -4.9855122566223148,
                "y": 1.572021245956421,
                "z": -13.785828590393067
            },
            "rotation": {
                "x": -0.005233109928667545,
                "y": 0.48737606406211855,
                "z": -0.0029209519270807506,
                "w": -0.8731716275215149
            },
            "time": 0.9594749212265015
        },
        {
            "position": {
                "x": -4.9855122566223148,
                "y": 1.572021245956421,
                "z": -13.785828590393067
            },
            "rotation": {
                "x": -0.005084831267595291,
                "y": 0.49383994936943056,
                "z": -0.002887862967327237,
                "w": -0.8695331811904907
            },
            "time": 0.9763405323028565
        },
        {
            "position": {
                "x": -4.9855122566223148,
                "y": 1.572021245956421,
                "z": -13.785828590393067
            },
            "rotation": {
                "x": -0.0049298531375825409,
                "y": 0.502541720867157,
                "z": -0.0028656553477048876,
                "w": -0.8645341396331787
            },
            "time": 0.9933269023895264
        },
        {
            "position": {
                "x": -4.9855122566223148,
                "y": 1.572021245956421,
                "z": -13.785828590393067
            },
            "rotation": {
                "x": -0.005158852785825729,
                "y": 0.5089398622512817,
                "z": -0.003050189232453704,
                "w": -0.8607812523841858
            },
            "time": 1.0102499723434449
        },
        {
            "position": {
                "x": -4.9855122566223148,
                "y": 1.572021245956421,
                "z": -13.785828590393067
            },
            "rotation": {
                "x": -0.005511460825800896,
                "y": 0.5149351954460144,
                "z": -0.0033108131028711797,
                "w": -0.8572049736976624
            },
            "time": 1.0269759893417359
        },
        {
            "position": {
                "x": -4.9855122566223148,
                "y": 1.572021245956421,
                "z": -13.785828590393067
            },
            "rotation": {
                "x": -0.005986403673887253,
                "y": 0.5205326080322266,
                "z": -0.0036496492102742197,
                "w": -0.8538130521774292
            },
            "time": 1.043641209602356
        },
        {
            "position": {
                "x": -4.9855122566223148,
                "y": 1.572021245956421,
                "z": -13.785828590393067
            },
            "rotation": {
                "x": -0.00620808033272624,
                "y": 0.5264793634414673,
                "z": -0.0038444988895207645,
                "w": -0.8501566052436829
            },
            "time": 1.0603084564208985
        },
        {
            "position": {
                "x": -4.9855122566223148,
                "y": 1.572021245956421,
                "z": -13.785828590393067
            },
            "rotation": {
                "x": -0.006427316460758448,
                "y": 0.532400369644165,
                "z": -0.004042614251375198,
                "w": -0.8464586734771729
            },
            "time": 1.0770856142044068
        },
        {
            "position": {
                "x": -5.07562255859375,
                "y": 1.5705029964447022,
                "z": -13.742534637451172
            },
            "rotation": {
                "x": -0.006871877703815699,
                "y": 0.5415995121002197,
                "z": -0.004427574574947357,
                "w": -0.8405969738960266
            },
            "time": 1.0937494039535523
        },
        {
            "position": {
                "x": -5.166672706604004,
                "y": 1.5688680410385132,
                "z": -13.70120906829834
            },
            "rotation": {
                "x": -0.00671909237280488,
                "y": 0.5474552512168884,
                "z": -0.004395814146846533,
                "w": -0.8367965221405029
            },
            "time": 1.1104166507720948
        },
        {
            "position": {
                "x": -5.262853622436523,
                "y": 1.567182183265686,
                "z": -13.659164428710938
            },
            "rotation": {
                "x": -0.0066882409155368809,
                "y": 0.5532838106155396,
                "z": -0.0044426159001886848,
                "w": -0.8329541087150574
            },
            "time": 1.1279137134552003
        },
        {
            "position": {
                "x": -5.357017517089844,
                "y": 1.5655416250228882,
                "z": -13.61955738067627
            },
            "rotation": {
                "x": -0.006657063495367765,
                "y": 0.5590852499008179,
                "z": -0.0044891987927258019,
                "w": -0.8290712833404541
            },
            "time": 1.1449415683746338
        },
        {
            "position": {
                "x": -5.450887203216553,
                "y": 1.563915491104126,
                "z": -13.581607818603516
            },
            "rotation": {
                "x": -0.006711137481033802,
                "y": 0.5709638595581055,
                "z": -0.00466762762516737,
                "w": -0.8209344744682312
            },
            "time": 1.1618188619613648
        },
        {
            "position": {
                "x": -5.544623851776123,
                "y": 1.5622806549072266,
                "z": -13.546817779541016
            },
            "rotation": {
                "x": -0.006543366704136133,
                "y": 0.5795301795005798,
                "z": -0.004653363488614559,
                "w": -0.8149113059043884
            },
            "time": 1.1784851551055909
        },
        {
            "position": {
                "x": -5.642307758331299,
                "y": 1.560619831085205,
                "z": -13.512872695922852
            },
            "rotation": {
                "x": -0.006143322680145502,
                "y": 0.5876811146736145,
                "z": -0.004462372977286577,
                "w": -0.8090570569038391
            },
            "time": 1.195723056793213
        },
        {
            "position": {
                "x": -5.739210605621338,
                "y": 1.5590722560882569,
                "z": -13.481364250183106
            },
            "rotation": {
                "x": -0.0057459427043795589,
                "y": 0.5961230993270874,
                "z": -0.004266352858394384,
                "w": -0.8028611540794373
            },
            "time": 1.2127078771591187
        },
        {
            "position": {
                "x": -5.836436748504639,
                "y": 1.5576183795928956,
                "z": -13.451987266540528
            },
            "rotation": {
                "x": -0.005474665202200413,
                "y": 0.6034557819366455,
                "z": -0.004143284633755684,
                "w": -0.7973669767379761
            },
            "time": 1.2296375036239625
        },
        {
            "position": {
                "x": -5.93267297744751,
                "y": 1.55624520778656,
                "z": -13.424823760986329
            },
            "rotation": {
                "x": -0.005447430070489645,
                "y": 0.6086616516113281,
                "z": -0.004179027862846851,
                "w": -0.7934002876281738
            },
            "time": 1.2463051080703736
        },
        {
            "position": {
                "x": -6.0292487144470219,
                "y": 1.5548721551895142,
                "z": -13.398923873901368
            },
            "rotation": {
                "x": -0.005423637572675943,
                "y": 0.6131523251533508,
                "z": -0.004209860693663359,
                "w": -0.7899348735809326
            },
            "time": 1.2629714012145997
        },
        {
            "position": {
                "x": -6.131436824798584,
                "y": 1.553423523902893,
                "z": -13.372757911682129
            },
            "rotation": {
                "x": -0.0052834744565188889,
                "y": 0.6179670095443726,
                "z": -0.004153034184128046,
                "w": -0.7861753106117249
            },
            "time": 1.280553936958313
        },
        {
            "position": {
                "x": -6.230332374572754,
                "y": 1.5520554780960084,
                "z": -13.348718643188477
            },
            "rotation": {
                "x": -0.005151353310793638,
                "y": 0.621392011642456,
                "z": -0.004085670690983534,
                "w": -0.7834722995758057
            },
            "time": 1.297518014907837
        },
        {
            "position": {
                "x": -6.327688694000244,
                "y": 1.5507405996322632,
                "z": -13.32595157623291
            },
            "rotation": {
                "x": -0.0050164139829576019,
                "y": 0.625486433506012,
                "z": -0.004021615721285343,
                "w": -0.7802085280418396
            },
            "time": 1.3141833543777466
        },
        {
            "position": {
                "x": -6.425300121307373,
                "y": 1.5494545698165894,
                "z": -13.304200172424317
            },
            "rotation": {
                "x": -0.004769291263073683,
                "y": 0.6295641660690308,
                "z": -0.00386469392105937,
                "w": -0.7769243121147156
            },
            "time": 1.3308523893356324
        },
        {
            "position": {
                "x": -6.523108005523682,
                "y": 1.548227071762085,
                "z": -13.283477783203125
            },
            "rotation": {
                "x": -0.004522337578237057,
                "y": 0.6339619755744934,
                "z": -0.003707272233441472,
                "w": -0.7733421921730042
            },
            "time": 1.3475167751312256
        },
        {
            "position": {
                "x": -6.621163368225098,
                "y": 1.5470575094223023,
                "z": -13.263862609863282
            },
            "rotation": {
                "x": -0.004049018956720829,
                "y": 0.639347493648529,
                "z": -0.003366797463968396,
                "w": -0.7688999176025391
            },
            "time": 1.3641842603683472
        },
        {
            "position": {
                "x": -6.719480991363525,
                "y": 1.546004295349121,
                "z": -13.24561882019043
            },
            "rotation": {
                "x": -0.003443848341703415,
                "y": 0.6513481140136719,
                "z": -0.0029563079588115217,
                "w": -0.758765459060669
            },
            "time": 1.380851149559021
        },
        {
            "position": {
                "x": -6.818321228027344,
                "y": 1.5450966358184815,
                "z": -13.230472564697266
            },
            "rotation": {
                "x": -0.003079896792769432,
                "y": 0.6605705618858337,
                "z": -0.002709932392463088,
                "w": -0.7507527470588684
            },
            "time": 1.3975175619125367
        },
        {
            "position": {
                "x": -6.91750955581665,
                "y": 1.5442761182785035,
                "z": -13.217744827270508
            },
            "rotation": {
                "x": -0.0029420149512588979,
                "y": 0.6687209606170654,
                "z": -0.0026461053639650347,
                "w": -0.7435029745101929
            },
            "time": 1.4141850471496583
        },
        {
            "position": {
                "x": -7.018866539001465,
                "y": 1.5434694290161133,
                "z": -13.20698070526123
            },
            "rotation": {
                "x": -0.0025959182530641557,
                "y": 0.675506591796875,
                "z": -0.00237820646725595,
                "w": -0.7373455166816711
            },
            "time": 1.4311734437942505
        },
        {
            "position": {
                "x": -7.120124340057373,
                "y": 1.5427536964416505,
                "z": -13.198100090026856
            },
            "rotation": {
                "x": -0.0023690194357186558,
                "y": 0.6796789169311523,
                "z": -0.0021951827220618726,
                "w": -0.7335026860237122
            },
            "time": 1.4481149911880494
        },
        {
            "position": {
                "x": -7.219826698303223,
                "y": 1.5421078205108643,
                "z": -13.190494537353516
            },
            "rotation": {
                "x": -0.002255922183394432,
                "y": 0.6819164752960205,
                "z": -0.0021032278891652824,
                "w": -0.7314236164093018
            },
            "time": 1.4647806882858277
        },
        {
            "position": {
                "x": -7.319586277008057,
                "y": 1.541490912437439,
                "z": -13.183497428894043
            },
            "rotation": {
                "x": -0.002146039856597781,
                "y": 0.6831923723220825,
                "z": -0.002007795963436365,
                "w": -0.7302325367927551
            },
            "time": 1.4814485311508179
        },
        {
            "position": {
                "x": -7.419363021850586,
                "y": 1.540903091430664,
                "z": -13.176848411560059
            },
            "rotation": {
                "x": -0.002146040089428425,
                "y": 0.6831923723220825,
                "z": -0.0020077961962670089,
                "w": -0.7302325367927551
            },
            "time": 1.4981151819229127
        },
        {
            "position": {
                "x": -7.520283222198486,
                "y": 1.5403085947036744,
                "z": -13.170123100280762
            },
            "rotation": {
                "x": -0.0021460403222590687,
                "y": 0.6831923723220825,
                "z": -0.0020077964290976526,
                "w": -0.7302325367927551
            },
            "time": 1.5149728059768677
        },
        {
            "position": {
                "x": -7.6200480461120609,
                "y": 1.539720892906189,
                "z": -13.163475036621094
            },
            "rotation": {
                "x": -0.0021460403222590687,
                "y": 0.6831923723220825,
                "z": -0.0020077964290976526,
                "w": -0.7302325367927551
            },
            "time": 1.53163743019104
        },
        {
            "position": {
                "x": -7.719825267791748,
                "y": 1.539133071899414,
                "z": -13.15682601928711
            },
            "rotation": {
                "x": -0.0021460403222590687,
                "y": 0.6831923723220825,
                "z": -0.0020077964290976526,
                "w": -0.7302325367927551
            },
            "time": 1.5483040809631348
        },
        {
            "position": {
                "x": -7.819650173187256,
                "y": 1.53854501247406,
                "z": -13.150174140930176
            },
            "rotation": {
                "x": -0.0021460403222590687,
                "y": 0.6831923723220825,
                "z": -0.0020077964290976526,
                "w": -0.7302325367927551
            },
            "time": 1.564978837966919
        },
        {
            "position": {
                "x": -7.9193854331970219,
                "y": 1.5379575490951539,
                "z": -13.14352798461914
            },
            "rotation": {
                "x": -0.002038998994976282,
                "y": 0.6835111975669861,
                "z": -0.00190931954421103,
                "w": -0.7299346923828125
            },
            "time": 1.5816385746002198
        },
        {
            "position": {
                "x": -8.02230453491211,
                "y": 1.5373812913894654,
                "z": -13.136759757995606
            },
            "rotation": {
                "x": -0.001612359774298966,
                "y": 0.6844670176506043,
                "z": -0.001513780327513814,
                "w": -0.7290404438972473
            },
            "time": 1.5988290309906006
        },
        {
            "position": {
                "x": -8.123189926147461,
                "y": 1.5369341373443604,
                "z": -13.130391120910645
            },
            "rotation": {
                "x": -0.0006580468616448343,
                "y": 0.6844684481620789,
                "z": -0.0006178139592520893,
                "w": -0.7290419936180115
            },
            "time": 1.6156768798828126
        },
        {
            "position": {
                "x": -8.22515869140625,
                "y": 1.5367497205734254,
                "z": -13.123953819274903
            },
            "rotation": {
                "x": -0.00012808185419999063,
                "y": 0.683195173740387,
                "z": -0.00011983101285295561,
                "w": -0.7302358746528626
            },
            "time": 1.632705569267273
        },
        {
            "position": {
                "x": -8.324919700622559,
                "y": 1.5367146730422974,
                "z": -13.117305755615235
            },
            "rotation": {
                "x": 0.00029699428705498576,
                "y": 0.6825576424598694,
                "z": 0.00027737676282413304,
                "w": -0.7308316826820374
            },
            "time": 1.649369239807129
        },
        {
            "position": {
                "x": -8.428750991821289,
                "y": 1.5367993116378785,
                "z": -13.110204696655274
            },
            "rotation": {
                "x": -0.0007214675424620509,
                "y": -0.6835132241249085,
                "z": -0.0006755819777026773,
                "w": 0.7299374938011169
            },
            "time": 1.6667147874832154
        },
        {
            "position": {
                "x": -8.530433654785157,
                "y": 1.5370007753372193,
                "z": -13.10351848602295
            },
            "rotation": {
                "x": -0.00008389175491174683,
                "y": -0.6876430511474609,
                "z": -0.0000794541192590259,
                "w": 0.7260489463806152
            },
            "time": 1.6836985349655152
        },
        {
            "position": {
                "x": -8.630278587341309,
                "y": 1.537023901939392,
                "z": -13.098089218139649
            },
            "rotation": {
                "x": -0.00008389175491174683,
                "y": -0.6876430511474609,
                "z": -0.0000794541192590259,
                "w": 0.7260489463806152
            },
            "time": 1.7003638744354249
        },
        {
            "position": {
                "x": -8.730135917663575,
                "y": 1.537047028541565,
                "z": -13.092659950256348
            },
            "rotation": {
                "x": -0.00008389175491174683,
                "y": -0.6876430511474609,
                "z": -0.0000794541192590259,
                "w": 0.7260489463806152
            },
            "time": 1.7170313596725464
        },
        {
            "position": {
                "x": -8.829989433288575,
                "y": 1.5370701551437379,
                "z": -13.087230682373047
            },
            "rotation": {
                "x": -0.00008389175491174683,
                "y": -0.6876430511474609,
                "z": -0.0000794541192590259,
                "w": 0.7260489463806152
            },
            "time": 1.7336982488632203
        },
        {
            "position": {
                "x": -8.92984390258789,
                "y": 1.5370932817459107,
                "z": -13.081801414489746
            },
            "rotation": {
                "x": -0.00008389175491174683,
                "y": -0.6876430511474609,
                "z": -0.0000794541192590259,
                "w": 0.7260489463806152
            },
            "time": 1.7503652572631837
        },
        {
            "position": {
                "x": -9.029780387878418,
                "y": 1.5371164083480836,
                "z": -13.076367378234864
            },
            "rotation": {
                "x": -0.00008389175491174683,
                "y": -0.6876430511474609,
                "z": -0.0000794541192590259,
                "w": 0.7260489463806152
            },
            "time": 1.7670459747314454
        },
        {
            "position": {
                "x": -9.129633903503418,
                "y": 1.5371395349502564,
                "z": -13.070938110351563
            },
            "rotation": {
                "x": -0.00008389175491174683,
                "y": -0.6876430511474609,
                "z": -0.0000794541192590259,
                "w": 0.7260489463806152
            },
            "time": 1.7837127447128297
        },
        {
            "position": {
                "x": -9.229487419128418,
                "y": 1.5371626615524293,
                "z": -13.065508842468262
            },
            "rotation": {
                "x": -0.00008389175491174683,
                "y": -0.6876430511474609,
                "z": -0.0000794541192590259,
                "w": 0.7260489463806152
            },
            "time": 1.8003795146942139
        },
        {
            "position": {
                "x": -9.329325675964356,
                "y": 1.537185788154602,
                "z": -13.060080528259278
            },
            "rotation": {
                "x": -0.00008389175491174683,
                "y": -0.6876430511474609,
                "z": -0.0000794541192590259,
                "w": 0.7260489463806152
            },
            "time": 1.8170437812805176
        },
        {
            "position": {
                "x": -9.430893898010254,
                "y": 1.5372092723846436,
                "z": -13.054557800292969
            },
            "rotation": {
                "x": -0.00008389175491174683,
                "y": -0.6876430511474609,
                "z": -0.0000794541192590259,
                "w": 0.7260489463806152
            },
            "time": 1.8339967727661133
        },
        {
            "position": {
                "x": -9.530744552612305,
                "y": 1.5372323989868165,
                "z": -13.049128532409668
            },
            "rotation": {
                "x": -0.00008389175491174683,
                "y": -0.6876430511474609,
                "z": -0.0000794541192590259,
                "w": 0.7260489463806152
            },
            "time": 1.8506630659103394
        },
        {
            "position": {
                "x": -9.634111404418946,
                "y": 1.5372563600540162,
                "z": -13.043508529663086
            },
            "rotation": {
                "x": -0.00008389175491174683,
                "y": -0.6876430511474609,
                "z": -0.0000794541192590259,
                "w": 0.7260489463806152
            },
            "time": 1.867916226387024
        },
        {
            "position": {
                "x": -9.733964920043946,
                "y": 1.537279486656189,
                "z": -13.038079261779786
            },
            "rotation": {
                "x": -0.00008389175491174683,
                "y": -0.6876430511474609,
                "z": -0.0000794541192590259,
                "w": 0.7260489463806152
            },
            "time": 1.8845829963684083
        },
        {
            "position": {
                "x": -9.83860969543457,
                "y": 1.5373036861419678,
                "z": -13.032389640808106
            },
            "rotation": {
                "x": -0.00008389175491174683,
                "y": -0.6876430511474609,
                "z": -0.0000794541192590259,
                "w": 0.7260489463806152
            },
            "time": 1.9020495414733887
        },
        {
            "position": {
                "x": -9.938454627990723,
                "y": 1.5373268127441407,
                "z": -13.026960372924805
            },
            "rotation": {
                "x": -0.00008389175491174683,
                "y": -0.6876430511474609,
                "z": -0.0000794541192590259,
                "w": 0.7260489463806152
            },
            "time": 1.918715000152588
        },
        {
            "position": {
                "x": -10.039779663085938,
                "y": 1.5373502969741822,
                "z": -13.021450996398926
            },
            "rotation": {
                "x": -0.00008389175491174683,
                "y": -0.6876430511474609,
                "z": -0.0000794541192590259,
                "w": 0.7260489463806152
            },
            "time": 1.9356274604797364
        },
        {
            "position": {
                "x": -10.13963508605957,
                "y": 1.537373423576355,
                "z": -13.016021728515625
            },
            "rotation": {
                "x": -0.00008389175491174683,
                "y": -0.6876430511474609,
                "z": -0.0000794541192590259,
                "w": 0.7260489463806152
            },
            "time": 1.9522947072982789
        },
        {
            "position": {
                "x": -10.239484786987305,
                "y": 1.5373965501785279,
                "z": -13.010592460632325
            },
            "rotation": {
                "x": -0.00008389175491174683,
                "y": -0.6876430511474609,
                "z": -0.0000794541192590259,
                "w": 0.7260489463806152
            },
            "time": 1.9689608812332154
        },
        {
            "position": {
                "x": -10.339339256286621,
                "y": 1.5374196767807007,
                "z": -13.005163192749024
            },
            "rotation": {
                "x": -0.00008389175491174683,
                "y": -0.6876430511474609,
                "z": -0.0000794541192590259,
                "w": 0.7260489463806152
            },
            "time": 1.9856278896331788
        },
        {
            "position": {
                "x": -10.440711975097657,
                "y": 1.5374431610107422,
                "z": -12.999650955200196
            },
            "rotation": {
                "x": -0.00008389175491174683,
                "y": -0.6876430511474609,
                "z": -0.0000794541192590259,
                "w": 0.7260489463806152
            },
            "time": 2.0025482177734377
        },
        {
            "position": {
                "x": -10.54240894317627,
                "y": 1.5374666452407838,
                "z": -12.994121551513672
            },
            "rotation": {
                "x": -0.00008389175491174683,
                "y": -0.6876430511474609,
                "z": -0.0000794541192590259,
                "w": 0.7260489463806152
            },
            "time": 2.0195226669311525
        },
        {
            "position": {
                "x": -10.642909049987793,
                "y": 1.537489891052246,
                "z": -12.988656997680664
            },
            "rotation": {
                "x": -0.00008389175491174683,
                "y": -0.6876430511474609,
                "z": -0.0000794541192590259,
                "w": 0.7260489463806152
            },
            "time": 2.036297559738159
        },
        {
            "position": {
                "x": -10.742764472961426,
                "y": 1.537513017654419,
                "z": -12.983227729797364
            },
            "rotation": {
                "x": -0.00008389175491174683,
                "y": -0.6876430511474609,
                "z": -0.0000794541192590259,
                "w": 0.7260489463806152
            },
            "time": 2.052964687347412
        },
        {
            "position": {
                "x": -10.84261703491211,
                "y": 1.5375361442565919,
                "z": -12.977798461914063
            },
            "rotation": {
                "x": -0.00008389175491174683,
                "y": -0.6876430511474609,
                "z": -0.0000794541192590259,
                "w": 0.7260489463806152
            },
            "time": 2.069631338119507
        },
        {
            "position": {
                "x": -10.942473411560059,
                "y": 1.5375592708587647,
                "z": -12.972369194030762
            },
            "rotation": {
                "x": -0.00008389175491174683,
                "y": -0.6876430511474609,
                "z": -0.0000794541192590259,
                "w": 0.7260489463806152
            },
            "time": 2.086298704147339
        },
        {
            "position": {
                "x": -11.043405532836914,
                "y": 1.5375826358795167,
                "z": -12.966880798339844
            },
            "rotation": {
                "x": -0.0001894849119707942,
                "y": -0.6876429915428162,
                "z": -0.00017946171283256263,
                "w": 0.7260488867759705
            },
            "time": 2.1031455993652345
        },
        {
            "position": {
                "x": -11.144906044006348,
                "y": 1.5376356840133668,
                "z": -12.9613618850708
            },
            "rotation": {
                "x": -0.0006120306206867099,
                "y": -0.6876428127288818,
                "z": -0.0005796559853479266,
                "w": 0.7260487079620361
            },
            "time": 2.1200873851776125
        },
        {
            "position": {
                "x": -11.246317863464356,
                "y": 1.5378068685531617,
                "z": -12.95584774017334
            },
            "rotation": {
                "x": -0.001034403103403747,
                "y": -0.6876423358917236,
                "z": -0.0009796861559152604,
                "w": 0.7260482311248779
            },
            "time": 2.137014389038086
        },
        {
            "position": {
                "x": -11.34812068939209,
                "y": 1.5380973815917969,
                "z": -12.950312614440918
            },
            "rotation": {
                "x": -0.0014569482300430537,
                "y": -0.6876416802406311,
                "z": -0.0013798798900097609,
                "w": 0.7260474562644959
            },
            "time": 2.1540067195892336
        },
        {
            "position": {
                "x": -11.449972152709961,
                "y": 1.5385067462921143,
                "z": -12.944774627685547
            },
            "rotation": {
                "x": -0.0020906783174723388,
                "y": -0.6876401901245117,
                "z": -0.001980087487027049,
                "w": 0.7260459065437317
            },
            "time": 2.1710071563720705
        },
        {
            "position": {
                "x": -11.549825668334961,
                "y": 1.539082646369934,
                "z": -12.939345359802246
            },
            "rotation": {
                "x": -0.002301690634340048,
                "y": -0.687639594078064,
                "z": -0.0021799379028379919,
                "w": 0.7260453104972839
            },
            "time": 2.1876742839813234
        },
        {
            "position": {
                "x": -11.653306007385254,
                "y": 1.539739727973938,
                "z": -12.93371868133545
            },
            "rotation": {
                "x": -0.002723108511418104,
                "y": -0.6879547238349915,
                "z": -0.0025813174434006216,
                "w": 0.7257438898086548
            },
            "time": 2.204946994781494
        },
        {
            "position": {
                "x": -11.753071784973145,
                "y": 1.5404894351959229,
                "z": -12.928380966186524
            },
            "rotation": {
                "x": -0.0034633793402463199,
                "y": -0.6876352429389954,
                "z": -0.0032801765482872726,
                "w": 0.7260406613349915
            },
            "time": 2.2215988636016847
        },
        {
            "position": {
                "x": -11.852986335754395,
                "y": 1.5414440631866456,
                "z": -12.922947883605957
            },
            "rotation": {
                "x": -0.0037817165721207859,
                "y": -0.68731689453125,
                "z": -0.003578545991331339,
                "w": 0.7263390421867371
            },
            "time": 2.238276720046997
        },
        {
            "position": {
                "x": -11.95277214050293,
                "y": 1.5424847602844239,
                "z": -12.917434692382813
            },
            "rotation": {
                "x": -0.004098622594028711,
                "y": -0.6873152256011963,
                "z": -0.0038784262724220754,
                "w": 0.7263373136520386
            },
            "time": 2.2549338340759279
        },
        {
            "position": {
                "x": -12.052619934082032,
                "y": 1.543613314628601,
                "z": -12.911917686462403
            },
            "rotation": {
                "x": -0.0044189984910190109,
                "y": -0.6866794228553772,
                "z": -0.0041742874309420589,
                "w": 0.7269349694252014
            },
            "time": 2.271601676940918
        },
        {
            "position": {
                "x": -12.152450561523438,
                "y": 1.54482901096344,
                "z": -12.906227111816407
            },
            "rotation": {
                "x": -0.004955930169671774,
                "y": -0.685406506061554,
                "z": -0.004665145184844732,
                "w": 0.7281289100646973
            },
            "time": 2.2882683277130129
        },
        {
            "position": {
                "x": -12.25655460357666,
                "y": 1.5462487936019898,
                "z": -12.899928092956543
            },
            "rotation": {
                "x": -0.005280109588056803,
                "y": -0.6844508051872253,
                "z": -0.004957284778356552,
                "w": 0.7290231585502625
            },
            "time": 2.305652379989624
        },
        {
            "position": {
                "x": -12.35817813873291,
                "y": 1.5477238893508912,
                "z": -12.893512725830079
            },
            "rotation": {
                "x": -0.005498730111867189,
                "y": -0.6834946870803833,
                "z": -0.005149016156792641,
                "w": 0.7299166917800903
            },
            "time": 2.322625160217285
        },
        {
            "position": {
                "x": -12.460144996643067,
                "y": 1.549263596534729,
                "z": -12.886807441711426
            },
            "rotation": {
                "x": -0.0054987287148833279,
                "y": -0.6834948658943176,
                "z": -0.005149017553776503,
                "w": 0.729916512966156
            },
            "time": 2.339658260345459
        },
        {
            "position": {
                "x": -12.561447143554688,
                "y": 1.5507932901382447,
                "z": -12.880146026611329
            },
            "rotation": {
                "x": -0.0054987287148833279,
                "y": -0.6834948658943176,
                "z": -0.005149017553776503,
                "w": 0.729916512966156
            },
            "time": 2.3565802574157717
        },
        {
            "position": {
                "x": -12.66307258605957,
                "y": 1.5523278713226319,
                "z": -12.87346363067627
            },
            "rotation": {
                "x": -0.005607173312455416,
                "y": -0.6831755638122559,
                "z": -0.0052459752187132839,
                "w": 0.7302138805389404
            },
            "time": 2.37355637550354
        },
        {
            "position": {
                "x": -12.764463424682618,
                "y": 1.5538885593414307,
                "z": -12.866707801818848
            },
            "rotation": {
                "x": -0.005933021195232868,
                "y": -0.6822168231010437,
                "z": -0.005536287557333708,
                "w": 0.7311049103736877
            },
            "time": 2.3904943466186525
        },
        {
            "position": {
                "x": -12.866012573242188,
                "y": 1.5555408000946046,
                "z": -12.859674453735352
            },
            "rotation": {
                "x": -0.006267257034778595,
                "y": -0.6802980899810791,
                "z": -0.005817555356770754,
                "w": 0.7328857183456421
            },
            "time": 2.4074621200561525
        },
        {
            "position": {
                "x": -12.967377662658692,
                "y": 1.557279348373413,
                "z": -12.852120399475098
            },
            "rotation": {
                "x": -0.006731437053531408,
                "y": -0.6758049130439758,
                "z": -0.006172306835651398,
                "w": 0.7370239496231079
            },
            "time": 2.424405574798584
        },
        {
            "position": {
                "x": -13.066990852355957,
                "y": 1.5591059923171998,
                "z": -12.84347152709961
            },
            "rotation": {
                "x": -0.006976303178817034,
                "y": -0.6722579002380371,
                "z": -0.006335468031466007,
                "w": 0.7402570247650147
            },
            "time": 2.441073179244995
        },
        {
            "position": {
                "x": -13.169529914855957,
                "y": 1.5610477924346924,
                "z": -12.833576202392579
            },
            "rotation": {
                "x": -0.007222885265946388,
                "y": -0.6686953902244568,
                "z": -0.006496415939182043,
                "w": 0.7434730529785156
            },
            "time": 2.4582455158233644
        },
        {
            "position": {
                "x": -13.270684242248536,
                "y": 1.5630245208740235,
                "z": -12.822833061218262
            },
            "rotation": {
                "x": -0.007471165619790554,
                "y": -0.665117621421814,
                "z": -0.00665513938292861,
                "w": 0.7466716766357422
            },
            "time": 2.4752025604248049
        },
        {
            "position": {
                "x": -13.371570587158204,
                "y": 1.5650571584701539,
                "z": -12.811138153076172
            },
            "rotation": {
                "x": -0.0076236058957874779,
                "y": -0.6602156162261963,
                "z": -0.006701961159706116,
                "w": 0.7510075569152832
            },
            "time": 2.4921329021453859
        },
        {
            "position": {
                "x": -13.470718383789063,
                "y": 1.5670870542526246,
                "z": -12.798327445983887
            },
            "rotation": {
                "x": -0.007699144072830677,
                "y": -0.651653528213501,
                "z": -0.0066150459460914139,
                "w": 0.7584488987922669
            },
            "time": 2.508798360824585
        },
        {
            "position": {
                "x": -13.569561958312989,
                "y": 1.5691171884536744,
                "z": -12.783268928527832
            },
            "rotation": {
                "x": -0.007727935444563627,
                "y": -0.6483378410339356,
                "z": -0.00658138794824481,
                "w": 0.761285126209259
            },
            "time": 2.525465965270996
        },
        {
            "position": {
                "x": -13.668266296386719,
                "y": 1.5711472034454346,
                "z": -12.767349243164063
            },
            "rotation": {
                "x": -0.0077964309602975849,
                "y": -0.6403301954269409,
                "z": -0.006500100716948509,
                "w": 0.7680326700210571
            },
            "time": 2.54213285446167
        },
        {
            "position": {
                "x": -13.766613006591797,
                "y": 1.5731772184371949,
                "z": -12.749366760253907
            },
            "rotation": {
                "x": -0.007835992611944676,
                "y": -0.6356265544891357,
                "z": -0.0064523532055318359,
                "w": 0.7719299793243408
            },
            "time": 2.5587992668151857
        },
        {
            "position": {
                "x": -13.868025779724121,
                "y": 1.5752753019332886,
                "z": -12.72953987121582
            },
            "rotation": {
                "x": -0.007999414578080178,
                "y": -0.6295434832572937,
                "z": -0.006482170894742012,
                "w": 0.7768970131874085
            },
            "time": 2.5760250091552736
        },
        {
            "position": {
                "x": -13.98764705657959,
                "y": 1.5773532390594483,
                "z": -12.807353019714356
            },
            "rotation": {
                "x": -0.008260178379714489,
                "y": -0.6254650354385376,
                "z": -0.00662212586030364,
                "w": 0.7801803946495056
            },
            "time": 2.5928444862365724
        },
        {
            "position": {
                "x": -14.109158515930176,
                "y": 1.5795091390609742,
                "z": -12.884597778320313
            },
            "rotation": {
                "x": -0.008408679626882077,
                "y": -0.6213704347610474,
                "z": -0.006669153459370136,
                "w": 0.7834434509277344
            },
            "time": 2.6098151206970217
        },
        {
            "position": {
                "x": -14.229415893554688,
                "y": 1.581657886505127,
                "z": -12.95928955078125
            },
            "rotation": {
                "x": -0.008449261076748371,
                "y": -0.6165731549263,
                "z": -0.006617664825171232,
                "w": 0.7872244715690613
            },
            "time": 2.6265006065368654
        },
        {
            "position": {
                "x": -14.355405807495118,
                "y": 1.5838923454284669,
                "z": -13.035425186157227
            },
            "rotation": {
                "x": -0.008489526808261872,
                "y": -0.6117529273033142,
                "z": -0.006565928924828768,
                "w": 0.7909761071205139
            },
            "time": 2.6438512802124025
        },
        {
            "position": {
                "x": -14.478934288024903,
                "y": 1.5860671997070313,
                "z": -13.108027458190918
            },
            "rotation": {
                "x": -0.0087693827226758,
                "y": -0.6058670282363892,
                "z": -0.006679005455225706,
                "w": 0.7954895496368408
            },
            "time": 2.6607394218444826
        },
        {
            "position": {
                "x": -14.601856231689454,
                "y": 1.588271141052246,
                "z": -13.177842140197754
            },
            "rotation": {
                "x": -0.008937946520745755,
                "y": -0.5995998382568359,
                "z": -0.006697130389511585,
                "w": 0.8002220392227173
            },
            "time": 2.677401304244995
        },
        {
            "position": {
                "x": -14.73050308227539,
                "y": 1.5905877351760865,
                "z": -13.248259544372559
            },
            "rotation": {
                "x": -0.009104401804506779,
                "y": -0.5936465859413147,
                "z": -0.006716985255479813,
                "w": 0.8046463131904602
            },
            "time": 2.6946873664855959
        },
        {
            "position": {
                "x": -14.85693645477295,
                "y": 1.5928758382797242,
                "z": -13.315047264099121
            },
            "rotation": {
                "x": -0.00964592769742012,
                "y": -0.5851840376853943,
                "z": -0.006961704697459936,
                "w": 0.810813307762146
            },
            "time": 2.711540937423706
        },
        {
            "position": {
                "x": -14.985616683959961,
                "y": 1.5952980518341065,
                "z": -13.37961483001709
            },
            "rotation": {
                "x": -0.009809759445488453,
                "y": -0.5798638463020325,
                "z": -0.006982757244259119,
                "w": 0.8146244287490845
            },
            "time": 2.7285103797912599
        },
        {
            "position": {
                "x": -15.115043640136719,
                "y": 1.5977482795715333,
                "z": -13.442450523376465
            },
            "rotation": {
                "x": -0.009861284866929055,
                "y": -0.5738053321838379,
                "z": -0.006909800227731466,
                "w": 0.8189032077789307
            },
            "time": 2.7454686164855959
        },
        {
            "position": {
                "x": -15.245659828186036,
                "y": 1.600203514099121,
                "z": -13.503486633300782
            },
            "rotation": {
                "x": -0.009550249204039574,
                "y": -0.5680774450302124,
                "z": -0.0065929340198636059,
                "w": 0.8228932619094849
            },
            "time": 2.7624621391296388
        },
        {
            "position": {
                "x": -15.374588966369629,
                "y": 1.6025242805480958,
                "z": -13.561553001403809
            },
            "rotation": {
                "x": -0.009355737827718258,
                "y": -0.5623205900192261,
                "z": -0.006362671963870525,
                "w": 0.8268418908119202
            },
            "time": 2.7791287899017336
        },
        {
            "position": {
                "x": -15.508208274841309,
                "y": 1.6048548221588135,
                "z": -13.619500160217286
            },
            "rotation": {
                "x": -0.009281820617616177,
                "y": -0.5561728477478027,
                "z": -0.006212213076651096,
                "w": 0.8309916257858276
            },
            "time": 2.796295166015625
        },
        {
            "position": {
                "x": -15.641926765441895,
                "y": 1.607142686843872,
                "z": -13.675148010253907
            },
            "rotation": {
                "x": -0.00920883473008871,
                "y": -0.5496302247047424,
                "z": -0.006059188395738602,
                "w": 0.8353352546691895
            },
            "time": 2.813366413116455
        },
        {
            "position": {
                "x": -15.77575969696045,
                "y": 1.6093882322311402,
                "z": -13.728392601013184
            },
            "rotation": {
                "x": -0.009295124560594559,
                "y": -0.5375456213951111,
                "z": -0.005925966892391443,
                "w": 0.8431626558303833
            },
            "time": 2.830343246459961
        },
        {
            "position": {
                "x": -15.910749435424805,
                "y": 1.611628532409668,
                "z": -13.777644157409668
            },
            "rotation": {
                "x": -0.009349032305181027,
                "y": -0.529797375202179,
                "z": -0.005840549245476723,
                "w": 0.8480526208877564
            },
            "time": 2.8472797870635988
        },
        {
            "position": {
                "x": -16.044452667236329,
                "y": 1.6138330698013306,
                "z": -13.823668479919434
            },
            "rotation": {
                "x": -0.00952873658388853,
                "y": -0.5216315984725952,
                "z": -0.005826401524245739,
                "w": 0.8530977964401245
            },
            "time": 2.8639461994171144
        },
        {
            "position": {
                "x": -16.179004669189454,
                "y": 1.616066575050354,
                "z": -13.867115020751954
            },
            "rotation": {
                "x": -0.009476677514612675,
                "y": -0.5107960104942322,
                "z": -0.005631076171994209,
                "w": 0.8596312999725342
            },
            "time": 2.8806116580963136
        },
        {
            "position": {
                "x": -16.321775436401368,
                "y": 1.6183873414993287,
                "z": -13.909255981445313
            },
            "rotation": {
                "x": -0.009556773118674755,
                "y": -0.4983658194541931,
                "z": -0.005494043696671724,
                "w": 0.8668968081474304
            },
            "time": 2.8981571197509767
        },
        {
            "position": {
                "x": -16.4585018157959,
                "y": 1.6205921173095704,
                "z": -13.945367813110352
            },
            "rotation": {
                "x": -0.009641890414059163,
                "y": -0.4846877157688141,
                "z": -0.005343254655599594,
                "w": 0.874617874622345
            },
            "time": 2.914825201034546
        },
        {
            "position": {
                "x": -16.596281051635743,
                "y": 1.622796654701233,
                "z": -13.977163314819336
            },
            "rotation": {
                "x": -0.009245352819561959,
                "y": -0.46472305059432986,
                "z": -0.004852671641856432,
                "w": 0.8853945136070252
            },
            "time": 2.9314916133880617
        },
        {
            "position": {
                "x": -16.73536491394043,
                "y": 1.624884843826294,
                "z": -14.00267505645752
            },
            "rotation": {
                "x": -0.008680899627506733,
                "y": -0.4488135874271393,
                "z": -0.004360144026577473,
                "w": 0.8935726284980774
            },
            "time": 2.948158025741577
        },
        {
            "position": {
                "x": -16.876405715942384,
                "y": 1.6268433332443238,
                "z": -14.023359298706055
            },
            "rotation": {
                "x": -0.008101769722998143,
                "y": -0.43276000022888186,
                "z": -0.003889362560585141,
                "w": 0.9014644026756287
            },
            "time": 2.964959144592285
        },
        {
            "position": {
                "x": -17.017255783081056,
                "y": 1.628644347190857,
                "z": -14.038890838623047
            },
            "rotation": {
                "x": -0.007375312503427267,
                "y": -0.4169643521308899,
                "z": -0.003383526811376214,
                "w": 0.9088866114616394
            },
            "time": 2.9816603660583498
        },
        {
            "position": {
                "x": -17.15827178955078,
                "y": 1.6302671432495118,
                "z": -14.049473762512207
            },
            "rotation": {
                "x": -0.007036256138235331,
                "y": -0.40024057030677798,
                "z": -0.003073180792853236,
                "w": 0.9163779616355896
            },
            "time": 2.9983272552490236
        },
        {
            "position": {
                "x": -17.299589157104493,
                "y": 1.6318027973175049,
                "z": -14.05488109588623
            },
            "rotation": {
                "x": -0.00654794555157423,
                "y": -0.38539645075798037,
                "z": -0.002734897192567587,
                "w": 0.9227238893508911
            },
            "time": 3.0149948596954347
        },
        {
            "position": {
                "x": -17.441251754760743,
                "y": 1.6332244873046876,
                "z": -14.055724143981934
            },
            "rotation": {
                "x": -0.005935178138315678,
                "y": -0.3627392649650574,
                "z": -0.0023103272542357446,
                "w": 0.9318689107894898
            },
            "time": 3.031691074371338
        },
        {
            "position": {
                "x": -17.585725784301759,
                "y": 1.6345269680023194,
                "z": -14.049517631530762
            },
            "rotation": {
                "x": -0.005426034796983004,
                "y": -0.34764930605888369,
                "z": -0.002011885168030858,
                "w": 0.9376068115234375
            },
            "time": 3.048733949661255
        },
        {
            "position": {
                "x": -17.72917366027832,
                "y": 1.6357042789459229,
                "z": -14.038705825805664
            },
            "rotation": {
                "x": -0.004908186849206686,
                "y": -0.332880437374115,
                "z": -0.0017326805973425508,
                "w": 0.9429547190666199
            },
            "time": 3.065687894821167
        },
        {
            "position": {
                "x": -17.872102737426759,
                "y": 1.6367623805999756,
                "z": -14.023404121398926
            },
            "rotation": {
                "x": -0.004657892510294914,
                "y": -0.31885573267936709,
                "z": -0.0015670083230361343,
                "w": 0.9477905631065369
            },
            "time": 3.0826289653778078
        },
        {
            "position": {
                "x": -18.014678955078126,
                "y": 1.6377625465393067,
                "z": -14.003846168518067
            },
            "rotation": {
                "x": -0.004956042859703302,
                "y": -0.30559083819389346,
                "z": -0.0015906351618468762,
                "w": 0.9521487355232239
            },
            "time": 3.0995893478393556
        },
        {
            "position": {
                "x": -18.15419578552246,
                "y": 1.6388036012649537,
                "z": -13.98072338104248
            },
            "rotation": {
                "x": -0.0045733265578746799,
                "y": -0.28349265456199648,
                "z": -0.0013519864296540619,
                "w": 0.9589625597000122
            },
            "time": 3.1162562370300295
        },
        {
            "position": {
                "x": -18.292490005493165,
                "y": 1.6397573947906495,
                "z": -13.95117473602295
            },
            "rotation": {
                "x": -0.004034846089780331,
                "y": -0.26713454723358157,
                "z": -0.0011185042094439269,
                "w": 0.9636501669883728
            },
            "time": 3.132922649383545
        },
        {
            "position": {
                "x": -18.429704666137697,
                "y": 1.6405948400497437,
                "z": -13.916934967041016
            },
            "rotation": {
                "x": -0.004334382712841034,
                "y": -0.25112059712409975,
                "z": -0.0011244979687035084,
                "w": 0.9679454565048218
            },
            "time": 3.149589776992798
        },
        {
            "position": {
                "x": -18.517934799194337,
                "y": 1.6405948400497437,
                "z": -13.966019630432129
            },
            "rotation": {
                "x": -0.004492840729653835,
                "y": -0.2358856201171875,
                "z": -0.0010905838571488858,
                "w": 0.9717698693275452
            },
            "time": 3.166417360305786
        },
        {
            "position": {
                "x": -18.608470916748048,
                "y": 1.6405948400497437,
                "z": -14.012724876403809
            },
            "rotation": {
                "x": -0.004656711593270302,
                "y": -0.21548259258270265,
                "z": -0.0010275928070768715,
                "w": 0.9764960408210754
            },
            "time": 3.183396339416504
        },
        {
            "position": {
                "x": -18.69994354248047,
                "y": 1.6405948400497437,
                "z": -14.055161476135254
            },
            "rotation": {
                "x": -0.0049475422129035,
                "y": -0.20908647775650025,
                "z": -0.001057859743013978,
                "w": 0.97788405418396
            },
            "time": 3.200202465057373
        },
        {
            "position": {
                "x": -18.791202545166017,
                "y": 1.6405948400497437,
                "z": -14.096056938171387
            },
            "rotation": {
                "x": -0.005386888049542904,
                "y": -0.19797928631305695,
                "z": -0.0010880455374717713,
                "w": 0.9801908135414124
            },
            "time": 3.216869831085205
        },
        {
            "position": {
                "x": -18.88336181640625,
                "y": 1.6405948400497437,
                "z": -14.134869575500489
            },
            "rotation": {
                "x": -0.005546751897782087,
                "y": -0.18212954699993134,
                "z": -0.00102742831222713,
                "w": 0.9832583665847778
            },
            "time": 3.2335362434387209
        },
        {
            "position": {
                "x": -18.97673225402832,
                "y": 1.6405948400497437,
                "z": -14.17068862915039
            },
            "rotation": {
                "x": -0.005270665977150202,
                "y": -0.17182327806949616,
                "z": -0.0009193086298182607,
                "w": 0.9851133227348328
            },
            "time": 3.250203847885132
        },
        {
            "position": {
                "x": -19.07084846496582,
                "y": 1.6405948400497437,
                "z": -14.204549789428711
            },
            "rotation": {
                "x": -0.004992599133402109,
                "y": -0.1619286984205246,
                "z": -0.000819267937913537,
                "w": 0.9867895245552063
            },
            "time": 3.266874074935913
        },
        {
            "position": {
                "x": -19.16735076904297,
                "y": 1.6405948400497437,
                "z": -14.23709774017334
            },
            "rotation": {
                "x": -0.0047110822051763538,
                "y": -0.15503612160682679,
                "z": -0.0007393357227556407,
                "w": 0.9878973364830017
            },
            "time": 3.2838480472564699
        },
        {
            "position": {
                "x": -19.26441192626953,
                "y": 1.6405948400497437,
                "z": -14.268331527709961
            },
            "rotation": {
                "x": -0.004572000354528427,
                "y": -0.1485670953989029,
                "z": -0.000686878920532763,
                "w": 0.9888915419578552
            },
            "time": 3.300842046737671
        },
        {
            "position": {
                "x": -19.360002517700197,
                "y": 1.6405948400497437,
                "z": -14.297717094421387
            },
            "rotation": {
                "x": -0.004433268681168556,
                "y": -0.14079616963863374,
                "z": -0.0006304740090854466,
                "w": 0.9900285005569458
            },
            "time": 3.317509412765503
        },
        {
            "position": {
                "x": -19.456039428710939,
                "y": 1.6405948400497437,
                "z": -14.325596809387207
            },
            "rotation": {
                "x": -0.004724123515188694,
                "y": -0.13647465407848359,
                "z": -0.00065081991488114,
                "w": 0.9906321167945862
            },
            "time": 3.3341763019561769
        },
        {
            "position": {
                "x": -19.552316665649415,
                "y": 1.6405948400497437,
                "z": -14.35263729095459
            },
            "rotation": {
                "x": -0.00486964825540781,
                "y": -0.13431312143802644,
                "z": -0.0006600464694201946,
                "w": 0.9909267425537109
            },
            "time": 3.3508434295654299
        },
        {
            "position": {
                "x": -19.65044593811035,
                "y": 1.6405948400497437,
                "z": -14.37973690032959
            },
            "rotation": {
                "x": -0.005013823509216309,
                "y": -0.13388065993785859,
                "z": -0.000677360687404871,
                "w": 0.9909845590591431
            },
            "time": 3.3678104877471926
        },
        {
            "position": {
                "x": -19.747705459594728,
                "y": 1.6405948400497437,
                "z": -14.40650463104248
            },
            "rotation": {
                "x": -0.005013823509216309,
                "y": -0.13388065993785859,
                "z": -0.000677360687404871,
                "w": 0.9909845590591431
            },
            "time": 3.3846230506896974
        },
        {
            "position": {
                "x": -19.747705459594728,
                "y": 1.6405948400497437,
                "z": -14.40650463104248
            },
            "rotation": {
                "x": -0.005013823509216309,
                "y": -0.13388065993785859,
                "z": -0.000677360687404871,
                "w": 0.9909845590591431
            },
            "time": 3.401615858078003
        },
        {
            "position": {
                "x": -19.747705459594728,
                "y": 1.6405948400497437,
                "z": -14.40650463104248
            },
            "rotation": {
                "x": -0.005013823509216309,
                "y": -0.13388065993785859,
                "z": -0.000677360687404871,
                "w": 0.9909845590591431
            },
            "time": 3.4185194969177248
        },
        {
            "position": {
                "x": -19.747705459594728,
                "y": 1.6405948400497437,
                "z": -14.40650463104248
            },
            "rotation": {
                "x": -0.005013823509216309,
                "y": -0.13388065993785859,
                "z": -0.000677360687404871,
                "w": 0.9909845590591431
            },
            "time": 3.4351861476898195
        },
        {
            "position": {
                "x": -19.747705459594728,
                "y": 1.6405948400497437,
                "z": -14.40650463104248
            },
            "rotation": {
                "x": -0.005013823509216309,
                "y": -0.13388065993785859,
                "z": -0.000677360687404871,
                "w": 0.9909845590591431
            },
            "time": 3.451853036880493
        },
        {
            "position": {
                "x": -19.747705459594728,
                "y": 1.6405948400497437,
                "z": -14.40650463104248
            },
            "rotation": {
                "x": -0.005013823509216309,
                "y": -0.13388065993785859,
                "z": -0.000677360687404871,
                "w": 0.9909845590591431
            },
            "time": 3.4686686992645265
        },
        {
            "position": {
                "x": -19.747705459594728,
                "y": 1.6405948400497437,
                "z": -14.40650463104248
            },
            "rotation": {
                "x": -0.005013823509216309,
                "y": -0.13388065993785859,
                "z": -0.000677360687404871,
                "w": 0.9909845590591431
            },
            "time": 3.485738754272461
        },
        {
            "position": {
                "x": -19.747705459594728,
                "y": 1.6405948400497437,
                "z": -14.40650463104248
            },
            "rotation": {
                "x": -0.005013823509216309,
                "y": -0.13388065993785859,
                "z": -0.000677360687404871,
                "w": 0.9909845590591431
            },
            "time": 3.5025620460510256
        },
        {
            "position": {
                "x": -19.747705459594728,
                "y": 1.6405948400497437,
                "z": -14.40650463104248
            },
            "rotation": {
                "x": -0.005013823509216309,
                "y": -0.13388065993785859,
                "z": -0.000677360687404871,
                "w": 0.9909845590591431
            },
            "time": 3.519463539123535
        },
        {
            "position": {
                "x": -19.747705459594728,
                "y": 1.6405948400497437,
                "z": -14.40650463104248
            },
            "rotation": {
                "x": -0.005013823509216309,
                "y": -0.13388065993785859,
                "z": -0.000677360687404871,
                "w": 0.9909845590591431
            },
            "time": 3.5361297130584719
        },
        {
            "position": {
                "x": -19.747705459594728,
                "y": 1.6405948400497437,
                "z": -14.40650463104248
            },
            "rotation": {
                "x": -0.005013823509216309,
                "y": -0.13388065993785859,
                "z": -0.000677360687404871,
                "w": 0.9909845590591431
            },
            "time": 3.552797317504883
        },
        {
            "position": {
                "x": -19.747705459594728,
                "y": 1.6405948400497437,
                "z": -14.40650463104248
            },
            "rotation": {
                "x": -0.005013823509216309,
                "y": -0.13388065993785859,
                "z": -0.000677360687404871,
                "w": 0.9909845590591431
            },
            "time": 3.5694644451141359
        },
        {
            "position": {
                "x": -19.747705459594728,
                "y": 1.6405948400497437,
                "z": -14.40650463104248
            },
            "rotation": {
                "x": -0.005013823509216309,
                "y": -0.13388065993785859,
                "z": -0.000677360687404871,
                "w": 0.9909845590591431
            },
            "time": 3.5864131450653078
        }
    ]
}