{
    "transformations": [
        {
            "position": {
                "x": 1.6688315868377686,
                "y": 1.504523754119873,
                "z": -63.556427001953128
            },
            "rotation": {
                "x": -0.013837218284606934,
                "y": 0.054805826395750049,
                "z": -0.0007595748174935579,
                "w": -0.998400866985321
            },
            "time": 0.03033450059592724
        },
        {
            "position": {
                "x": 1.6688315868377686,
                "y": 1.504523754119873,
                "z": -63.556427001953128
            },
            "rotation": {
                "x": -0.013837219215929509,
                "y": 0.054805826395750049,
                "z": -0.0007595748757012188,
                "w": -0.998400866985321
            },
            "time": 0.06290820240974426
        },
        {
            "position": {
                "x": 1.6688315868377686,
                "y": 1.504523754119873,
                "z": -63.556427001953128
            },
            "rotation": {
                "x": -0.013837220147252083,
                "y": 0.054805826395750049,
                "z": -0.0007595749339088798,
                "w": -0.998400866985321
            },
            "time": 0.09150790423154831
        },
        {
            "position": {
                "x": 1.6688315868377686,
                "y": 1.504523754119873,
                "z": -63.556427001953128
            },
            "rotation": {
                "x": -0.013837221078574658,
                "y": 0.054805826395750049,
                "z": -0.0007595749921165407,
                "w": -0.998400866985321
            },
            "time": 0.12834841012954713
        },
        {
            "position": {
                "x": 1.6688315868377686,
                "y": 1.504523754119873,
                "z": -63.556427001953128
            },
            "rotation": {
                "x": -0.013838205486536026,
                "y": 0.05349895358085632,
                "z": -0.0007414626306854188,
                "w": -0.998471736907959
            },
            "time": 0.16237670183181764
        },
        {
            "position": {
                "x": 1.6688315868377686,
                "y": 1.504523754119873,
                "z": -63.556427001953128
            },
            "rotation": {
                "x": -0.013120624236762524,
                "y": 0.03955317288637161,
                "z": -0.0005194135592319071,
                "w": -0.9991312026977539
            },
            "time": 0.1957578957080841
        },
        {
            "position": {
                "x": 1.6688315868377686,
                "y": 1.504523754119873,
                "z": -63.556427001953128
            },
            "rotation": {
                "x": -0.011965555138885975,
                "y": 0.017747974023222925,
                "z": -0.00021241302601993084,
                "w": -0.9997708797454834
            },
            "time": 0.22577939927577973
        },
        {
            "position": {
                "x": 1.6688315868377686,
                "y": 1.504523754119873,
                "z": -63.556427001953128
            },
            "rotation": {
                "x": -0.010657332837581635,
                "y": -0.014973271638154984,
                "z": 0.00015960208838805556,
                "w": -0.9998310804367065
            },
            "time": 0.25844910740852358
        },
        {
            "position": {
                "x": 1.6688315868377686,
                "y": 1.504523754119873,
                "z": -63.556427001953128
            },
            "rotation": {
                "x": 0.009485575370490551,
                "y": 0.04462844133377075,
                "z": -0.00042376777855679393,
                "w": 0.9989585876464844
            },
            "time": 0.2826022207736969
        },
        {
            "position": {
                "x": 1.6688315868377686,
                "y": 1.504523754119873,
                "z": -63.556427001953128
            },
            "rotation": {
                "x": 0.007709647994488478,
                "y": 0.10162599384784699,
                "z": -0.000787602097261697,
                "w": 0.9947925209999085
            },
            "time": 0.3154653310775757
        },
        {
            "position": {
                "x": 1.6688315868377686,
                "y": 1.504523754119873,
                "z": -63.556427001953128
            },
            "rotation": {
                "x": 0.006512059830129147,
                "y": 0.14966991543769837,
                "z": -0.0009857849217951298,
                "w": 0.9887140989303589
            },
            "time": 0.3491763472557068
        },
        {
            "position": {
                "x": 1.6688315868377686,
                "y": 1.504523754119873,
                "z": -63.556427001953128
            },
            "rotation": {
                "x": 0.006302205380052328,
                "y": 0.20633630454540254,
                "z": -0.0013290004571899772,
                "w": 0.9784599542617798
            },
            "time": 0.37840935587882998
        },
        {
            "position": {
                "x": 1.7662293910980225,
                "y": 1.5014164447784424,
                "z": -63.33576202392578
            },
            "rotation": {
                "x": 0.004779616370797157,
                "y": 0.2849820554256439,
                "z": -0.0014210502849891782,
                "w": 0.9585198760032654
            },
            "time": 0.41861316561698916
        },
        {
            "position": {
                "x": 1.8646540641784669,
                "y": 1.499619722366333,
                "z": -63.184871673583987
            },
            "rotation": {
                "x": 0.003586382605135441,
                "y": 0.34624531865119936,
                "z": -0.0013236544327810407,
                "w": 0.9381362199783325
            },
            "time": 0.448640376329422
        },
        {
            "position": {
                "x": 1.9911707639694214,
                "y": 1.4981307983398438,
                "z": -63.03682327270508
            },
            "rotation": {
                "x": 0.003772316500544548,
                "y": 0.39887353777885439,
                "z": -0.0016408752417191864,
                "w": 0.9169967174530029
            },
            "time": 0.481098473072052
        },
        {
            "position": {
                "x": 2.1444003582000734,
                "y": 1.496407389640808,
                "z": -62.894012451171878
            },
            "rotation": {
                "x": 0.003957737702876329,
                "y": 0.43888428807258608,
                "z": -0.0019331390503793955,
                "w": 0.8985328078269959
            },
            "time": 0.5160097479820252
        },
        {
            "position": {
                "x": 2.3155875205993654,
                "y": 1.4944953918457032,
                "z": -62.760581970214847
            },
            "rotation": {
                "x": 0.0031000329181551935,
                "y": 0.4791942834854126,
                "z": -0.0016925088129937649,
                "w": 0.8777018189430237
            },
            "time": 0.5521852374076843
        },
        {
            "position": {
                "x": 2.4935669898986818,
                "y": 1.4930007457733155,
                "z": -62.64617156982422
            },
            "rotation": {
                "x": 0.0024070851504802706,
                "y": 0.51328444480896,
                "z": -0.001439640298485756,
                "w": 0.8582139611244202
            },
            "time": 0.5874495506286621
        },
        {
            "position": {
                "x": 2.6916089057922365,
                "y": 1.4917397499084473,
                "z": -62.53982925415039
            },
            "rotation": {
                "x": 0.0018647032557055355,
                "y": 0.5443887114524841,
                "z": -0.0012101655593141914,
                "w": 0.8388301730155945
            },
            "time": 0.6249145269393921
        },
        {
            "position": {
                "x": 2.8635175228118898,
                "y": 1.4909029006958008,
                "z": -62.46316909790039
            },
            "rotation": {
                "x": 0.0008738001342862845,
                "y": 0.5654417276382446,
                "z": -0.0005990428035147488,
                "w": 0.8247876167297363
            },
            "time": 0.6562860012054443
        },
        {
            "position": {
                "x": 3.0705652236938478,
                "y": 1.490432620048523,
                "z": -62.38313293457031
            },
            "rotation": {
                "x": -0.0003211564908269793,
                "y": 0.5822362899780273,
                "z": 0.00022999320935923606,
                "w": 0.8130195140838623
            },
            "time": 0.693282425403595
        },
        {
            "position": {
                "x": 3.2727346420288088,
                "y": 1.4906013011932374,
                "z": -62.31437301635742
            },
            "rotation": {
                "x": 0.003572125220671296,
                "y": -0.6005257964134216,
                "z": -0.002682806458324194,
                "w": -0.7995929718017578
            },
            "time": 0.7288728952407837
        },
        {
            "position": {
                "x": 3.4759292602539064,
                "y": 1.4924917221069337,
                "z": -62.255401611328128
            },
            "rotation": {
                "x": 0.006274582352489233,
                "y": -0.6150640845298767,
                "z": -0.004894836340099573,
                "w": -0.788437008857727
            },
            "time": 0.7641375064849854
        },
        {
            "position": {
                "x": 3.6708991527557375,
                "y": 1.4956912994384766,
                "z": -62.206485748291019
            },
            "rotation": {
                "x": 0.007935145869851113,
                "y": -0.6361522674560547,
                "z": -0.006543089170008898,
                "w": -0.7714950442314148
            },
            "time": 0.797643780708313
        },
        {
            "position": {
                "x": 3.8705978393554689,
                "y": 1.4998763799667359,
                "z": -62.167724609375
            },
            "rotation": {
                "x": 0.008584300056099892,
                "y": -0.650507390499115,
                "z": -0.007353216875344515,
                "w": -0.7594159245491028
            },
            "time": 0.831555187702179
        },
        {
            "position": {
                "x": 4.0685577392578129,
                "y": 1.5044060945510865,
                "z": -62.136959075927737
            },
            "rotation": {
                "x": 0.009146005846560002,
                "y": -0.6600576043128967,
                "z": -0.008037225343286991,
                "w": -0.7511163353919983
            },
            "time": 0.8649531006813049
        },
        {
            "position": {
                "x": 4.263500690460205,
                "y": 1.509194016456604,
                "z": -62.1116943359375
            },
            "rotation": {
                "x": 0.009205390699207783,
                "y": -0.6646323204040527,
                "z": -0.008189606480300427,
                "w": -0.7470689415931702
            },
            "time": 0.897724986076355
        },
        {
            "position": {
                "x": 4.464921951293945,
                "y": 1.5141925811767579,
                "z": -62.08808898925781
            },
            "rotation": {
                "x": 0.009061342105269432,
                "y": -0.6678869128227234,
                "z": -0.00813255924731493,
                "w": -0.7441632151603699
            },
            "time": 0.9315351843833923
        },
        {
            "position": {
                "x": 4.64992094039917,
                "y": 1.5187249183654786,
                "z": -62.06804275512695
            },
            "rotation": {
                "x": 0.008466608822345734,
                "y": -0.6730716228485107,
                "z": -0.007706181611865759,
                "w": -0.7394886612892151
            },
            "time": 0.9625579714775086
        },
        {
            "position": {
                "x": 4.834232807159424,
                "y": 1.5229647159576417,
                "z": -62.0506706237793
            },
            "rotation": {
                "x": 0.007865413092076779,
                "y": -0.6795046925544739,
                "z": -0.007285492029041052,
                "w": -0.7335928678512573
            },
            "time": 0.9934208989143372
        },
        {
            "position": {
                "x": 4.996728420257568,
                "y": 1.526459813117981,
                "z": -62.038211822509769
            },
            "rotation": {
                "x": 0.007602363359183073,
                "y": -0.6846116185188294,
                "z": -0.0071410913951694969,
                "w": -0.7288334369659424
            },
            "time": 1.0205892324447632
        },
        {
            "position": {
                "x": 5.182764053344727,
                "y": 1.5303488969802857,
                "z": -62.02655792236328
            },
            "rotation": {
                "x": 0.00733578996732831,
                "y": -0.6903167366981506,
                "z": -0.00699995132163167,
                "w": -0.7234362363815308
            },
            "time": 1.0516626834869385
        },
        {
            "position": {
                "x": 5.353741645812988,
                "y": 1.5338205099105836,
                "z": -62.0185432434082
            },
            "rotation": {
                "x": 0.007020872086286545,
                "y": -0.7012858986854553,
                "z": -0.006907344330102205,
                "w": -0.7128121256828308
            },
            "time": 1.0801961421966553
        },
        {
            "position": {
                "x": 5.5159525871276859,
                "y": 1.5370166301727296,
                "z": -62.015899658203128
            },
            "rotation": {
                "x": 0.007280878257006407,
                "y": -0.7160558700561523,
                "z": -0.007469594944268465,
                "w": -0.6979650259017944
            },
            "time": 1.1072402000427247
        },
        {
            "position": {
                "x": 5.706969261169434,
                "y": 1.5410035848617554,
                "z": -62.02078628540039
            },
            "rotation": {
                "x": 0.007894297130405903,
                "y": -0.7242206335067749,
                "z": -0.008292146027088166,
                "w": -0.6894733309745789
            },
            "time": 1.1390937566757203
        },
        {
            "position": {
                "x": 5.8603315353393559,
                "y": 1.5445202589035035,
                "z": -62.0283317565918
            },
            "rotation": {
                "x": 0.008079993538558483,
                "y": -0.725420355796814,
                "z": -0.008516915142536164,
                "w": -0.6882059574127197
            },
            "time": 1.1646918058395386
        },
        {
            "position": {
                "x": 6.0406174659729,
                "y": 1.5487600564956666,
                "z": -62.0378303527832
            },
            "rotation": {
                "x": 0.008079993538558483,
                "y": -0.725420355796814,
                "z": -0.008516915142536164,
                "w": -0.6882059574127197
            },
            "time": 1.1947894096374512
        },
        {
            "position": {
                "x": 6.165773868560791,
                "y": 1.5517033338546754,
                "z": -62.04442596435547
            },
            "rotation": {
                "x": 0.008079993538558483,
                "y": -0.725420355796814,
                "z": -0.008516915142536164,
                "w": -0.6882059574127197
            },
            "time": 1.2156834602355958
        },
        {
            "position": {
                "x": 6.396383762359619,
                "y": 1.5571266412734986,
                "z": -62.056575775146487
            },
            "rotation": {
                "x": 0.008079993538558483,
                "y": -0.725420355796814,
                "z": -0.008516915142536164,
                "w": -0.6882059574127197
            },
            "time": 1.2541823387145997
        },
        {
            "position": {
                "x": 6.500067234039307,
                "y": 1.5595649480819703,
                "z": -62.06203842163086
            },
            "rotation": {
                "x": 0.008079993538558483,
                "y": -0.725420355796814,
                "z": -0.008516915142536164,
                "w": -0.6882059574127197
            },
            "time": 1.2714916467666627
        },
        {
            "position": {
                "x": 6.631872653961182,
                "y": 1.5626646280288697,
                "z": -62.0689811706543
            },
            "rotation": {
                "x": 0.008079993538558483,
                "y": -0.725420355796814,
                "z": -0.008516915142536164,
                "w": -0.6882059574127197
            },
            "time": 1.293495774269104
        },
        {
            "position": {
                "x": 6.768033504486084,
                "y": 1.5658667087554932,
                "z": -62.07615661621094
            },
            "rotation": {
                "x": 0.008079993538558483,
                "y": -0.725420355796814,
                "z": -0.008516915142536164,
                "w": -0.6882059574127197
            },
            "time": 1.3162269592285157
        },
        {
            "position": {
                "x": 6.909551620483398,
                "y": 1.5691947937011719,
                "z": -62.083614349365237
            },
            "rotation": {
                "x": 0.008079993538558483,
                "y": -0.725420355796814,
                "z": -0.008516915142536164,
                "w": -0.6882059574127197
            },
            "time": 1.3398525714874268
        },
        {
            "position": {
                "x": 7.084014415740967,
                "y": 1.5732976198196412,
                "z": -62.09280776977539
            },
            "rotation": {
                "x": 0.008180081844329834,
                "y": -0.7254191637039185,
                "z": -0.008622415363788605,
                "w": -0.688204824924469
            },
            "time": 1.3689780235290528
        },
        {
            "position": {
                "x": 7.218442440032959,
                "y": 1.5764981508255005,
                "z": -62.099891662597659
            },
            "rotation": {
                "x": 0.00878077745437622,
                "y": -0.7254113554954529,
                "z": -0.00925559364259243,
                "w": -0.6881974339485169
            },
            "time": 1.3914201259613038
        },
        {
            "position": {
                "x": 7.404965400695801,
                "y": 1.5812652111053467,
                "z": -62.109718322753909
            },
            "rotation": {
                "x": 0.00957706943154335,
                "y": -0.725700318813324,
                "z": -0.010103771463036538,
                "w": -0.6878700852394104
            },
            "time": 1.4225605726242066
        },
        {
            "position": {
                "x": 7.515811920166016,
                "y": 1.5843567848205567,
                "z": -62.11565399169922
            },
            "rotation": {
                "x": 0.010177474468946457,
                "y": -0.7256912589073181,
                "z": -0.010737196542322636,
                "w": -0.6878615021705627
            },
            "time": 1.4410686492919922
        },
        {
            "position": {
                "x": 7.642359256744385,
                "y": 1.588107705116272,
                "z": -62.122432708740237
            },
            "rotation": {
                "x": 0.010577630251646042,
                "y": -0.7256848812103272,
                "z": -0.01115935854613781,
                "w": -0.6878554821014404
            },
            "time": 1.462199330329895
        },
        {
            "position": {
                "x": 7.8106255531311039,
                "y": 1.5932914018630982,
                "z": -62.131446838378909
            },
            "rotation": {
                "x": 0.01118316501379013,
                "y": -0.7253745794296265,
                "z": -0.01178788859397173,
                "w": -0.6881625652313232
            },
            "time": 1.4902971982955933
        },
        {
            "position": {
                "x": 7.933567047119141,
                "y": 1.597293734550476,
                "z": -62.13792419433594
            },
            "rotation": {
                "x": 0.011288437992334366,
                "y": -0.7250725626945496,
                "z": -0.011888460256159306,
                "w": -0.6884773969650269
            },
            "time": 1.5108267068862916
        },
        {
            "position": {
                "x": 8.095205307006836,
                "y": 1.6026027202606202,
                "z": -62.146297454833987
            },
            "rotation": {
                "x": 0.011288437992334366,
                "y": -0.7250725626945496,
                "z": -0.011888460256159306,
                "w": -0.6884773969650269
            },
            "time": 1.5378170013427735
        },
        {
            "position": {
                "x": 8.23735523223877,
                "y": 1.607271671295166,
                "z": -62.153663635253909
            },
            "rotation": {
                "x": 0.011288437992334366,
                "y": -0.7250725626945496,
                "z": -0.011888460256159306,
                "w": -0.6884773969650269
            },
            "time": 1.5615532398223878
        },
        {
            "position": {
                "x": 8.361617088317871,
                "y": 1.6113530397415162,
                "z": -62.16010284423828
            },
            "rotation": {
                "x": 0.011288437992334366,
                "y": -0.7250725626945496,
                "z": -0.011888460256159306,
                "w": -0.6884773969650269
            },
            "time": 1.582302451133728
        },
        {
            "position": {
                "x": 8.526069641113282,
                "y": 1.6167545318603516,
                "z": -62.16862487792969
            },
            "rotation": {
                "x": 0.011288437992334366,
                "y": -0.7250725626945496,
                "z": -0.011888460256159306,
                "w": -0.6884773969650269
            },
            "time": 1.6097626686096192
        },
        {
            "position": {
                "x": 8.643134117126465,
                "y": 1.6205995082855225,
                "z": -62.17469024658203
            },
            "rotation": {
                "x": 0.011794495396316052,
                "y": -0.7247632145881653,
                "z": -0.012410566210746766,
                "w": -0.6887853145599365
            },
            "time": 1.6293100118637086
        },
        {
            "position": {
                "x": 8.807275772094727,
                "y": 1.6262298822402955,
                "z": -62.18305206298828
            },
            "rotation": {
                "x": 0.012607601471245289,
                "y": -0.7241469621658325,
                "z": -0.013242984190583229,
                "w": -0.689403235912323
            },
            "time": 1.656718373298645
        },
        {
            "position": {
                "x": 8.924983024597168,
                "y": 1.6305416822433472,
                "z": -62.1888427734375
            },
            "rotation": {
                "x": 0.0130147784948349,
                "y": -0.7238382697105408,
                "z": -0.013658743351697922,
                "w": -0.6897116899490356
            },
            "time": 1.6763731241226197
        },
        {
            "position": {
                "x": 9.084089279174805,
                "y": 1.6365554332733155,
                "z": -62.196529388427737
            },
            "rotation": {
                "x": 0.013817401602864266,
                "y": -0.7238218784332275,
                "z": -0.01450107991695404,
                "w": -0.6896960735321045
            },
            "time": 1.7029407024383546
        },
        {
            "position": {
                "x": 9.226531982421875,
                "y": 1.6422717571258546,
                "z": -62.20341110229492
            },
            "rotation": {
                "x": 0.014218623749911785,
                "y": -0.7238133549690247,
                "z": -0.014922154136002064,
                "w": -0.6896879076957703
            },
            "time": 1.7267279624938965
        },
        {
            "position": {
                "x": 9.350313186645508,
                "y": 1.6473835706710816,
                "z": -62.20939254760742
            },
            "rotation": {
                "x": 0.014325485564768315,
                "y": -0.7235101461410523,
                "z": -0.015021173283457756,
                "w": -0.6900016069412231
            },
            "time": 1.7473998069763184
        },
        {
            "position": {
                "x": 9.517580032348633,
                "y": 1.6543397903442383,
                "z": -62.21732711791992
            },
            "rotation": {
                "x": 0.014325485564768315,
                "y": -0.7235101461410523,
                "z": -0.015021173283457756,
                "w": -0.6900016069412231
            },
            "time": 1.775333046913147
        },
        {
            "position": {
                "x": 9.646117210388184,
                "y": 1.6596853733062745,
                "z": -62.22342300415039
            },
            "rotation": {
                "x": 0.014325485564768315,
                "y": -0.7235101461410523,
                "z": -0.015021173283457756,
                "w": -0.6900016069412231
            },
            "time": 1.796798586845398
        },
        {
            "position": {
                "x": 9.805316925048829,
                "y": 1.6663061380386353,
                "z": -62.23097610473633
            },
            "rotation": {
                "x": 0.014325485564768315,
                "y": -0.7235101461410523,
                "z": -0.015021173283457756,
                "w": -0.6900016069412231
            },
            "time": 1.8233846426010132
        },
        {
            "position": {
                "x": 9.943726539611817,
                "y": 1.6720622777938843,
                "z": -62.23754119873047
            },
            "rotation": {
                "x": 0.014325485564768315,
                "y": -0.7235101461410523,
                "z": -0.015021173283457756,
                "w": -0.6900016069412231
            },
            "time": 1.846498727798462
        },
        {
            "position": {
                "x": 10.083333969116211,
                "y": 1.6778682470321656,
                "z": -62.244163513183597
            },
            "rotation": {
                "x": 0.014325485564768315,
                "y": -0.7235101461410523,
                "z": -0.015021173283457756,
                "w": -0.6900016069412231
            },
            "time": 1.8698129653930665
        },
        {
            "position": {
                "x": 10.235298156738282,
                "y": 1.6841881275177003,
                "z": -62.251373291015628
            },
            "rotation": {
                "x": 0.014325485564768315,
                "y": -0.7235101461410523,
                "z": -0.015021173283457756,
                "w": -0.6900016069412231
            },
            "time": 1.895190715789795
        },
        {
            "position": {
                "x": 10.359715461730957,
                "y": 1.6893622875213624,
                "z": -62.25727462768555
            },
            "rotation": {
                "x": 0.01413770206272602,
                "y": -0.722912073135376,
                "z": -0.014798393473029137,
                "w": -0.6906368732452393
            },
            "time": 1.9159680604934693
        },
        {
            "position": {
                "x": 10.517548561096192,
                "y": 1.6958335638046265,
                "z": -62.26448440551758
            },
            "rotation": {
                "x": 0.013572083786129952,
                "y": -0.7211140990257263,
                "z": -0.014132082462310791,
                "w": -0.6925392150878906
            },
            "time": 1.9423232078552247
        },
        {
            "position": {
                "x": 10.653324127197266,
                "y": 1.7011617422103882,
                "z": -62.26997375488281
            },
            "rotation": {
                "x": 0.013103896751999855,
                "y": -0.7193086743354797,
                "z": -0.013573269359767437,
                "w": -0.6944344639778137
            },
            "time": 1.964988350868225
        },
        {
            "position": {
                "x": 10.791619300842286,
                "y": 1.7063860893249512,
                "z": -62.27484130859375
            },
            "rotation": {
                "x": 0.012722852639853955,
                "y": -0.7181033492088318,
                "z": -0.013132631778717041,
                "w": -0.6956962943077087
            },
            "time": 1.9880682229995728
        },
        {
            "position": {
                "x": 10.938837051391602,
                "y": 1.7117751836776734,
                "z": -62.279510498046878
            },
            "rotation": {
                "x": 0.012531767599284649,
                "y": -0.7174997329711914,
                "z": -0.012912824749946595,
                "w": -0.6963263154029846
            },
            "time": 2.0126333236694338
        },
        {
            "position": {
                "x": 11.064363479614258,
                "y": 1.716296911239624,
                "z": -62.28327178955078
            },
            "rotation": {
                "x": 0.012233451008796692,
                "y": -0.7172014117240906,
                "z": -0.012594437226653099,
                "w": -0.6966447234153748
            },
            "time": 2.0335774421691896
        },
        {
            "position": {
                "x": 11.217455863952637,
                "y": 1.7216776609420777,
                "z": -62.287723541259769
            },
            "rotation": {
                "x": 0.011560410261154175,
                "y": -0.7150827646255493,
                "z": -0.011829032562673092,
                "w": -0.6988441348075867
            },
            "time": 2.059119462966919
        },
        {
            "position": {
                "x": 11.346002578735352,
                "y": 1.7259328365325928,
                "z": -62.29067611694336
            },
            "rotation": {
                "x": 0.011270565912127495,
                "y": -0.7141724228858948,
                "z": -0.01150229386985302,
                "w": -0.699784517288208
            },
            "time": 2.080561399459839
        },
        {
            "position": {
                "x": 11.503805160522461,
                "y": 1.731018304824829,
                "z": -62.293888092041019
            },
            "rotation": {
                "x": 0.011076869443058968,
                "y": -0.7135648131370544,
                "z": -0.011284898966550827,
                "w": -0.7004107236862183
            },
            "time": 2.1068809032440187
        },
        {
            "position": {
                "x": 11.641810417175293,
                "y": 1.7353851795196534,
                "z": -62.29645538330078
            },
            "rotation": {
                "x": 0.011076869443058968,
                "y": -0.7135648131370544,
                "z": -0.011284898966550827,
                "w": -0.7004107236862183
            },
            "time": 2.129897117614746
        },
        {
            "position": {
                "x": 11.78735637664795,
                "y": 1.7399907112121583,
                "z": -62.299163818359378
            },
            "rotation": {
                "x": 0.011076869443058968,
                "y": -0.7135648131370544,
                "z": -0.011284898966550827,
                "w": -0.7004107236862183
            },
            "time": 2.1541712284088136
        },
        {
            "position": {
                "x": 11.945430755615235,
                "y": 1.7449926137924195,
                "z": -62.30210494995117
            },
            "rotation": {
                "x": 0.011076869443058968,
                "y": -0.7135648131370544,
                "z": -0.011284898966550827,
                "w": -0.7004107236862183
            },
            "time": 2.180534839630127
        },
        {
            "position": {
                "x": 12.06444263458252,
                "y": 1.7487585544586182,
                "z": -62.3043212890625
            },
            "rotation": {
                "x": 0.011076869443058968,
                "y": -0.7135648131370544,
                "z": -0.011284898966550827,
                "w": -0.7004107236862183
            },
            "time": 2.200383424758911
        },
        {
            "position": {
                "x": 12.216287612915039,
                "y": 1.753563404083252,
                "z": -62.30714797973633
            },
            "rotation": {
                "x": 0.011076869443058968,
                "y": -0.7135648131370544,
                "z": -0.011284898966550827,
                "w": -0.7004107236862183
            },
            "time": 2.2257080078125
        },
        {
            "position": {
                "x": 12.381502151489258,
                "y": 1.7587913274765015,
                "z": -62.31022262573242
            },
            "rotation": {
                "x": 0.011076869443058968,
                "y": -0.7135648131370544,
                "z": -0.011284898966550827,
                "w": -0.7004107236862183
            },
            "time": 2.2532622814178469
        },
        {
            "position": {
                "x": 12.495532989501954,
                "y": 1.762399673461914,
                "z": -62.31234359741211
            },
            "rotation": {
                "x": 0.011076869443058968,
                "y": -0.7135648131370544,
                "z": -0.011284898966550827,
                "w": -0.7004107236862183
            },
            "time": 2.272280216217041
        },
        {
            "position": {
                "x": 12.645530700683594,
                "y": 1.7671459913253785,
                "z": -62.31513595581055
            },
            "rotation": {
                "x": 0.011076869443058968,
                "y": -0.7135648131370544,
                "z": -0.011284898966550827,
                "w": -0.7004107236862183
            },
            "time": 2.2972965240478517
        },
        {
            "position": {
                "x": 12.769622802734375,
                "y": 1.7710726261138917,
                "z": -62.31744384765625
            },
            "rotation": {
                "x": 0.011076869443058968,
                "y": -0.7135648131370544,
                "z": -0.011284898966550827,
                "w": -0.7004107236862183
            },
            "time": 2.3179924488067629
        },
        {
            "position": {
                "x": 12.917622566223145,
                "y": 1.775755763053894,
                "z": -62.32019805908203
            },
            "rotation": {
                "x": 0.011076869443058968,
                "y": -0.7135648131370544,
                "z": -0.011284898966550827,
                "w": -0.7004107236862183
            },
            "time": 2.3426756858825685
        },
        {
            "position": {
                "x": 13.039952278137207,
                "y": 1.7796266078948975,
                "z": -62.32247543334961
            },
            "rotation": {
                "x": 0.011076869443058968,
                "y": -0.7135648131370544,
                "z": -0.011284898966550827,
                "w": -0.7004107236862183
            },
            "time": 2.3630776405334474
        },
        {
            "position": {
                "x": 13.19751262664795,
                "y": 1.7846122980117798,
                "z": -62.325408935546878
            },
            "rotation": {
                "x": 0.01108179334551096,
                "y": -0.7132591009140015,
                "z": -0.011280065402388573,
                "w": -0.7007220387458801
            },
            "time": 2.389355421066284
        },
        {
            "position": {
                "x": 13.328020095825196,
                "y": 1.788741946220398,
                "z": -62.32772445678711
            },
            "rotation": {
                "x": 0.011193632148206234,
                "y": -0.7126457691192627,
                "z": -0.01137403305619955,
                "w": -0.7013426423072815
            },
            "time": 2.411121129989624
        },
        {
            "position": {
                "x": 13.444924354553223,
                "y": 1.7924749851226807,
                "z": -62.329593658447269
            },
            "rotation": {
                "x": 0.01119859330356121,
                "y": -0.7123396396636963,
                "z": -0.011369148269295693,
                "w": -0.7016534805297852
            },
            "time": 2.430617570877075
        },
        {
            "position": {
                "x": 13.593829154968262,
                "y": 1.7972298860549927,
                "z": -62.331844329833987
            },
            "rotation": {
                "x": 0.01119859330356121,
                "y": -0.7123396396636963,
                "z": -0.011369148269295693,
                "w": -0.7016534805297852
            },
            "time": 2.4554505348205568
        },
        {
            "position": {
                "x": 13.715054512023926,
                "y": 1.8011009693145753,
                "z": -62.333675384521487
            },
            "rotation": {
                "x": 0.01119859330356121,
                "y": -0.7123396396636963,
                "z": -0.011369148269295693,
                "w": -0.7016534805297852
            },
            "time": 2.4756674766540529
        },
        {
            "position": {
                "x": 13.861926078796387,
                "y": 1.805790901184082,
                "z": -62.33589553833008
            },
            "rotation": {
                "x": 0.01119859330356121,
                "y": -0.7123396396636963,
                "z": -0.011369148269295693,
                "w": -0.7016534805297852
            },
            "time": 2.5001611709594728
        },
        {
            "position": {
                "x": 13.995865821838379,
                "y": 1.810067892074585,
                "z": -62.337921142578128
            },
            "rotation": {
                "x": 0.01119859330356121,
                "y": -0.7123396396636963,
                "z": -0.011369148269295693,
                "w": -0.7016534805297852
            },
            "time": 2.522498369216919
        },
        {
            "position": {
                "x": 14.153647422790528,
                "y": 1.8151062726974488,
                "z": -62.34030532836914
            },
            "rotation": {
                "x": 0.01119859330356121,
                "y": -0.7123396396636963,
                "z": -0.011369148269295693,
                "w": -0.7016534805297852
            },
            "time": 2.548811674118042
        },
        {
            "position": {
                "x": 14.283012390136719,
                "y": 1.819237232208252,
                "z": -62.342262268066409
            },
            "rotation": {
                "x": 0.01119859330356121,
                "y": -0.7123396396636963,
                "z": -0.011369148269295693,
                "w": -0.7016534805297852
            },
            "time": 2.5703859329223635
        },
        {
            "position": {
                "x": 14.42824935913086,
                "y": 1.8238749504089356,
                "z": -62.344459533691409
            },
            "rotation": {
                "x": 0.01119859330356121,
                "y": -0.7123396396636963,
                "z": -0.011369148269295693,
                "w": -0.7016534805297852
            },
            "time": 2.59460711479187
        },
        {
            "position": {
                "x": 14.530355453491211,
                "y": 1.827135443687439,
                "z": -62.346004486083987
            },
            "rotation": {
                "x": 0.01119859330356121,
                "y": -0.7123396396636963,
                "z": -0.011369148269295693,
                "w": -0.7016534805297852
            },
            "time": 2.611635446548462
        },
        {
            "position": {
                "x": 14.69158935546875,
                "y": 1.8322839736938477,
                "z": -62.34844207763672
            },
            "rotation": {
                "x": 0.01119859330356121,
                "y": -0.7123396396636963,
                "z": -0.011369148269295693,
                "w": -0.7016534805297852
            },
            "time": 2.6385245323181154
        },
        {
            "position": {
                "x": 14.82790756225586,
                "y": 1.8366369009017945,
                "z": -62.350502014160159
            },
            "rotation": {
                "x": 0.01119859330356121,
                "y": -0.7123396396636963,
                "z": -0.011369148269295693,
                "w": -0.7016534805297852
            },
            "time": 2.6612584590911867
        },
        {
            "position": {
                "x": 14.930557250976563,
                "y": 1.8399147987365723,
                "z": -62.352054595947269
            },
            "rotation": {
                "x": 0.01119859330356121,
                "y": -0.7123396396636963,
                "z": -0.011369148269295693,
                "w": -0.7016534805297852
            },
            "time": 2.678377389907837
        },
        {
            "position": {
                "x": 15.092018127441407,
                "y": 1.8450706005096436,
                "z": -62.354496002197269
            },
            "rotation": {
                "x": 0.01119859330356121,
                "y": -0.7123396396636963,
                "z": -0.011369148269295693,
                "w": -0.7016534805297852
            },
            "time": 2.7053043842315676
        },
        {
            "position": {
                "x": 15.194456100463868,
                "y": 1.848341703414917,
                "z": -62.35604476928711
            },
            "rotation": {
                "x": 0.01119859330356121,
                "y": -0.7123396396636963,
                "z": -0.011369148269295693,
                "w": -0.7016534805297852
            },
            "time": 2.7223880290985109
        },
        {
            "position": {
                "x": 15.344793319702149,
                "y": 1.8531423807144166,
                "z": -62.35831832885742
            },
            "rotation": {
                "x": 0.01119859330356121,
                "y": -0.7123396396636963,
                "z": -0.011369148269295693,
                "w": -0.7016534805297852
            },
            "time": 2.747459888458252
        },
        {
            "position": {
                "x": 15.457571983337403,
                "y": 1.8567436933517457,
                "z": -62.360023498535159
            },
            "rotation": {
                "x": 0.01119859330356121,
                "y": -0.7123396396636963,
                "z": -0.011369148269295693,
                "w": -0.7016534805297852
            },
            "time": 2.766268014907837
        },
        {
            "position": {
                "x": 15.60715103149414,
                "y": 1.8615200519561768,
                "z": -62.36228561401367
            },
            "rotation": {
                "x": 0.010911908932030201,
                "y": -0.7111188769340515,
                "z": -0.01103949174284935,
                "w": -0.7029004693031311
            },
            "time": 2.7912135124206545
        },
        {
            "position": {
                "x": 15.729047775268555,
                "y": 1.8653059005737305,
                "z": -62.36370086669922
            },
            "rotation": {
                "x": 0.01064261607825756,
                "y": -0.708665668964386,
                "z": -0.010692141018807888,
                "w": -0.7053831815719605
            },
            "time": 2.8115408420562746
        },
        {
            "position": {
                "x": 15.889872550964356,
                "y": 1.8701599836349488,
                "z": -62.36444854736328
            },
            "rotation": {
                "x": 0.00997223798185587,
                "y": -0.7052823901176453,
                "z": -0.009922930970788002,
                "w": -0.7087869048118591
            },
            "time": 2.838357448577881
        },
        {
            "position": {
                "x": 16.004793167114259,
                "y": 1.8733943700790406,
                "z": -62.3638801574707
            },
            "rotation": {
                "x": 0.009873438626527787,
                "y": -0.7049745321273804,
                "z": -0.009816051460802555,
                "w": -0.7090960144996643
            },
            "time": 2.857518434524536
        },
        {
            "position": {
                "x": 16.11467933654785,
                "y": 1.8764550685882569,
                "z": -62.36323928833008
            },
            "rotation": {
                "x": 0.009873437695205212,
                "y": -0.7049745321273804,
                "z": -0.009816051460802555,
                "w": -0.7090959548950195
            },
            "time": 2.875840187072754
        },
        {
            "position": {
                "x": 16.254169464111329,
                "y": 1.8803404569625855,
                "z": -62.3624267578125
            },
            "rotation": {
                "x": 0.009873437695205212,
                "y": -0.7049745321273804,
                "z": -0.009816051460802555,
                "w": -0.7090959548950195
            },
            "time": 2.8990981578826906
        },
        {
            "position": {
                "x": 16.37946891784668,
                "y": 1.8838305473327637,
                "z": -62.361698150634769
            },
            "rotation": {
                "x": 0.009873437695205212,
                "y": -0.7049745321273804,
                "z": -0.009816051460802555,
                "w": -0.7090959548950195
            },
            "time": 2.919990062713623
        },
        {
            "position": {
                "x": 16.526689529418947,
                "y": 1.887931227684021,
                "z": -62.36083984375
            },
            "rotation": {
                "x": 0.009873437695205212,
                "y": -0.7049745321273804,
                "z": -0.009816051460802555,
                "w": -0.7090959548950195
            },
            "time": 2.9445369243621828
        },
        {
            "position": {
                "x": 16.648338317871095,
                "y": 1.8913196325302125,
                "z": -62.360130310058597
            },
            "rotation": {
                "x": 0.009873437695205212,
                "y": -0.7049745321273804,
                "z": -0.009816051460802555,
                "w": -0.7090959548950195
            },
            "time": 2.96481990814209
        },
        {
            "position": {
                "x": 16.802631378173829,
                "y": 1.8956172466278077,
                "z": -62.359230041503909
            },
            "rotation": {
                "x": 0.009873437695205212,
                "y": -0.7049745321273804,
                "z": -0.009816051460802555,
                "w": -0.7090959548950195
            },
            "time": 2.9905457496643068
        },
        {
            "position": {
                "x": 16.923372268676759,
                "y": 1.8989803791046143,
                "z": -62.358524322509769
            },
            "rotation": {
                "x": 0.009873437695205212,
                "y": -0.7049745321273804,
                "z": -0.009816051460802555,
                "w": -0.7090959548950195
            },
            "time": 3.0106773376464845
        },
        {
            "position": {
                "x": 17.088926315307618,
                "y": 1.9035916328430176,
                "z": -62.35755920410156
            },
            "rotation": {
                "x": 0.009075845591723919,
                "y": -0.702816367149353,
                "z": -0.008968140929937363,
                "w": -0.7112569212913513
            },
            "time": 3.038280725479126
        },
        {
            "position": {
                "x": 17.210298538208009,
                "y": 1.9066898822784424,
                "z": -62.356109619140628
            },
            "rotation": {
                "x": 0.008673102594912053,
                "y": -0.7018898129463196,
                "z": -0.0085477689281106,
                "w": -0.7121814489364624
            },
            "time": 3.0585174560546877
        },
        {
            "position": {
                "x": 17.353336334228517,
                "y": 1.9101746082305909,
                "z": -62.354026794433597
            },
            "rotation": {
                "x": 0.008369561284780503,
                "y": -0.7012717127799988,
                "z": -0.008234228007495404,
                "w": -0.7127974033355713
            },
            "time": 3.082366704940796
        },
        {
            "position": {
                "x": 17.487207412719728,
                "y": 1.9133192300796509,
                "z": -62.351844787597659
            },
            "rotation": {
                "x": 0.008369561284780503,
                "y": -0.7012717127799988,
                "z": -0.008234228007495404,
                "w": -0.7127974033355713
            },
            "time": 3.1046876907348635
        },
        {
            "position": {
                "x": 17.61191749572754,
                "y": 1.9162486791610718,
                "z": -62.34981155395508
            },
            "rotation": {
                "x": 0.008369561284780503,
                "y": -0.7012717127799988,
                "z": -0.008234228007495404,
                "w": -0.7127974033355713
            },
            "time": 3.125481128692627
        },
        {
            "position": {
                "x": 17.7642765045166,
                "y": 1.9198275804519654,
                "z": -62.347328186035159
            },
            "rotation": {
                "x": 0.008369561284780503,
                "y": -0.7012717127799988,
                "z": -0.008234228007495404,
                "w": -0.7127974033355713
            },
            "time": 3.1508846282958986
        },
        {
            "position": {
                "x": 17.899003982543947,
                "y": 1.9229923486709595,
                "z": -62.345130920410159
            },
            "rotation": {
                "x": 0.008369561284780503,
                "y": -0.7012717127799988,
                "z": -0.008234228007495404,
                "w": -0.7127974033355713
            },
            "time": 3.1733484268188478
        },
        {
            "position": {
                "x": 18.0482177734375,
                "y": 1.9264973402023316,
                "z": -62.34269714355469
            },
            "rotation": {
                "x": 0.008369561284780503,
                "y": -0.7012717127799988,
                "z": -0.008234228007495404,
                "w": -0.7127974033355713
            },
            "time": 3.1982274055480959
        },
        {
            "position": {
                "x": 18.170820236206056,
                "y": 1.9293773174285889,
                "z": -62.3406982421875
            },
            "rotation": {
                "x": 0.008269443176686764,
                "y": -0.7009617686271668,
                "z": -0.008128630928695202,
                "w": -0.7131046056747437
            },
            "time": 3.2186694145202638
        },
        {
            "position": {
                "x": 18.33384132385254,
                "y": 1.933159351348877,
                "z": -62.33789825439453
            },
            "rotation": {
                "x": 0.007458874024450779,
                "y": -0.6991013884544373,
                "z": -0.0072935656644403938,
                "w": -0.714946448802948
            },
            "time": 3.2458510398864748
        },
        {
            "position": {
                "x": 18.459726333618165,
                "y": 1.9357869625091553,
                "z": -62.33507537841797
            },
            "rotation": {
                "x": 0.006953766103833914,
                "y": -0.697545051574707,
                "z": -0.006770039442926645,
                "w": -0.7164751887321472
            },
            "time": 3.2668418884277345
        },
        {
            "position": {
                "x": 18.58138656616211,
                "y": 1.9381495714187623,
                "z": -62.331817626953128
            },
            "rotation": {
                "x": 0.00665243761613965,
                "y": -0.6962964534759522,
                "z": -0.006454095710068941,
                "w": -0.7176945209503174
            },
            "time": 3.2871298789978029
        },
        {
            "position": {
                "x": 18.726409912109376,
                "y": 1.9408395290374756,
                "z": -62.32742691040039
            },
            "rotation": {
                "x": 0.006250567734241486,
                "y": -0.6944186687469482,
                "z": -0.0060325199738144878,
                "w": -0.719518780708313
            },
            "time": 3.3113155364990236
        },
        {
            "position": {
                "x": 18.831520080566408,
                "y": 1.942667007446289,
                "z": -62.323692321777347
            },
            "rotation": {
                "x": 0.005741800647228956,
                "y": -0.6925367712974548,
                "z": -0.005512539763003588,
                "w": -0.72133868932724
            },
            "time": 3.328847646713257
        },
        {
            "position": {
                "x": 19.006303787231447,
                "y": 1.9454519748687745,
                "z": -62.316566467285159
            },
            "rotation": {
                "x": 0.005230181850492954,
                "y": -0.6906497478485107,
                "z": -0.004995101131498814,
                "w": -0.723153293132782
            },
            "time": 3.358006238937378
        },
        {
            "position": {
                "x": 19.107553482055665,
                "y": 1.9469181299209595,
                "z": -62.31190872192383
            },
            "rotation": {
                "x": 0.004821328911930323,
                "y": -0.6887569427490234,
                "z": -0.004580549895763397,
                "w": -0.7249618768692017
            },
            "time": 3.374901056289673
        },
        {
            "position": {
                "x": 19.248275756835939,
                "y": 1.9487924575805665,
                "z": -62.30469512939453
            },
            "rotation": {
                "x": 0.00411865534260869,
                "y": -0.6820895671844482,
                "z": -0.0038417824544012548,
                "w": -0.7312469482421875
            },
            "time": 3.3983876705169679
        },
        {
            "position": {
                "x": 19.38248634338379,
                "y": 1.9503079652786255,
                "z": -62.29534912109375
            },
            "rotation": {
                "x": 0.003815035568550229,
                "y": -0.6788941025733948,
                "z": -0.0035275700502097608,
                "w": -0.7342178821563721
            },
            "time": 3.420811653137207
        },
        {
            "position": {
                "x": 19.535146713256837,
                "y": 1.9518992900848389,
                "z": -62.28337860107422
            },
            "rotation": {
                "x": 0.00308974739164114,
                "y": -0.6731098890304565,
                "z": -0.0028122421354055406,
                "w": -0.7395306825637817
            },
            "time": 3.4463346004486086
        },
        {
            "position": {
                "x": 19.647790908813478,
                "y": 1.9528447389602662,
                "z": -62.272762298583987
            },
            "rotation": {
                "x": 0.0026667353231459858,
                "y": -0.6708495616912842,
                "z": -0.0024123715702444317,
                "w": -0.741584837436676
            },
            "time": 3.4651923179626467
        },
        {
            "position": {
                "x": 19.794801712036134,
                "y": 1.9539073705673218,
                "z": -62.257999420166019
            },
            "rotation": {
                "x": 0.0022423695772886278,
                "y": -0.6682581305503845,
                "z": -0.002014295430853963,
                "w": -0.7439234852790833
            },
            "time": 3.4898178577423097
        },
        {
            "position": {
                "x": 19.94000244140625,
                "y": 1.9547877311706544,
                "z": -62.242393493652347
            },
            "rotation": {
                "x": 0.001705222763121128,
                "y": -0.6663095355033875,
                "z": -0.0015237350016832352,
                "w": -0.7456717491149902
            },
            "time": 3.514157772064209
        },
        {
            "position": {
                "x": 20.054746627807618,
                "y": 1.9553158283233643,
                "z": -62.229454040527347
            },
            "rotation": {
                "x": 0.001165703870356083,
                "y": -0.6643560528755188,
                "z": -0.0010361616732552648,
                "w": -0.7474146485328674
            },
            "time": 3.533403158187866
        },
        {
            "position": {
                "x": 20.215824127197267,
                "y": 1.9558217525482178,
                "z": -62.21043395996094
            },
            "rotation": {
                "x": 0.0006234683096408844,
                "y": -0.662397563457489,
                "z": -0.000551268458366394,
                "w": -0.7491520643234253
            },
            "time": 3.5604360103607179
        },
        {
            "position": {
                "x": 20.382909774780275,
                "y": 1.956071138381958,
                "z": -62.340816497802737
            },
            "rotation": {
                "x": -0.00003035569352505263,
                "y": -0.6594508290290833,
                "z": 0.00002662873339431826,
                "w": -0.7517476677894592
            },
            "time": 3.5854132175445558
        },
        {
            "position": {
                "x": 20.570436477661134,
                "y": 1.9560576677322388,
                "z": -62.48479461669922
            },
            "rotation": {
                "x": 0.0006916074198670685,
                "y": 0.6528652906417847,
                "z": -0.0005960954586043954,
                "w": 0.7574735283851624
            },
            "time": 3.6132760047912599
        },
        {
            "position": {
                "x": 20.68731117248535,
                "y": 1.9558699131011963,
                "z": -62.571327209472659
            },
            "rotation": {
                "x": 0.0008053848287090659,
                "y": 0.6488901376724243,
                "z": -0.000686843297444284,
                "w": 0.7608814239501953
            },
            "time": 3.6304140090942385
        },
        {
            "position": {
                "x": 20.87067413330078,
                "y": 1.9555310010910035,
                "z": -62.704139709472659
            },
            "rotation": {
                "x": 0.0013722695875912905,
                "y": 0.6398807168006897,
                "z": -0.0011426423443481327,
                "w": 0.7684721350669861
            },
            "time": 3.6570966243743898
        },
        {
            "position": {
                "x": 21.022825241088868,
                "y": 1.9550644159317017,
                "z": -62.80896759033203
            },
            "rotation": {
                "x": 0.002064978703856468,
                "y": 0.6297657489776611,
                "z": -0.0016741571016609669,
                "w": 0.7767806053161621
            },
            "time": 3.6788718700408937
        },
        {
            "position": {
                "x": 21.196739196777345,
                "y": 1.9542841911315919,
                "z": -62.92219543457031
            },
            "rotation": {
                "x": 0.0027831357438117267,
                "y": 0.615423858165741,
                "z": -0.002173094777390361,
                "w": 0.7881883978843689
            },
            "time": 3.703329086303711
        },
        {
            "position": {
                "x": 21.37346649169922,
                "y": 1.9532549381256104,
                "z": -63.02824401855469
            },
            "rotation": {
                "x": 0.0035258042626082899,
                "y": 0.5991296172142029,
                "z": -0.002638406353071332,
                "w": 0.8006399869918823
            },
            "time": 3.727619171142578
        },
        {
            "position": {
                "x": 21.56354522705078,
                "y": 1.951906442642212,
                "z": -63.13195037841797
            },
            "rotation": {
                "x": 0.004409395158290863,
                "y": 0.5818731784820557,
                "z": -0.003154838690534234,
                "w": 0.8132614493370056
            },
            "time": 3.7531378269195558
        },
        {
            "position": {
                "x": 21.756431579589845,
                "y": 1.9502586126327515,
                "z": -63.22672653198242
            },
            "rotation": {
                "x": 0.005186912138015032,
                "y": 0.5665102005004883,
                "z": -0.003565932856872678,
                "w": 0.8240307569503784
            },
            "time": 3.77846622467041
        },
        {
            "position": {
                "x": 21.959510803222658,
                "y": 1.9482795000076295,
                "z": -63.31721878051758
            },
            "rotation": {
                "x": 0.006234633736312389,
                "y": 0.5487597584724426,
                "z": -0.004092743620276451,
                "w": 0.8359469175338745
            },
            "time": 3.80466890335083
        },
        {
            "position": {
                "x": 22.166704177856447,
                "y": 1.9459295272827149,
                "z": -63.39912414550781
            },
            "rotation": {
                "x": 0.007029236294329166,
                "y": 0.5366628170013428,
                "z": -0.00447087874636054,
                "w": 0.8437557220458984
            },
            "time": 3.8309268951416017
        },
        {
            "position": {
                "x": 22.391782760620118,
                "y": 1.9431089162826539,
                "z": -63.480690002441409
            },
            "rotation": {
                "x": 0.007993727922439576,
                "y": 0.5184971690177918,
                "z": -0.004847470670938492,
                "w": 0.8550283312797546
            },
            "time": 3.859142780303955
        },
        {
            "position": {
                "x": 22.62119483947754,
                "y": 1.9399290084838868,
                "z": -63.552894592285159
            },
            "rotation": {
                "x": 0.008349521085619927,
                "y": 0.4997200071811676,
                "z": -0.004817298613488674,
                "w": 0.8661333918571472
            },
            "time": 3.8874893188476564
        },
        {
            "position": {
                "x": 22.86659049987793,
                "y": 1.9364659786224366,
                "z": -63.61851501464844
            },
            "rotation": {
                "x": 0.009517812170088292,
                "y": 0.4730309247970581,
                "z": -0.005110469181090593,
                "w": 0.880979597568512
            },
            "time": 3.917428493499756
        },
        {
            "position": {
                "x": 23.10134506225586,
                "y": 1.932806134223938,
                "z": -63.666160583496097
            },
            "rotation": {
                "x": 0.010848063044250012,
                "y": 0.4447278678417206,
                "z": -0.005386916920542717,
                "w": 0.8955838680267334
            },
            "time": 3.945662021636963
        },
        {
            "position": {
                "x": 23.358516693115236,
                "y": 1.9283593893051148,
                "z": -63.701499938964847
            },
            "rotation": {
                "x": 0.011854308657348156,
                "y": 0.40802544355392458,
                "z": -0.005298472009599209,
                "w": 0.9128782153129578
            },
            "time": 3.976259231567383
        },
        {
            "position": {
                "x": 23.624267578125,
                "y": 1.923471450805664,
                "z": -63.716243743896487
            },
            "rotation": {
                "x": 0.012107192538678646,
                "y": 0.3613176941871643,
                "z": -0.004691941663622856,
                "w": 0.9323524236679077
            },
            "time": 4.007631778717041
        },
        {
            "position": {
                "x": 23.8900089263916,
                "y": 1.9185861349105836,
                "z": -63.704063415527347
            },
            "rotation": {
                "x": 0.012894365936517716,
                "y": 0.310780793428421,
                "z": -0.00421652477234602,
                "w": 0.9503848552703857
            },
            "time": 4.03898811340332
        },
        {
            "position": {
                "x": 24.16461753845215,
                "y": 1.913254737854004,
                "z": -63.66168212890625
            },
            "rotation": {
                "x": 0.014485910534858704,
                "y": 0.2643989622592926,
                "z": -0.003971869591623545,
                "w": 0.9642964005470276
            },
            "time": 4.07174015045166
        },
        {
            "position": {
                "x": 24.466564178466798,
                "y": 1.9066342115402222,
                "z": -63.584598541259769
            },
            "rotation": {
                "x": 0.016935640946030618,
                "y": 0.21654358506202699,
                "z": -0.003757026046514511,
                "w": 0.9761188626289368
            },
            "time": 4.1084747314453129
        },
        {
            "position": {
                "x": 24.742822647094728,
                "y": 1.899422287940979,
                "z": -63.484230041503909
            },
            "rotation": {
                "x": 0.01823604293167591,
                "y": 0.17160764336585999,
                "z": -0.00317712826654315,
                "w": 0.9849914908409119
            },
            "time": 4.143124580383301
        },
        {
            "position": {
                "x": 24.996381759643556,
                "y": 1.8920842409133912,
                "z": -63.364837646484378
            },
            "rotation": {
                "x": 0.020115002989768983,
                "y": 0.11765215545892716,
                "z": -0.0023836202453821899,
                "w": 0.99284827709198
            },
            "time": 4.1761651039123539
        },
        {
            "position": {
                "x": 24.996381759643556,
                "y": 1.8920842409133912,
                "z": -63.364837646484378
            },
            "rotation": {
                "x": 0.0217838604003191,
                "y": 0.08075398206710816,
                "z": -0.0017653217073529959,
                "w": 0.996494472026825
            },
            "time": 4.211796760559082
        },
        {
            "position": {
                "x": 24.996381759643556,
                "y": 1.8920842409133912,
                "z": -63.364837646484378
            },
            "rotation": {
                "x": 0.022715449333190919,
                "y": 0.03285041078925133,
                "z": -0.0007468078983947635,
                "w": 0.9992018342018127
            },
            "time": 4.2484354972839359
        },
        {
            "position": {
                "x": 24.996381759643556,
                "y": 1.8920842409133912,
                "z": -63.364837646484378
            },
            "rotation": {
                "x": 0.02359952963888645,
                "y": -0.007275664247572422,
                "z": 0.00017175462562590837,
                "w": 0.9996950030326843
            },
            "time": 4.281203269958496
        },
        {
            "position": {
                "x": 24.996381759643556,
                "y": 1.8920842409133912,
                "z": -63.364837646484378
            },
            "rotation": {
                "x": -0.025314876809716226,
                "y": 0.04869464039802551,
                "z": -0.0012345603900030256,
                "w": -0.9984921216964722
            },
            "time": 4.320085048675537
        },
        {
            "position": {
                "x": 24.996381759643556,
                "y": 1.8920842409133912,
                "z": -63.364837646484378
            },
            "rotation": {
                "x": -0.02670910209417343,
                "y": 0.08176986873149872,
                "z": -0.0021921303123235704,
                "w": -0.996290922164917
            },
            "time": 4.356161117553711
        },
        {
            "position": {
                "x": 24.996381759643556,
                "y": 1.8920842409133912,
                "z": -63.364837646484378
            },
            "rotation": {
                "x": -0.027214229106903077,
                "y": 0.10998804867267609,
                "z": -0.00301265437155962,
                "w": -0.9935557246208191
            },
            "time": 4.391485214233398
        },
        {
            "position": {
                "x": 24.996381759643556,
                "y": 1.8920842409133912,
                "z": -63.364837646484378
            },
            "rotation": {
                "x": -0.02701026387512684,
                "y": 0.12817701697349549,
                "z": -0.0034922074992209675,
                "w": -0.9913772940635681
            },
            "time": 4.427345275878906
        },
        {
            "position": {
                "x": 24.996381759643556,
                "y": 1.8920842409133912,
                "z": -63.364837646484378
            },
            "rotation": {
                "x": -0.027010267600417138,
                "y": 0.12817701697349549,
                "z": -0.0034922079648822548,
                "w": -0.9913772940635681
            },
            "time": 4.463813781738281
        },
        {
            "position": {
                "x": 24.996381759643556,
                "y": 1.8920842409133912,
                "z": -63.364837646484378
            },
            "rotation": {
                "x": -0.027010269463062288,
                "y": 0.12817701697349549,
                "z": -0.0034922081977128984,
                "w": -0.9913772940635681
            },
            "time": 4.501017093658447
        },
        {
            "position": {
                "x": 24.996381759643556,
                "y": 1.8920842409133912,
                "z": -63.364837646484378
            },
            "rotation": {
                "x": -0.027010271325707437,
                "y": 0.12817701697349549,
                "z": -0.003492208430543542,
                "w": -0.9913772940635681
            },
            "time": 4.540274143218994
        }
    ]
}