%YAML 1.1
%TAG !u! tag:unity3d.com,2011:
--- !u!1045 &1
EditorBuildSettings:
  m_ObjectHideFlags: 0
  serializedVersion: 2
  m_Scenes:
  - enabled: 1
    path: Assets/Scenes/Inferture_intro.unity
    guid: 48725b3da14cbad43acc730a813e465d
  - enabled: 1
    path: Assets/Scenes/Map_Fusion.unity
    guid: e615be6e4d495fa478665e9c5e778023
  m_configObjects: {}
