{
    "transformations": [
        {
            "position": {
                "x": 29.587430953979493,
                "y": 1.7148438692092896,
                "z": -38.973777770996097
            },
            "rotation": {
                "x": 0.023419294506311418,
                "y": 0.3033546805381775,
                "z": -0.007458162494003773,
                "w": 0.9525607228279114
            },
            "time": 0.03359600156545639
        },
        {
            "position": {
                "x": 29.587430953979493,
                "y": 1.7148438692092896,
                "z": -38.973777770996097
            },
            "rotation": {
                "x": 0.023419294506311418,
                "y": 0.3033546805381775,
                "z": -0.007458162494003773,
                "w": 0.9525607228279114
            },
            "time": 0.06853680312633515
        },
        {
            "position": {
                "x": 29.587430953979493,
                "y": 1.7148438692092896,
                "z": -38.973777770996097
            },
            "rotation": {
                "x": 0.023419294506311418,
                "y": 0.3033546805381775,
                "z": -0.007458162494003773,
                "w": 0.9525607228279114
            },
            "time": 0.10004609823226929
        },
        {
            "position": {
                "x": 29.587430953979493,
                "y": 1.7148438692092896,
                "z": -38.973777770996097
            },
            "rotation": {
                "x": 0.023419294506311418,
                "y": 0.3033546805381775,
                "z": -0.007458162494003773,
                "w": 0.9525607228279114
            },
            "time": 0.1349940001964569
        },
        {
            "position": {
                "x": 29.68760871887207,
                "y": 1.7063206434249879,
                "z": -38.83244705200195
            },
            "rotation": {
                "x": 0.023419294506311418,
                "y": 0.3033546805381775,
                "z": -0.007458162494003773,
                "w": 0.9525607228279114
            },
            "time": 0.1639011949300766
        },
        {
            "position": {
                "x": 29.799283981323243,
                "y": 1.6968190670013428,
                "z": -38.67489242553711
            },
            "rotation": {
                "x": 0.023419294506311418,
                "y": 0.3033546805381775,
                "z": -0.007458162494003773,
                "w": 0.9525607228279114
            },
            "time": 0.19612659513950349
        },
        {
            "position": {
                "x": 29.940214157104493,
                "y": 1.6848284006118775,
                "z": -38.47606658935547
            },
            "rotation": {
                "x": 0.023419294506311418,
                "y": 0.3033546805381775,
                "z": -0.007458162494003773,
                "w": 0.9525607228279114
            },
            "time": 0.23679378628730775
        },
        {
            "position": {
                "x": 30.06317901611328,
                "y": 1.6743663549423218,
                "z": -38.30258560180664
            },
            "rotation": {
                "x": 0.023419294506311418,
                "y": 0.3033546805381775,
                "z": -0.007458162494003773,
                "w": 0.9525607228279114
            },
            "time": 0.27227649092674258
        },
        {
            "position": {
                "x": 30.176790237426759,
                "y": 1.6647001504898072,
                "z": -38.142303466796878
            },
            "rotation": {
                "x": 0.023422544822096826,
                "y": 0.3029390275478363,
                "z": -0.00744794262573123,
                "w": 0.952692985534668
            },
            "time": 0.30506008863449099
        },
        {
            "position": {
                "x": 30.311227798461915,
                "y": 1.6532478332519532,
                "z": -37.95228576660156
            },
            "rotation": {
                "x": 0.023511789739131929,
                "y": 0.29127734899520876,
                "z": -0.007161233574151993,
                "w": 0.9563229084014893
            },
            "time": 0.34390148520469668
        },
        {
            "position": {
                "x": 30.425539016723634,
                "y": 1.6431586742401124,
                "z": -37.782039642333987
            },
            "rotation": {
                "x": 0.0233475174754858,
                "y": 0.25435420870780947,
                "z": -0.006142407190054655,
                "w": 0.9668097496032715
            },
            "time": 0.37811967730522158
        },
        {
            "position": {
                "x": 30.525941848754884,
                "y": 1.6332988739013672,
                "z": -37.604427337646487
            },
            "rotation": {
                "x": 0.024046463891863824,
                "y": 0.20681990683078767,
                "z": -0.005084795877337456,
                "w": 0.9780703186988831
            },
            "time": 0.41216379404067995
        },
        {
            "position": {
                "x": 30.61635398864746,
                "y": 1.6223101615905762,
                "z": -37.40019989013672
            },
            "rotation": {
                "x": 0.0260328222066164,
                "y": 0.14801211655139924,
                "z": -0.0038974671624600889,
                "w": 0.9886351823806763
            },
            "time": 0.449432909488678
        },
        {
            "position": {
                "x": 30.685577392578126,
                "y": 1.6098535060882569,
                "z": -37.174198150634769
            },
            "rotation": {
                "x": 0.027935367077589036,
                "y": 0.09693178534507752,
                "z": -0.0027217187453061344,
                "w": 0.9948952198028565
            },
            "time": 0.488881915807724
        },
        {
            "position": {
                "x": 30.723617553710939,
                "y": 1.598777413368225,
                "z": -36.98082733154297
            },
            "rotation": {
                "x": 0.025392714887857438,
                "y": 0.06737904250621796,
                "z": -0.0017153919907286764,
                "w": 0.9974027872085571
            },
            "time": 0.5217800140380859
        },
        {
            "position": {
                "x": 30.752405166625978,
                "y": 1.5878716707229615,
                "z": -36.76872634887695
            },
            "rotation": {
                "x": 0.02804424613714218,
                "y": 0.04080831632018089,
                "z": -0.0011458448134362698,
                "w": 0.9987727403640747
            },
            "time": 0.5575005412101746
        },
        {
            "position": {
                "x": 30.766128540039064,
                "y": 1.5784178972244263,
                "z": -36.60107421875
            },
            "rotation": {
                "x": 0.030681950971484185,
                "y": 0.012904041446745396,
                "z": -0.00039614070556126535,
                "w": 0.9994458556175232
            },
            "time": 0.5855799317359924
        },
        {
            "position": {
                "x": 30.76873207092285,
                "y": 1.5722222328186036,
                "z": -36.50029373168945
            },
            "rotation": {
                "x": 0.03199274092912674,
                "y": -0.002796049928292632,
                "z": 0.00008949945186031982,
                "w": 0.9994842410087586
            },
            "time": 0.6024140119552612
        },
        {
            "position": {
                "x": 30.76766586303711,
                "y": 1.5600016117095948,
                "z": -36.309600830078128
            },
            "rotation": {
                "x": -0.031972188502550128,
                "y": 0.03593229129910469,
                "z": -0.00115016580093652,
                "w": -0.9988420605659485
            },
            "time": 0.6342619061470032
        },
        {
            "position": {
                "x": 30.755441665649415,
                "y": 1.549099087715149,
                "z": -36.13991165161133
            },
            "rotation": {
                "x": -0.031488824635744098,
                "y": 0.06554938852787018,
                "z": -0.002069557085633278,
                "w": -0.9973502159118652
            },
            "time": 0.6626749038696289
        },
        {
            "position": {
                "x": 30.728416442871095,
                "y": 1.5360475778579713,
                "z": -35.935203552246097
            },
            "rotation": {
                "x": -0.035753119736909869,
                "y": 0.09552832692861557,
                "z": -0.0034333625808358194,
                "w": -0.994778573513031
            },
            "time": 0.6971576809883118
        },
        {
            "position": {
                "x": 30.692258834838868,
                "y": 1.5223723649978638,
                "z": -35.74867630004883
            },
            "rotation": {
                "x": -0.03477597236633301,
                "y": 0.12370342761278153,
                "z": -0.004337911028414965,
                "w": -0.9917001724243164
            },
            "time": 0.728906512260437
        },
        {
            "position": {
                "x": 30.648107528686525,
                "y": 1.509751558303833,
                "z": -35.5744514465332
            },
            "rotation": {
                "x": -0.03550571948289871,
                "y": 0.15090937912464143,
                "z": -0.005423801951110363,
                "w": -0.9878948926925659
            },
            "time": 0.7589353919029236
        },
        {
            "position": {
                "x": 30.601274490356447,
                "y": 1.4984612464904786,
                "z": -35.424739837646487
            },
            "rotation": {
                "x": -0.034946758300065997,
                "y": 0.17285631597042085,
                "z": -0.006137072574347258,
                "w": -0.9843077659606934
            },
            "time": 0.7851471900939941
        },
        {
            "position": {
                "x": 30.530563354492189,
                "y": 1.4837058782577515,
                "z": -35.229618072509769
            },
            "rotation": {
                "x": -0.035554565489292148,
                "y": 0.20837588608264924,
                "z": -0.007580232806503773,
                "w": -0.977372944355011
            },
            "time": 0.81982421875
        },
        {
            "position": {
                "x": 30.448850631713868,
                "y": 1.469110369682312,
                "z": -35.046695709228519
            },
            "rotation": {
                "x": -0.03574522212147713,
                "y": 0.23642808198928834,
                "z": -0.008704005740582943,
                "w": -0.9709522724151611
            },
            "time": 0.8533034920692444
        },
        {
            "position": {
                "x": 30.39342498779297,
                "y": 1.4602216482162476,
                "z": -34.939632415771487
            },
            "rotation": {
                "x": -0.03428289294242859,
                "y": 0.25756511092185976,
                "z": -0.009144565090537072,
                "w": -0.9656093120574951
            },
            "time": 0.8734511137008667
        },
        {
            "position": {
                "x": 30.28347396850586,
                "y": 1.4445258378982545,
                "z": -34.74819564819336
            },
            "rotation": {
                "x": -0.03114367462694645,
                "y": 0.27859747409820559,
                "z": -0.009039387106895447,
                "w": -0.9598603248596191
            },
            "time": 0.9103382229804993
        },
        {
            "position": {
                "x": 30.201480865478517,
                "y": 1.434577465057373,
                "z": -34.61884689331055
            },
            "rotation": {
                "x": -0.025036731734871866,
                "y": 0.30866536498069765,
                "z": -0.008127807639539242,
                "w": -0.9508064389228821
            },
            "time": 0.9359162449836731
        },
        {
            "position": {
                "x": 30.092939376831056,
                "y": 1.4248387813568116,
                "z": -34.46929168701172
            },
            "rotation": {
                "x": -0.014889216981828213,
                "y": 0.34337514638900759,
                "z": -0.005444340407848358,
                "w": -0.9390645623207092
            },
            "time": 0.9667577743530273
        },
        {
            "position": {
                "x": 30.01662254333496,
                "y": 1.4210861921310425,
                "z": -34.37888717651367
            },
            "rotation": {
                "x": -0.013203099370002747,
                "y": 0.3523826599121094,
                "z": -0.004971995484083891,
                "w": -0.9357496500015259
            },
            "time": 0.9864859580993652
        },
        {
            "position": {
                "x": 29.88762092590332,
                "y": 1.4155662059783936,
                "z": -34.231895446777347
            },
            "rotation": {
                "x": -0.0127821434289217,
                "y": 0.3548332452774048,
                "z": -0.004851717501878738,
                "w": -0.9348296523094177
            },
            "time": 1.0190942287445069
        },
        {
            "position": {
                "x": 29.778894424438478,
                "y": 1.4110844135284424,
                "z": -34.10930633544922
            },
            "rotation": {
                "x": -0.012782144360244275,
                "y": 0.35483303666114809,
                "z": -0.0048517147079110149,
                "w": -0.9348297119140625
            },
            "time": 1.0464140176773072
        },
        {
            "position": {
                "x": 29.69837188720703,
                "y": 1.40776526927948,
                "z": -34.01852035522461
            },
            "rotation": {
                "x": -0.012782144360244275,
                "y": 0.35483303666114809,
                "z": -0.0048517147079110149,
                "w": -0.9348297119140625
            },
            "time": 1.0666468143463135
        },
        {
            "position": {
                "x": 29.57365608215332,
                "y": 1.4026243686676026,
                "z": -33.87790298461914
            },
            "rotation": {
                "x": -0.012782144360244275,
                "y": 0.35483303666114809,
                "z": -0.0048517147079110149,
                "w": -0.9348297119140625
            },
            "time": 1.0979844331741334
        },
        {
            "position": {
                "x": 29.495271682739259,
                "y": 1.3993933200836182,
                "z": -33.78952407836914
            },
            "rotation": {
                "x": -0.012782144360244275,
                "y": 0.35483303666114809,
                "z": -0.0048517147079110149,
                "w": -0.9348297119140625
            },
            "time": 1.1176800727844239
        },
        {
            "position": {
                "x": 29.38629913330078,
                "y": 1.3949013948440552,
                "z": -33.666656494140628
            },
            "rotation": {
                "x": -0.012782144360244275,
                "y": 0.35483303666114809,
                "z": -0.0048517147079110149,
                "w": -0.9348297119140625
            },
            "time": 1.145061731338501
        },
        {
            "position": {
                "x": 29.28386116027832,
                "y": 1.390678882598877,
                "z": -33.5511589050293
            },
            "rotation": {
                "x": -0.012782144360244275,
                "y": 0.35483303666114809,
                "z": -0.0048517147079110149,
                "w": -0.9348297119140625
            },
            "time": 1.1708012819290162
        },
        {
            "position": {
                "x": 29.198118209838868,
                "y": 1.3871444463729859,
                "z": -33.45448303222656
            },
            "rotation": {
                "x": -0.012782144360244275,
                "y": 0.35483303666114809,
                "z": -0.0048517147079110149,
                "w": -0.9348297119140625
            },
            "time": 1.1923460960388184
        },
        {
            "position": {
                "x": 29.091306686401368,
                "y": 1.3827415704727173,
                "z": -33.33405303955078
            },
            "rotation": {
                "x": -0.012782144360244275,
                "y": 0.35483303666114809,
                "z": -0.0048517147079110149,
                "w": -0.9348297119140625
            },
            "time": 1.2191847562789918
        },
        {
            "position": {
                "x": 28.977466583251954,
                "y": 1.3780490159988404,
                "z": -33.2056999206543
            },
            "rotation": {
                "x": -0.012782144360244275,
                "y": 0.35483303666114809,
                "z": -0.0048517147079110149,
                "w": -0.9348297119140625
            },
            "time": 1.2477895021438599
        },
        {
            "position": {
                "x": 28.87934112548828,
                "y": 1.3740042448043824,
                "z": -33.095062255859378
            },
            "rotation": {
                "x": -0.012782144360244275,
                "y": 0.35483303666114809,
                "z": -0.0048517147079110149,
                "w": -0.9348297119140625
            },
            "time": 1.2724456787109376
        },
        {
            "position": {
                "x": 28.751628875732423,
                "y": 1.3687398433685303,
                "z": -32.95106887817383
            },
            "rotation": {
                "x": -0.01237424649298191,
                "y": 0.3548351228237152,
                "z": -0.004696889314800501,
                "w": -0.9348351955413818
            },
            "time": 1.30453622341156
        },
        {
            "position": {
                "x": 28.636085510253908,
                "y": 1.3641291856765748,
                "z": -32.82079315185547
            },
            "rotation": {
                "x": -0.00992022268474102,
                "y": 0.3564774692058563,
                "z": -0.0037852392997592689,
                "w": -0.9342436194419861
            },
            "time": 1.3335680961608887
        },
        {
            "position": {
                "x": 28.562620162963868,
                "y": 1.3617868423461915,
                "z": -32.73854064941406
            },
            "rotation": {
                "x": -0.007061978802084923,
                "y": 0.3581174910068512,
                "z": -0.002708755200728774,
                "w": -0.9336459040641785
            },
            "time": 1.3519526720046998
        },
        {
            "position": {
                "x": 28.427143096923829,
                "y": 1.3587220907211304,
                "z": -32.58792495727539
            },
            "rotation": {
                "x": 0.000676674535498023,
                "y": 0.3642309010028839,
                "z": 0.00026464465190656483,
                "w": -0.931308388710022
            },
            "time": 1.385720133781433
        },
        {
            "position": {
                "x": 28.30548858642578,
                "y": 1.3589826822280884,
                "z": -32.45618438720703
            },
            "rotation": {
                "x": -0.004312132950872183,
                "y": -0.375981867313385,
                "z": -0.0017496836371719838,
                "w": 0.9266153573989868
            },
            "time": 1.4156066179275513
        },
        {
            "position": {
                "x": 28.2166748046875,
                "y": 1.3601690530776978,
                "z": -32.36476135253906
            },
            "rotation": {
                "x": -0.006305370479822159,
                "y": -0.38606229424476626,
                "z": -0.0026389211416244509,
                "w": 0.9224473834037781
            },
            "time": 1.436851143836975
        },
        {
            "position": {
                "x": 28.214120864868165,
                "y": 1.3635547161102296,
                "z": -32.01454162597656
            },
            "rotation": {
                "x": -0.009836659766733647,
                "y": -0.4056808352470398,
                "z": -0.004366254433989525,
                "w": 0.9139514565467835
            },
            "time": 1.4781280755996705
        },
        {
            "position": {
                "x": 28.20270538330078,
                "y": 1.3670324087142945,
                "z": -31.786340713500978
            },
            "rotation": {
                "x": -0.008936556056141854,
                "y": -0.42828792333602908,
                "z": -0.004235799890011549,
                "w": 0.9035882353782654
            },
            "time": 1.5050585269927979
        },
        {
            "position": {
                "x": 28.183677673339845,
                "y": 1.3697048425674439,
                "z": -31.596216201782228
            },
            "rotation": {
                "x": -0.010007848031818867,
                "y": -0.44867175817489626,
                "z": -0.005024737678468227,
                "w": 0.8936265110969544
            },
            "time": 1.5275790691375733
        },
        {
            "position": {
                "x": 28.14705467224121,
                "y": 1.3737165927886963,
                "z": -31.3455810546875
            },
            "rotation": {
                "x": -0.00599498488008976,
                "y": -0.4803699553012848,
                "z": -0.003283559111878276,
                "w": 0.87703937292099
            },
            "time": 1.55743408203125
        },
        {
            "position": {
                "x": 28.10638999938965,
                "y": 1.3755446672439576,
                "z": -31.16090202331543
            },
            "rotation": {
                "x": -0.0051735080778598789,
                "y": -0.4971211552619934,
                "z": -0.002964131301268935,
                "w": 0.867660641670227
            },
            "time": 1.5797210931777955
        },
        {
            "position": {
                "x": 28.055072784423829,
                "y": 1.3772592544555665,
                "z": -30.964149475097658
            },
            "rotation": {
                "x": -0.002108682645484805,
                "y": -0.5219060182571411,
                "z": -0.0012901934096589685,
                "w": 0.8529993891716003
            },
            "time": 1.6036851406097413
        },
        {
            "position": {
                "x": 27.999488830566408,
                "y": 1.3778908252716065,
                "z": -30.792264938354493
            },
            "rotation": {
                "x": -0.0013399237068369985,
                "y": -0.5458862781524658,
                "z": -0.0008729952969588339,
                "w": 0.8378577828407288
            },
            "time": 1.6249748468399048
        },
        {
            "position": {
                "x": 27.91908073425293,
                "y": 1.378394365310669,
                "z": -30.584640502929689
            },
            "rotation": {
                "x": 0.0040471525862813,
                "y": -0.5747882723808289,
                "z": 0.002842835383489728,
                "w": 0.8182872533798218
            },
            "time": 1.651214599609375
        },
        {
            "position": {
                "x": 27.808494567871095,
                "y": 1.3765755891799927,
                "z": -30.34930419921875
            },
            "rotation": {
                "x": -0.005391852464526892,
                "y": 0.5921448469161987,
                "z": -0.003962202928960323,
                "w": -0.8058037161827087
            },
            "time": 1.6818596124649048
        },
        {
            "position": {
                "x": 27.713205337524415,
                "y": 1.3746304512023926,
                "z": -30.167173385620118
            },
            "rotation": {
                "x": -0.007678358815610409,
                "y": 0.6157739162445068,
                "z": -0.006001214496791363,
                "w": -0.7878627181053162
            },
            "time": 1.7060850858688355
        },
        {
            "position": {
                "x": 27.60563850402832,
                "y": 1.371753215789795,
                "z": -29.988258361816408
            },
            "rotation": {
                "x": -0.010563305579125882,
                "y": 0.6348100304603577,
                "z": -0.008679976686835289,
                "w": -0.7725473046302795
            },
            "time": 1.7306901216506959
        },
        {
            "position": {
                "x": 27.523902893066408,
                "y": 1.3689128160476685,
                "z": -29.866207122802736
            },
            "rotation": {
                "x": -0.011725911870598793,
                "y": 0.6491755843162537,
                "z": -0.010009667836129666,
                "w": -0.7604823112487793
            },
            "time": 1.748004674911499
        },
        {
            "position": {
                "x": 27.544918060302736,
                "y": 1.3689128160476685,
                "z": -29.73396110534668
            },
            "rotation": {
                "x": -0.01177953276783228,
                "y": 0.6691799759864807,
                "z": -0.010610170662403107,
                "w": -0.7429313063621521
            },
            "time": 1.7703222036361695
        },
        {
            "position": {
                "x": 27.557754516601564,
                "y": 1.3689128160476685,
                "z": -29.611398696899415
            },
            "rotation": {
                "x": -0.009619113057851792,
                "y": 0.6868407130241394,
                "z": -0.009091665036976338,
                "w": -0.7266874313354492
            },
            "time": 1.7908611297607422
        },
        {
            "position": {
                "x": 27.56395149230957,
                "y": 1.3689128160476685,
                "z": -29.5015811920166
            },
            "rotation": {
                "x": -0.010078264400362969,
                "y": 0.6997218728065491,
                "z": -0.00987290870398283,
                "w": -0.7142760157585144
            },
            "time": 1.8091932535171509
        },
        {
            "position": {
                "x": 27.56739616394043,
                "y": 1.3689128160476685,
                "z": -29.334264755249025
            },
            "rotation": {
                "x": -0.012665404938161374,
                "y": 0.7277716398239136,
                "z": -0.013445032760500908,
                "w": -0.6855708360671997
            },
            "time": 1.8370853662490845
        },
        {
            "position": {
                "x": 27.560487747192384,
                "y": 1.3689128160476685,
                "z": -29.218685150146486
            },
            "rotation": {
                "x": -0.014684753492474556,
                "y": 0.7433774471282959,
                "z": -0.01632928103208542,
                "w": -0.6685116291046143
            },
            "time": 1.8563828468322755
        },
        {
            "position": {
                "x": 27.549331665039064,
                "y": 1.3689128160476685,
                "z": -29.113784790039064
            },
            "rotation": {
                "x": -0.015416115522384644,
                "y": 0.7594584226608276,
                "z": -0.018008721992373468,
                "w": -0.6501238942146301
            },
            "time": 1.873964786529541
        },
        {
            "position": {
                "x": 27.53226089477539,
                "y": 1.3689128160476685,
                "z": -29.004404067993165
            },
            "rotation": {
                "x": -0.01807081140577793,
                "y": 0.7807605266571045,
                "z": -0.022604748606681825,
                "w": -0.6241598129272461
            },
            "time": 1.8924156427383423
        },
        {
            "position": {
                "x": 27.506839752197267,
                "y": 1.3689128160476685,
                "z": -28.891794204711915
            },
            "rotation": {
                "x": -0.01846214383840561,
                "y": 0.7917703986167908,
                "z": -0.023960843682289125,
                "w": -0.6100693941116333
            },
            "time": 1.9116562604904175
        },
        {
            "position": {
                "x": 27.627676010131837,
                "y": 1.37920081615448,
                "z": -28.683982849121095
            },
            "rotation": {
                "x": -0.022562365978956224,
                "y": 0.8100560307502747,
                "z": -0.031237822026014329,
                "w": -0.5850849747657776
            },
            "time": 1.9400123357772828
        },
        {
            "position": {
                "x": 27.722902297973634,
                "y": 1.3908013105392457,
                "z": -28.4937744140625
            },
            "rotation": {
                "x": -0.026430057361721994,
                "y": 0.8208648562431336,
                "z": -0.03811337426304817,
                "w": -0.5692360401153565
            },
            "time": 1.9651182889938355
        },
        {
            "position": {
                "x": 27.78516387939453,
                "y": 1.4007147550582886,
                "z": -28.356237411499025
            },
            "rotation": {
                "x": -0.028815174475312234,
                "y": 0.828519880771637,
                "z": -0.042817372828722,
                "w": -0.5575761795043945
            },
            "time": 1.982949137687683
        },
        {
            "position": {
                "x": 27.858776092529298,
                "y": 1.4146404266357422,
                "z": -28.180490493774415
            },
            "rotation": {
                "x": -0.032602183520793918,
                "y": 0.8398398160934448,
                "z": -0.05075443908572197,
                "w": -0.539472222328186
            },
            "time": 2.0054643154144289
        },
        {
            "position": {
                "x": 27.918415069580079,
                "y": 1.4293874502182007,
                "z": -28.01857566833496
            },
            "rotation": {
                "x": -0.03317274898290634,
                "y": 0.8503368496894836,
                "z": -0.0539960078895092,
                "w": -0.522409200668335
            },
            "time": 2.0258736610412599
        },
        {
            "position": {
                "x": 27.964889526367189,
                "y": 1.442967176437378,
                "z": -27.87467384338379
            },
            "rotation": {
                "x": -0.033477265387773517,
                "y": 0.8558885455131531,
                "z": -0.05584854632616043,
                "w": -0.5130448341369629
            },
            "time": 2.043766736984253
        },
        {
            "position": {
                "x": 28.013742446899415,
                "y": 1.4587146043777466,
                "z": -27.711166381835939
            },
            "rotation": {
                "x": -0.033685654401779178,
                "y": 0.8637164831161499,
                "z": -0.05825197696685791,
                "w": -0.4994654953479767
            },
            "time": 2.0639634132385256
        },
        {
            "position": {
                "x": 28.053369522094728,
                "y": 1.4734922647476197,
                "z": -27.561382293701173
            },
            "rotation": {
                "x": -0.03392966464161873,
                "y": 0.8687957525253296,
                "z": -0.06011795997619629,
                "w": -0.4903351366519928
            },
            "time": 2.082305908203125
        },
        {
            "position": {
                "x": 28.09065818786621,
                "y": 1.4890048503875733,
                "z": -27.40730857849121
            },
            "rotation": {
                "x": -0.033245477825403216,
                "y": 0.8743024468421936,
                "z": -0.060499001294374469,
                "w": -0.4804476201534271
            },
            "time": 2.101077079772949
        },
        {
            "position": {
                "x": 28.122291564941408,
                "y": 1.5035301446914673,
                "z": -27.262287139892579
            },
            "rotation": {
                "x": -0.03240835666656494,
                "y": 0.8776879906654358,
                "z": -0.05996371805667877,
                "w": -0.4743605852127075
            },
            "time": 2.1186535358428957
        },
        {
            "position": {
                "x": 28.160377502441408,
                "y": 1.521968126296997,
                "z": -27.075292587280275
            },
            "rotation": {
                "x": -0.03109489567577839,
                "y": 0.8816941380500794,
                "z": -0.05869157239794731,
                "w": -0.46712303161621096
            },
            "time": 2.1412482261657717
        },
        {
            "position": {
                "x": 28.197294235229493,
                "y": 1.5409035682678223,
                "z": -26.877565383911134
            },
            "rotation": {
                "x": -0.030104860663414,
                "y": 0.8832180500030518,
                "z": -0.057244863361120227,
                "w": -0.4644811153411865
            },
            "time": 2.165058135986328
        },
        {
            "position": {
                "x": 28.232297897338868,
                "y": 1.558953881263733,
                "z": -26.683773040771486
            },
            "rotation": {
                "x": -0.028495468199253084,
                "y": 0.8850050568580627,
                "z": -0.05464676767587662,
                "w": -0.461484432220459
            },
            "time": 2.188363552093506
        },
        {
            "position": {
                "x": 28.268354415893556,
                "y": 1.5773389339447022,
                "z": -26.47634506225586
            },
            "rotation": {
                "x": -0.025904040783643724,
                "y": 0.8868849277496338,
                "z": -0.05010288953781128,
                "w": -0.45853450894355776
            },
            "time": 2.2132701873779299
        },
        {
            "position": {
                "x": 28.1767578125,
                "y": 1.5773389339447022,
                "z": -26.347078323364259
            },
            "rotation": {
                "x": -0.02180282026529312,
                "y": 0.8904507756233215,
                "z": -0.042901962995529178,
                "w": -0.4525279700756073
            },
            "time": 2.2396750450134279
        },
        {
            "position": {
                "x": 28.094966888427736,
                "y": 1.5773389339447022,
                "z": -26.23499870300293
            },
            "rotation": {
                "x": -0.01735161803662777,
                "y": 0.894723117351532,
                "z": -0.03489384055137634,
                "w": -0.4449178874492645
            },
            "time": 2.2628002166748049
        },
        {
            "position": {
                "x": 28.018245697021486,
                "y": 1.5773389339447022,
                "z": -26.133630752563478
            },
            "rotation": {
                "x": -0.014517788775265217,
                "y": 0.8966602087020874,
                "z": -0.029484909027814866,
                "w": -0.4414978325366974
            },
            "time": 2.2839882373809816
        },
        {
            "position": {
                "x": 27.917715072631837,
                "y": 1.5773389339447022,
                "z": -26.002948760986329
            },
            "rotation": {
                "x": -0.01296507939696312,
                "y": 0.896950364112854,
                "z": -0.026360465213656427,
                "w": -0.4411543011665344
            },
            "time": 2.3114676475524904
        },
        {
            "position": {
                "x": 27.846927642822267,
                "y": 1.5773389339447022,
                "z": -25.911096572875978
            },
            "rotation": {
                "x": -0.012013246305286885,
                "y": 0.896813154220581,
                "z": -0.024398323148489,
                "w": -0.4415728747844696
            },
            "time": 2.3307950496673586
        },
        {
            "position": {
                "x": 27.846927642822267,
                "y": 1.5773389339447022,
                "z": -25.911096572875978
            },
            "rotation": {
                "x": -0.01068338192999363,
                "y": 0.8964977860450745,
                "z": -0.021649742498993875,
                "w": -0.44238993525505068
            },
            "time": 2.357651472091675
        },
        {
            "position": {
                "x": 27.846927642822267,
                "y": 1.5773389339447022,
                "z": -25.911096572875978
            },
            "rotation": {
                "x": -0.010499627329409123,
                "y": 0.8963140845298767,
                "z": -0.02125399373471737,
                "w": -0.4427856504917145
            },
            "time": 2.386038303375244
        }
    ]
}