{
    "transformations": [
        {
            "position": {
                "x": 64.20409393310547,
                "y": 2.0827348232269289,
                "z": -5.722409248352051
            },
            "rotation": {
                "x": 0.0056802574545145039,
                "y": -0.591498613357544,
                "z": -0.004167142789810896,
                "w": -0.8062753081321716
            },
            "time": 0.01667110063135624
        },
        {
            "position": {
                "x": 64.20409393310547,
                "y": 2.0827348232269289,
                "z": -5.722409248352051
            },
            "rotation": {
                "x": 0.0056802574545145039,
                "y": -0.591498613357544,
                "z": -0.004167142789810896,
                "w": -0.8062753081321716
            },
            "time": 0.03397440165281296
        },
        {
            "position": {
                "x": 64.20409393310547,
                "y": 2.0827348232269289,
                "z": -5.722409248352051
            },
            "rotation": {
                "x": 0.0056802574545145039,
                "y": -0.591498613357544,
                "z": -0.004167142789810896,
                "w": -0.8062753081321716
            },
            "time": 0.050644002854824069
        },
        {
            "position": {
                "x": 64.20409393310547,
                "y": 2.0827348232269289,
                "z": -5.722409248352051
            },
            "rotation": {
                "x": 0.0056802574545145039,
                "y": -0.591498613357544,
                "z": -0.004167142789810896,
                "w": -0.8062753081321716
            },
            "time": 0.0673167034983635
        },
        {
            "position": {
                "x": 64.20409393310547,
                "y": 2.0827348232269289,
                "z": -5.722409248352051
            },
            "rotation": {
                "x": 0.0056802574545145039,
                "y": -0.591498613357544,
                "z": -0.004167142789810896,
                "w": -0.8062753081321716
            },
            "time": 0.08398370444774628
        },
        {
            "position": {
                "x": 64.20409393310547,
                "y": 2.0827348232269289,
                "z": -5.722409248352051
            },
            "rotation": {
                "x": 0.0056802574545145039,
                "y": -0.591498613357544,
                "z": -0.004167142789810896,
                "w": -0.8062753081321716
            },
            "time": 0.10123350471258164
        },
        {
            "position": {
                "x": 64.20409393310547,
                "y": 2.0827348232269289,
                "z": -5.722409248352051
            },
            "rotation": {
                "x": 0.0056802574545145039,
                "y": -0.591498613357544,
                "z": -0.004167142789810896,
                "w": -0.8062753081321716
            },
            "time": 0.11821530759334564
        },
        {
            "position": {
                "x": 64.20409393310547,
                "y": 2.0827348232269289,
                "z": -5.722409248352051
            },
            "rotation": {
                "x": 0.0056802574545145039,
                "y": -0.591498613357544,
                "z": -0.004167142789810896,
                "w": -0.8062753081321716
            },
            "time": 0.13488450646400453
        },
        {
            "position": {
                "x": 64.20409393310547,
                "y": 2.0827348232269289,
                "z": -5.722409248352051
            },
            "rotation": {
                "x": 0.0056802574545145039,
                "y": -0.591498613357544,
                "z": -0.004167142789810896,
                "w": -0.8062753081321716
            },
            "time": 0.15154831111431123
        },
        {
            "position": {
                "x": 64.20409393310547,
                "y": 2.0827348232269289,
                "z": -5.722409248352051
            },
            "rotation": {
                "x": 0.0056802574545145039,
                "y": -0.591498613357544,
                "z": -0.004167142789810896,
                "w": -0.8062753081321716
            },
            "time": 0.16821600496768952
        },
        {
            "position": {
                "x": 64.20409393310547,
                "y": 2.0827348232269289,
                "z": -5.722409248352051
            },
            "rotation": {
                "x": 0.005382169503718615,
                "y": -0.5908977389335632,
                "z": -0.003942279610782862,
                "w": -0.8067189455032349
            },
            "time": 0.18494060635566712
        },
        {
            "position": {
                "x": 64.20409393310547,
                "y": 2.0827348232269289,
                "z": -5.722409248352051
            },
            "rotation": {
                "x": 0.0032854783348739149,
                "y": -0.5866798758506775,
                "z": -0.002380221150815487,
                "w": -0.8098087906837463
            },
            "time": 0.20160721242427827
        },
        {
            "position": {
                "x": 64.20409393310547,
                "y": 2.0827348232269289,
                "z": -5.722409248352051
            },
            "rotation": {
                "x": 0.0011745149968191982,
                "y": -0.5806189775466919,
                "z": -0.0008375918841920793,
                "w": -0.8141741752624512
            },
            "time": 0.21827411651611329
        },
        {
            "position": {
                "x": 64.20409393310547,
                "y": 2.0827348232269289,
                "z": -5.722409248352051
            },
            "rotation": {
                "x": 0.00026458894717507064,
                "y": -0.5708479881286621,
                "z": -0.00018395834194961935,
                "w": -0.8210557699203491
            },
            "time": 0.23540282249450684
        },
        {
            "position": {
                "x": 64.20409393310547,
                "y": 2.0827348232269289,
                "z": -5.722409248352051
            },
            "rotation": {
                "x": -0.0019094854360446334,
                "y": -0.5532399415969849,
                "z": 0.0012681629741564394,
                "w": -0.8330187797546387
            },
            "time": 0.2523476183414459
        },
        {
            "position": {
                "x": 64.20409393310547,
                "y": 2.0827348232269289,
                "z": -5.722409248352051
            },
            "rotation": {
                "x": 0.003815921489149332,
                "y": 0.5397872924804688,
                "z": -0.002446914091706276,
                "w": 0.8417892456054688
            },
            "time": 0.26901450753211977
        },
        {
            "position": {
                "x": 64.20409393310547,
                "y": 2.0827348232269289,
                "z": -5.722409248352051
            },
            "rotation": {
                "x": 0.006714482791721821,
                "y": 0.5258711576461792,
                "z": -0.004151484463363886,
                "w": 0.8505277037620544
            },
            "time": 0.2857983112335205
        },
        {
            "position": {
                "x": 64.20409393310547,
                "y": 2.0827348232269289,
                "z": -5.722409248352051
            },
            "rotation": {
                "x": 0.009996728040277958,
                "y": 0.5108428001403809,
                "z": -0.0059408824890851978,
                "w": 0.859595537185669
            },
            "time": 0.30281952023506167
        },
        {
            "position": {
                "x": 64.20409393310547,
                "y": 2.0827348232269289,
                "z": -5.722409248352051
            },
            "rotation": {
                "x": 0.009464861825108529,
                "y": 0.4934083819389343,
                "z": -0.0053695328533649448,
                "w": 0.8697296977043152
            },
            "time": 0.3197506070137024
        },
        {
            "position": {
                "x": 64.20409393310547,
                "y": 2.0827348232269289,
                "z": -5.722409248352051
            },
            "rotation": {
                "x": 0.008934012614190579,
                "y": 0.47215554118156435,
                "z": -0.004785535391420126,
                "w": 0.8814570307731628
            },
            "time": 0.3364163935184479
        },
        {
            "position": {
                "x": 64.20409393310547,
                "y": 2.0827348232269289,
                "z": -5.722409248352051
            },
            "rotation": {
                "x": 0.011394034139811993,
                "y": 0.44860565662384035,
                "z": -0.005719791632145643,
                "w": 0.8936388492584229
            },
            "time": 0.3530835807323456
        },
        {
            "position": {
                "x": 64.20409393310547,
                "y": 2.0827348232269289,
                "z": -5.722409248352051
            },
            "rotation": {
                "x": 0.01025965716689825,
                "y": 0.41119202971458437,
                "z": -0.004628398455679417,
                "w": 0.9114792346954346
            },
            "time": 0.3697509765625
        },
        {
            "position": {
                "x": 64.20409393310547,
                "y": 2.0827348232269289,
                "z": -5.722409248352051
            },
            "rotation": {
                "x": 0.010396568104624749,
                "y": 0.3830898106098175,
                "z": -0.004312078468501568,
                "w": 0.9236425757408142
            },
            "time": 0.38673028349876406
        },
        {
            "position": {
                "x": 64.20409393310547,
                "y": 2.0827348232269289,
                "z": -5.722409248352051
            },
            "rotation": {
                "x": 0.012271318584680558,
                "y": 0.3542709946632385,
                "z": -0.004649343900382519,
                "w": 0.9350507259368897
            },
            "time": 0.40368029475212099
        },
        {
            "position": {
                "x": 64.20409393310547,
                "y": 2.0827348232269289,
                "z": -5.722409248352051
            },
            "rotation": {
                "x": 0.014627917669713498,
                "y": 0.3056204319000244,
                "z": -0.004695852752774954,
                "w": 0.9520295262336731
            },
            "time": 0.4206078052520752
        },
        {
            "position": {
                "x": 64.20409393310547,
                "y": 2.0827348232269289,
                "z": -5.722409248352051
            },
            "rotation": {
                "x": 0.013991495594382286,
                "y": 0.2892237603664398,
                "z": -0.004227836150676012,
                "w": 0.9571499824523926
            },
            "time": 0.4375261962413788
        },
        {
            "position": {
                "x": 64.20409393310547,
                "y": 2.0827348232269289,
                "z": -5.722409248352051
            },
            "rotation": {
                "x": 0.013111441396176815,
                "y": 0.2369958609342575,
                "z": -0.003198788734152913,
                "w": 0.9714169502258301
            },
            "time": 0.4545707106590271
        },
        {
            "position": {
                "x": 64.20409393310547,
                "y": 2.0827348232269289,
                "z": -5.722409248352051
            },
            "rotation": {
                "x": 0.012120459228754044,
                "y": 0.2020253837108612,
                "z": -0.002500393195077777,
                "w": 0.9793021082878113
            },
            "time": 0.47123631834983828
        },
        {
            "position": {
                "x": 64.20409393310547,
                "y": 2.0827348232269289,
                "z": -5.722409248352051
            },
            "rotation": {
                "x": 0.011097656562924385,
                "y": 0.16679403185844422,
                "z": -0.0018774430500343443,
                "w": 0.9859275817871094
            },
            "time": 0.4887921214103699
        },
        {
            "position": {
                "x": 64.20409393310547,
                "y": 2.0827348232269289,
                "z": -5.722409248352051
            },
            "rotation": {
                "x": 0.00819485355168581,
                "y": 0.13246002793312074,
                "z": -0.001095178653486073,
                "w": 0.99115389585495
            },
            "time": 0.5057622194290161
        },
        {
            "position": {
                "x": 64.20409393310547,
                "y": 2.0827348232269289,
                "z": -5.722409248352051
            },
            "rotation": {
                "x": 0.007122168783098459,
                "y": 0.08382953703403473,
                "z": -0.0005991725483909249,
                "w": 0.9964544773101807
            },
            "time": 0.5230311155319214
        },
        {
            "position": {
                "x": 64.20409393310547,
                "y": 2.0827348232269289,
                "z": -5.722409248352051
            },
            "rotation": {
                "x": 0.010119987651705742,
                "y": 0.054396215826272967,
                "z": -0.0005513336509466171,
                "w": 0.9984680414199829
            },
            "time": 0.5396978259086609
        },
        {
            "position": {
                "x": 64.20409393310547,
                "y": 2.0827348232269289,
                "z": -5.722409248352051
            },
            "rotation": {
                "x": 0.01013104896992445,
                "y": 0.027904298156499864,
                "z": -0.00028282447601668537,
                "w": 0.999559223651886
            },
            "time": 0.5563663244247437
        },
        {
            "position": {
                "x": 64.20409393310547,
                "y": 2.0827348232269289,
                "z": -5.722409248352051
            },
            "rotation": {
                "x": 0.00976152066141367,
                "y": 0.0021396707743406297,
                "z": -0.000020887484424747527,
                "w": 0.999950110912323
            },
            "time": 0.5730386972427368
        },
        {
            "position": {
                "x": 64.20409393310547,
                "y": 2.0827348232269289,
                "z": -5.722409248352051
            },
            "rotation": {
                "x": 0.011250166222453118,
                "y": -0.030345726758241655,
                "z": 0.0003415734099689871,
                "w": 0.9994761347770691
            },
            "time": 0.5900691747665405
        },
        {
            "position": {
                "x": 64.20409393310547,
                "y": 2.0827348232269289,
                "z": -5.722409248352051
            },
            "rotation": {
                "x": -0.012360364198684693,
                "y": 0.049748532474040988,
                "z": -0.0006157195894047618,
                "w": -0.9986851215362549
            },
            "time": 0.6067311763763428
        },
        {
            "position": {
                "x": 64.20409393310547,
                "y": 2.0827348232269289,
                "z": -5.722409248352051
            },
            "rotation": {
                "x": -0.012727148830890656,
                "y": 0.05869770050048828,
                "z": -0.0007484056986868382,
                "w": -0.9981943964958191
            },
            "time": 0.6234030723571777
        },
        {
            "position": {
                "x": 64.20409393310547,
                "y": 2.0827348232269289,
                "z": -5.722409248352051
            },
            "rotation": {
                "x": -0.013821692205965519,
                "y": 0.08290873467922211,
                "z": -0.0011500093387439848,
                "w": -0.9964606761932373
            },
            "time": 0.6400668621063232
        },
        {
            "position": {
                "x": 64.20409393310547,
                "y": 2.0827348232269289,
                "z": -5.722409248352051
            },
            "rotation": {
                "x": -0.01343328133225441,
                "y": 0.09629888832569123,
                "z": -0.0012997696176171303,
                "w": -0.995261013507843
            },
            "time": 0.6568070650100708
        },
        {
            "position": {
                "x": 64.20409393310547,
                "y": 2.0827348232269289,
                "z": -5.722409248352051
            },
            "rotation": {
                "x": -0.013044479303061962,
                "y": 0.10892908275127411,
                "z": -0.0014295534929260612,
                "w": -0.9939629435539246
            },
            "time": 0.6737976670265198
        },
        {
            "position": {
                "x": 64.20409393310547,
                "y": 2.0827348232269289,
                "z": -5.722409248352051
            },
            "rotation": {
                "x": -0.01302527729421854,
                "y": 0.12154123187065125,
                "z": -0.0015950718661770225,
                "w": -0.9924996495246887
            },
            "time": 0.6910003423690796
        },
        {
            "position": {
                "x": 64.20409393310547,
                "y": 2.0827348232269289,
                "z": -5.722409248352051
            },
            "rotation": {
                "x": -0.014470710419118405,
                "y": 0.14078891277313233,
                "z": -0.0020580363925546409,
                "w": -0.9899317622184753
            },
            "time": 0.7077173590660095
        },
        {
            "position": {
                "x": 64.20409393310547,
                "y": 2.0827348232269289,
                "z": -5.722409248352051
            },
            "rotation": {
                "x": -0.014076024293899536,
                "y": 0.15261028707027436,
                "z": -0.0021738323848694565,
                "w": -0.988183856010437
            },
            "time": 0.724636971950531
        },
        {
            "position": {
                "x": 64.16526794433594,
                "y": 2.0790672302246095,
                "z": -5.59969425201416
            },
            "rotation": {
                "x": -0.014771701768040657,
                "y": 0.16992995142936707,
                "z": -0.002547495299950242,
                "w": -0.9853421449661255
            },
            "time": 0.7460975646972656
        },
        {
            "position": {
                "x": 64.13102722167969,
                "y": 2.0760011672973635,
                "z": -5.503365516662598
            },
            "rotation": {
                "x": -0.015477817505598069,
                "y": 0.18058957159519196,
                "z": -0.002842220477759838,
                "w": -0.9834326505661011
            },
            "time": 0.7631442546844482
        },
        {
            "position": {
                "x": 64.09550476074219,
                "y": 2.0728533267974855,
                "z": -5.409912109375
            },
            "rotation": {
                "x": -0.01727624610066414,
                "y": 0.1919570416212082,
                "z": -0.0033796813804656269,
                "w": -0.9812454581260681
            },
            "time": 0.779815137386322
        },
        {
            "position": {
                "x": 64.057373046875,
                "y": 2.069288730621338,
                "z": -5.316172122955322
            },
            "rotation": {
                "x": -0.018328513950109483,
                "y": 0.20439685881137849,
                "z": -0.003827787935733795,
                "w": -0.9787090420722961
            },
            "time": 0.7966923117637634
        },
        {
            "position": {
                "x": 64.01737976074219,
                "y": 2.065544843673706,
                "z": -5.224598407745361
            },
            "rotation": {
                "x": -0.019005892798304559,
                "y": 0.2171694040298462,
                "z": -0.004229255486279726,
                "w": -0.9759397506713867
            },
            "time": 0.8133583068847656
        },
        {
            "position": {
                "x": 63.974979400634769,
                "y": 2.0616490840911867,
                "z": -5.134047031402588
            },
            "rotation": {
                "x": -0.0196792371571064,
                "y": 0.22917747497558595,
                "z": -0.0046343556605279449,
                "w": -0.9731746912002564
            },
            "time": 0.8300353288650513
        },
        {
            "position": {
                "x": 63.92974090576172,
                "y": 2.0575473308563234,
                "z": -5.043320655822754
            },
            "rotation": {
                "x": -0.021782612428069116,
                "y": 0.24331554770469666,
                "z": -0.005465730093419552,
                "w": -0.9696871638298035
            },
            "time": 0.8469458222389221
        },
        {
            "position": {
                "x": 63.882572174072269,
                "y": 2.053056478500366,
                "z": -4.955247402191162
            },
            "rotation": {
                "x": -0.02281002700328827,
                "y": 0.2530747354030609,
                "z": -0.005968655459582806,
                "w": -0.9671593904495239
            },
            "time": 0.8636141419410706
        },
        {
            "position": {
                "x": 63.82799530029297,
                "y": 2.047797679901123,
                "z": -4.8581037521362309
            },
            "rotation": {
                "x": -0.0223678145557642,
                "y": 0.26605716347694399,
                "z": -0.006175421178340912,
                "w": -0.9636779427528381
            },
            "time": 0.8822055459022522
        },
        {
            "position": {
                "x": 63.77674102783203,
                "y": 2.0431575775146486,
                "z": -4.772352695465088
            },
            "rotation": {
                "x": -0.022325795143842698,
                "y": 0.27252957224845889,
                "z": -0.006325652357190847,
                "w": -0.9618675708770752
            },
            "time": 0.8988738656044006
        },
        {
            "position": {
                "x": 63.723995208740237,
                "y": 2.038486957550049,
                "z": -4.686741352081299
            },
            "rotation": {
                "x": -0.022290010005235673,
                "y": 0.27791357040405276,
                "z": -0.0064506190828979019,
                "w": -0.9603257775306702
            },
            "time": 0.9156513810157776
        },
        {
            "position": {
                "x": 63.6655158996582,
                "y": 2.0334012508392336,
                "z": -4.594168663024902
            },
            "rotation": {
                "x": -0.02225842885673046,
                "y": 0.28257280588150027,
                "z": -0.006558764260262251,
                "w": -0.9589651823043823
            },
            "time": 0.9339203834533691
        },
        {
            "position": {
                "x": 63.60966110229492,
                "y": 2.0286169052124025,
                "z": -4.507618427276611
            },
            "rotation": {
                "x": -0.02151346579194069,
                "y": 0.2868725061416626,
                "z": -0.006444175262004137,
                "w": -0.9577054977416992
            },
            "time": 0.9511070847511292
        },
        {
            "position": {
                "x": 63.554683685302737,
                "y": 2.0241219997406008,
                "z": -4.424086093902588
            },
            "rotation": {
                "x": -0.02076525054872036,
                "y": 0.2918809950351715,
                "z": -0.006338557694107294,
                "w": -0.9562082290649414
            },
            "time": 0.9677906036376953
        },
        {
            "position": {
                "x": 63.49172592163086,
                "y": 2.01922345161438,
                "z": -4.330569267272949
            },
            "rotation": {
                "x": -0.018924713134765626,
                "y": 0.3008078634738922,
                "z": -0.005970458034425974,
                "w": -0.9534782767295837
            },
            "time": 0.9865974187850952
        },
        {
            "position": {
                "x": 63.421810150146487,
                "y": 2.0143849849700929,
                "z": -4.230788707733154
            },
            "rotation": {
                "x": -0.015645835548639299,
                "y": 0.3146825134754181,
                "z": -0.0051877680234611038,
                "w": -0.9490538835525513
            },
            "time": 1.0069198608398438
        },
        {
            "position": {
                "x": 63.361881256103519,
                "y": 2.0110769271850588,
                "z": -4.150354862213135
            },
            "rotation": {
                "x": -0.013106489554047585,
                "y": 0.3270738422870636,
                "z": -0.004536780063062906,
                "w": -0.9448969960212708
            },
            "time": 1.023646354675293
        },
        {
            "position": {
                "x": 63.30007553100586,
                "y": 2.008302927017212,
                "z": -4.071775913238525
            },
            "rotation": {
                "x": -0.009881941601634026,
                "y": 0.34011298418045046,
                "z": -0.0035742679610848428,
                "w": -0.9403258562088013
            },
            "time": 1.0403149127960206
        },
        {
            "position": {
                "x": 63.226524353027347,
                "y": 2.0058860778808595,
                "z": -3.9834039211273195
            },
            "rotation": {
                "x": -0.007739557884633541,
                "y": 0.3516833782196045,
                "z": -0.0029077285435050728,
                "w": -0.9360825419425964
            },
            "time": 1.0594816207885743
        },
        {
            "position": {
                "x": 63.15967559814453,
                "y": 2.004207134246826,
                "z": -3.906996488571167
            },
            "rotation": {
                "x": -0.004905729088932276,
                "y": 0.36980271339416506,
                "z": -0.0019526004325598479,
                "w": -0.9290953278541565
            },
            "time": 1.0764042139053345
        },
        {
            "position": {
                "x": 63.08946990966797,
                "y": 2.0031282901763918,
                "z": -3.832775831222534
            },
            "rotation": {
                "x": -0.0034991567954421045,
                "y": 0.3819180727005005,
                "z": -0.001446015783585608,
                "w": -0.924188494682312
            },
            "time": 1.0934325456619263
        },
        {
            "position": {
                "x": 63.01575469970703,
                "y": 2.0023374557495119,
                "z": -3.758816719055176
            },
            "rotation": {
                "x": -0.003486606990918517,
                "y": 0.3898424208164215,
                "z": -0.0014760190388187767,
                "w": -0.9208738207817078
            },
            "time": 1.1108366250991822
        },
        {
            "position": {
                "x": 62.93040084838867,
                "y": 2.001437187194824,
                "z": -3.676074266433716
            },
            "rotation": {
                "x": -0.0045140692964196209,
                "y": 0.3919031023979187,
                "z": -0.0019229244207963348,
                "w": -0.9199934005737305
            },
            "time": 1.1306498050689698
        },
        {
            "position": {
                "x": 62.857173919677737,
                "y": 2.0004405975341799,
                "z": -3.605720043182373
            },
            "rotation": {
                "x": -0.0045140692964196209,
                "y": 0.3919031023979187,
                "z": -0.0019229244207963348,
                "w": -0.9199934005737305
            },
            "time": 1.1475752592086793
        },
        {
            "position": {
                "x": 62.77848815917969,
                "y": 1.999369740486145,
                "z": -3.530120849609375
            },
            "rotation": {
                "x": -0.0045140692964196209,
                "y": 0.3919031023979187,
                "z": -0.0019229244207963348,
                "w": -0.9199934005737305
            },
            "time": 1.1657625436782838
        },
        {
            "position": {
                "x": 62.700897216796878,
                "y": 1.9983137845993043,
                "z": -3.455576181411743
            },
            "rotation": {
                "x": -0.0045140692964196209,
                "y": 0.3919031023979187,
                "z": -0.0019229244207963348,
                "w": -0.9199934005737305
            },
            "time": 1.1836961507797242
        },
        {
            "position": {
                "x": 62.616455078125,
                "y": 1.9971646070480347,
                "z": -3.3744473457336427
            },
            "rotation": {
                "x": -0.0045140692964196209,
                "y": 0.3919031023979187,
                "z": -0.0019229244207963348,
                "w": -0.9199934005737305
            },
            "time": 1.2032136917114258
        },
        {
            "position": {
                "x": 62.51839828491211,
                "y": 1.9958301782608033,
                "z": -3.280238151550293
            },
            "rotation": {
                "x": -0.0045140692964196209,
                "y": 0.3919031023979187,
                "z": -0.0019229244207963348,
                "w": -0.9199934005737305
            },
            "time": 1.225878119468689
        },
        {
            "position": {
                "x": 62.403926849365237,
                "y": 1.9942723512649537,
                "z": -3.170260190963745
            },
            "rotation": {
                "x": -0.0045140692964196209,
                "y": 0.3919031023979187,
                "z": -0.0019229244207963348,
                "w": -0.9199934005737305
            },
            "time": 1.2523361444473267
        },
        {
            "position": {
                "x": 62.321128845214847,
                "y": 1.9931455850601197,
                "z": -3.090710163116455
            },
            "rotation": {
                "x": -0.0045140692964196209,
                "y": 0.3919031023979187,
                "z": -0.0019229244207963348,
                "w": -0.9199934005737305
            },
            "time": 1.2714738845825196
        },
        {
            "position": {
                "x": 62.19061279296875,
                "y": 1.991369366645813,
                "z": -2.9653146266937258
            },
            "rotation": {
                "x": -0.0045140692964196209,
                "y": 0.3919031023979187,
                "z": -0.0019229244207963348,
                "w": -0.9199934005737305
            },
            "time": 1.3016409873962403
        },
        {
            "position": {
                "x": 62.113399505615237,
                "y": 1.9903185367584229,
                "z": -2.891131639480591
            },
            "rotation": {
                "x": -0.0045140692964196209,
                "y": 0.3919031023979187,
                "z": -0.0019229244207963348,
                "w": -0.9199934005737305
            },
            "time": 1.3194875717163087
        },
        {
            "position": {
                "x": 61.99637985229492,
                "y": 1.988726019859314,
                "z": -2.778703212738037
            },
            "rotation": {
                "x": -0.0045140692964196209,
                "y": 0.3919031023979187,
                "z": -0.0019229244207963348,
                "w": -0.9199934005737305
            },
            "time": 1.346535086631775
        },
        {
            "position": {
                "x": 61.924259185791019,
                "y": 1.9877445697784424,
                "z": -2.7094123363494875
            },
            "rotation": {
                "x": -0.0045140692964196209,
                "y": 0.3919031023979187,
                "z": -0.0019229244207963348,
                "w": -0.9199934005737305
            },
            "time": 1.363204836845398
        },
        {
            "position": {
                "x": 61.844154357910159,
                "y": 1.98665452003479,
                "z": -2.6324527263641359
            },
            "rotation": {
                "x": -0.0045140692964196209,
                "y": 0.3919031023979187,
                "z": -0.0019229244207963348,
                "w": -0.9199934005737305
            },
            "time": 1.3817194700241089
        },
        {
            "position": {
                "x": 61.77204132080078,
                "y": 1.9856730699539185,
                "z": -2.5631680488586427
            },
            "rotation": {
                "x": -0.0045140692964196209,
                "y": 0.3919031023979187,
                "z": -0.0019229244207963348,
                "w": -0.9199934005737305
            },
            "time": 1.3983876705169678
        },
        {
            "position": {
                "x": 61.67584228515625,
                "y": 1.9843639135360718,
                "z": -2.4707443714141847
            },
            "rotation": {
                "x": -0.0045140692964196209,
                "y": 0.3919031023979187,
                "z": -0.0019229244207963348,
                "w": -0.9199934005737305
            },
            "time": 1.4206225872039796
        },
        {
            "position": {
                "x": 61.59908676147461,
                "y": 1.9833192825317383,
                "z": -2.3969991207122804
            },
            "rotation": {
                "x": -0.0045140692964196209,
                "y": 0.3919031023979187,
                "z": -0.0019229244207963348,
                "w": -0.9199934005737305
            },
            "time": 1.4383639097213746
        },
        {
            "position": {
                "x": 61.46923828125,
                "y": 1.981552243232727,
                "z": -2.272247791290283
            },
            "rotation": {
                "x": -0.0045140692964196209,
                "y": 0.3919031023979187,
                "z": -0.0019229244207963348,
                "w": -0.9199934005737305
            },
            "time": 1.4683760404586793
        },
        {
            "position": {
                "x": 61.39712142944336,
                "y": 1.9805707931518555,
                "z": -2.202960968017578
            },
            "rotation": {
                "x": -0.0045140692964196209,
                "y": 0.3919031023979187,
                "z": -0.0019229244207963348,
                "w": -0.9199934005737305
            },
            "time": 1.4850447177886963
        },
        {
            "position": {
                "x": 61.2890510559082,
                "y": 1.9791001081466675,
                "z": -2.099130868911743
            },
            "rotation": {
                "x": -0.0045140692964196209,
                "y": 0.3919031023979187,
                "z": -0.0019229244207963348,
                "w": -0.9199934005737305
            },
            "time": 1.5100237131118775
        },
        {
            "position": {
                "x": 61.216941833496097,
                "y": 1.9781187772750855,
                "z": -2.0298500061035158
            },
            "rotation": {
                "x": -0.0038293153047561647,
                "y": 0.390529602766037,
                "z": -0.001624475116841495,
                "w": -0.920581042766571
            },
            "time": 1.52669095993042
        },
        {
            "position": {
                "x": 61.117530822753909,
                "y": 1.97696852684021,
                "z": -1.9337658882141114
            },
            "rotation": {
                "x": -0.003486056113615632,
                "y": 0.3901864290237427,
                "z": -0.0014773219591006637,
                "w": -0.9207281470298767
            },
            "time": 1.5497345924377442
        },
        {
            "position": {
                "x": 61.01210403442383,
                "y": 1.9758574962615967,
                "z": -1.831717848777771
            },
            "rotation": {
                "x": -0.0017681143945083023,
                "y": 0.38846856355667117,
                "z": -0.0007454005535691977,
                "w": -0.9214600324630737
            },
            "time": 1.57418954372406
        },
        {
            "position": {
                "x": 60.94050598144531,
                "y": 1.9754736423492432,
                "z": -1.761893630027771
            },
            "rotation": {
                "x": -0.0014262067852541805,
                "y": 0.38502460718154909,
                "z": -0.00059499591588974,
                "w": -0.9229050278663635
            },
            "time": 1.590857744216919
        },
        {
            "position": {
                "x": 60.84465789794922,
                "y": 1.975056767463684,
                "z": -1.6670129299163819
            },
            "rotation": {
                "x": -0.0014308295212686062,
                "y": 0.3777744770050049,
                "z": -0.000583791930694133,
                "w": -0.9258963465690613
            },
            "time": 1.6133357286453248
        },
        {
            "position": {
                "x": 60.773902893066409,
                "y": 1.974744200706482,
                "z": -1.5947378873825074
            },
            "rotation": {
                "x": 0.0006454132962971926,
                "y": 0.37258216738700869,
                "z": 0.00025912688579410315,
                "w": -0.927998960018158
            },
            "time": 1.6301932334899903
        },
        {
            "position": {
                "x": 60.65827941894531,
                "y": 1.9749767780303956,
                "z": -1.4739553928375245
            },
            "rotation": {
                "x": -0.0030731596052646639,
                "y": -0.3715400993824005,
                "z": -0.001229845336638391,
                "w": 0.9284110069274902
            },
            "time": 1.6580606698989869
        },
        {
            "position": {
                "x": 60.58847427368164,
                "y": 1.9756466150283814,
                "z": -1.4007081985473633
            },
            "rotation": {
                "x": -0.0034197941422462465,
                "y": -0.3715396225452423,
                "z": -0.001368564902804792,
                "w": 0.9284098148345947
            },
            "time": 1.6749247312545777
        },
        {
            "position": {
                "x": 60.50397491455078,
                "y": 1.9765489101409913,
                "z": -1.3120428323745728
            },
            "rotation": {
                "x": -0.0034197941422462465,
                "y": -0.3715396225452423,
                "z": -0.001368564902804792,
                "w": 0.9284098148345947
            },
            "time": 1.6953387260437012
        },
        {
            "position": {
                "x": 60.434940338134769,
                "y": 1.9772861003875733,
                "z": -1.239605188369751
            },
            "rotation": {
                "x": -0.0034197941422462465,
                "y": -0.3715396225452423,
                "z": -0.001368564902804792,
                "w": 0.9284098148345947
            },
            "time": 1.7120165824890137
        },
        {
            "position": {
                "x": 60.34522247314453,
                "y": 1.9782441854476929,
                "z": -1.1454623937606812
            },
            "rotation": {
                "x": -0.0034197941422462465,
                "y": -0.3715396225452423,
                "z": -0.001368564902804792,
                "w": 0.9284098148345947
            },
            "time": 1.733691692352295
        },
        {
            "position": {
                "x": 60.27622985839844,
                "y": 1.9789808988571168,
                "z": -1.0730689764022828
            },
            "rotation": {
                "x": -0.0034197941422462465,
                "y": -0.3715396225452423,
                "z": -0.001368564902804792,
                "w": 0.9284098148345947
            },
            "time": 1.750359296798706
        },
        {
            "position": {
                "x": 60.20550537109375,
                "y": 1.979736089706421,
                "z": -0.9988570213317871
            },
            "rotation": {
                "x": -0.0034197941422462465,
                "y": -0.3715396225452423,
                "z": -0.001368564902804792,
                "w": 0.9284098148345947
            },
            "time": 1.7674455642700196
        },
        {
            "position": {
                "x": 60.09946823120117,
                "y": 1.9808684587478638,
                "z": -0.8875910043716431
            },
            "rotation": {
                "x": -0.0034197941422462465,
                "y": -0.3715396225452423,
                "z": -0.001368564902804792,
                "w": 0.9284098148345947
            },
            "time": 1.7930630445480347
        },
        {
            "position": {
                "x": 60.03047180175781,
                "y": 1.9816052913665772,
                "z": -0.8151919841766357
            },
            "rotation": {
                "x": -0.0034197941422462465,
                "y": -0.3715396225452423,
                "z": -0.001368564902804792,
                "w": 0.9284098148345947
            },
            "time": 1.8097319602966309
        },
        {
            "position": {
                "x": 59.93803787231445,
                "y": 1.9825923442840577,
                "z": -0.7181978225708008
            },
            "rotation": {
                "x": -0.0034197941422462465,
                "y": -0.3715396225452423,
                "z": -0.001368564902804792,
                "w": 0.9284098148345947
            },
            "time": 1.8320635557174683
        },
        {
            "position": {
                "x": 59.867942810058597,
                "y": 1.983340859413147,
                "z": -0.6446473598480225
            },
            "rotation": {
                "x": -0.0034197941422462465,
                "y": -0.3715396225452423,
                "z": -0.001368564902804792,
                "w": 0.9284098148345947
            },
            "time": 1.8489975929260255
        },
        {
            "position": {
                "x": 59.786659240722659,
                "y": 1.9842088222503663,
                "z": -0.5593568086624146
            },
            "rotation": {
                "x": -0.002725487109273672,
                "y": -0.37223413586616518,
                "z": -0.0010930739808827639,
                "w": 0.9281342029571533
            },
            "time": 1.868634581565857
        },
        {
            "position": {
                "x": 59.71756362915039,
                "y": 1.984796166419983,
                "z": -0.48706892132759097
            },
            "rotation": {
                "x": -0.0013369015650823713,
                "y": -0.3756991922855377,
                "z": -0.0005419778171926737,
                "w": 0.9267405867576599
            },
            "time": 1.8853014707565308
        },
        {
            "position": {
                "x": 59.626949310302737,
                "y": 1.9851715564727784,
                "z": -0.3936786353588104
            },
            "rotation": {
                "x": 0.0007376900175586343,
                "y": -0.3815758228302002,
                "z": 0.00030452595092356205,
                "w": 0.9243372082710266
            },
            "time": 1.9069889783859254
        },
        {
            "position": {
                "x": 59.556392669677737,
                "y": 1.9850119352340699,
                "z": -0.3227841556072235
            },
            "rotation": {
                "x": -0.0021132819820195438,
                "y": 0.38709166646003725,
                "z": -0.0008872014004737139,
                "w": -0.9220383763313294
            },
            "time": 1.923659086227417
        },
        {
            "position": {
                "x": 59.554683685302737,
                "y": 1.984431505203247,
                "z": -0.14373090863227845
            },
            "rotation": {
                "x": -0.0038247564807534219,
                "y": 0.3929353356361389,
                "z": -0.0016343549359589816,
                "w": -0.919556736946106
            },
            "time": 1.9447617530822755
        },
        {
            "position": {
                "x": 59.55121994018555,
                "y": 1.9835149049758912,
                "z": 0.012054994702339173
            },
            "rotation": {
                "x": -0.0065305656753480438,
                "y": 0.40628010034561159,
                "z": -0.0029037746135145427,
                "w": -0.9137206673622131
            },
            "time": 1.9631261825561524
        },
        {
            "position": {
                "x": 59.542396545410159,
                "y": 1.9817769527435303,
                "z": 0.1837705671787262
            },
            "rotation": {
                "x": -0.008145472966134549,
                "y": 0.42833301424980166,
                "z": -0.0038612966891378166,
                "w": -0.9035760164260864
            },
            "time": 1.9833908081054688
        },
        {
            "position": {
                "x": 59.52545928955078,
                "y": 1.979610800743103,
                "z": 0.3528391718864441
            },
            "rotation": {
                "x": -0.008726127445697785,
                "y": 0.44813427329063418,
                "z": -0.004374560434371233,
                "w": -0.8939130306243897
            },
            "time": 2.0034170150756838
        },
        {
            "position": {
                "x": 59.501590728759769,
                "y": 1.9773130416870118,
                "z": 0.5175628066062927
            },
            "rotation": {
                "x": -0.009241492487490178,
                "y": 0.475949227809906,
                "z": -0.005001627374440432,
                "w": -0.8794100284576416
            },
            "time": 2.0230345726013185
        },
        {
            "position": {
                "x": 59.45927047729492,
                "y": 1.9742474555969239,
                "z": 0.7194526791572571
            },
            "rotation": {
                "x": -0.009729686193168164,
                "y": 0.5026494264602661,
                "z": -0.005657709203660488,
                "w": -0.8644171357154846
            },
            "time": 2.0473473072052
        },
        {
            "position": {
                "x": 59.41095733642578,
                "y": 1.971341848373413,
                "z": 0.895479679107666
            },
            "rotation": {
                "x": -0.006704083643853664,
                "y": 0.5279481410980225,
                "z": -0.004167736973613501,
                "w": -0.8492399454116821
            },
            "time": 2.068862199783325
        },
        {
            "position": {
                "x": 59.35963821411133,
                "y": 1.9695578813552857,
                "z": 1.0468108654022217
            },
            "rotation": {
                "x": -0.004736442118883133,
                "y": 0.5459139943122864,
                "z": -0.0030862039420753719,
                "w": -0.8378221392631531
            },
            "time": 2.087695598602295
        },
        {
            "position": {
                "x": 59.304691314697269,
                "y": 1.9683417081832886,
                "z": 1.1886630058288575
            },
            "rotation": {
                "x": -0.0034357011318206789,
                "y": 0.563628613948822,
                "z": -0.002344331005588174,
                "w": -0.8260179162025452
            },
            "time": 2.105623960494995
        },
        {
            "position": {
                "x": 59.23483657836914,
                "y": 1.967315912246704,
                "z": 1.348447322845459
            },
            "rotation": {
                "x": -0.005182154476642609,
                "y": 0.586837112903595,
                "z": -0.0037559051997959615,
                "w": -0.8096797466278076
            },
            "time": 2.126175880432129
        },
        {
            "position": {
                "x": 59.14737319946289,
                "y": 1.9655640125274659,
                "z": 1.5211108922958375
            },
            "rotation": {
                "x": -0.006585584953427315,
                "y": 0.604526162147522,
                "z": -0.004998049233108759,
                "w": -0.7965424656867981
            },
            "time": 2.148987293243408
        },
        {
            "position": {
                "x": 59.045616149902347,
                "y": 1.963139533996582,
                "z": 1.7017840147018433
            },
            "rotation": {
                "x": -0.007375105284154415,
                "y": 0.6187012791633606,
                "z": -0.005808502901345491,
                "w": -0.7855702042579651
            },
            "time": 2.173426389694214
        },
        {
            "position": {
                "x": 58.92427062988281,
                "y": 1.9600509405136109,
                "z": 1.9002550840377808
            },
            "rotation": {
                "x": -0.011493483558297158,
                "y": 0.6418488025665283,
                "z": -0.009622050449252129,
                "w": -0.7666847109794617
            },
            "time": 2.2008442878723146
        },
        {
            "position": {
                "x": 58.82256317138672,
                "y": 1.9562782049179078,
                "z": 2.0462777614593508
            },
            "rotation": {
                "x": -0.015276769176125527,
                "y": 0.6548646092414856,
                "z": -0.013242272660136223,
                "w": -0.7554757595062256
            },
            "time": 2.221820831298828
        },
        {
            "position": {
                "x": 58.6865119934082,
                "y": 1.9497854709625245,
                "z": 2.2280375957489015
            },
            "rotation": {
                "x": -0.017865320667624475,
                "y": 0.6784511208534241,
                "z": -0.016507819294929506,
                "w": -0.7342427372932434
            },
            "time": 2.2485885620117189
        },
        {
            "position": {
                "x": 58.53843307495117,
                "y": 1.9419305324554444,
                "z": 2.4017670154571535
            },
            "rotation": {
                "x": -0.019198009744286538,
                "y": 0.6909250617027283,
                "z": -0.01836058311164379,
                "w": -0.7224381566047669
            },
            "time": 2.2755069732666017
        },
        {
            "position": {
                "x": 58.39147186279297,
                "y": 1.9337407350540162,
                "z": 2.562681198120117
            },
            "rotation": {
                "x": -0.020243730396032335,
                "y": 0.7018698453903198,
                "z": -0.019963065162301065,
                "w": -0.7117375731468201
            },
            "time": 2.3012077808380129
        },
        {
            "position": {
                "x": 58.231204986572269,
                "y": 1.9244861602783204,
                "z": 2.7277543544769289
            },
            "rotation": {
                "x": -0.020051216706633569,
                "y": 0.7176336050033569,
                "z": -0.020679665729403497,
                "w": -0.695824921131134
            },
            "time": 2.3283443450927736
        },
        {
            "position": {
                "x": 58.04899597167969,
                "y": 1.914286494255066,
                "z": 2.899338722229004
            },
            "rotation": {
                "x": -0.019398991018533708,
                "y": 0.7307639718055725,
                "z": -0.020784892141819,
                "w": -0.682037889957428
            },
            "time": 2.35786509513855
        },
        {
            "position": {
                "x": 57.858551025390628,
                "y": 1.9041215181350709,
                "z": 3.0654497146606447
            },
            "rotation": {
                "x": -0.020022429525852205,
                "y": 0.7428401112556458,
                "z": -0.022239036858081819,
                "w": -0.6687998175621033
            },
            "time": 2.3876712322235109
        },
        {
            "position": {
                "x": 57.64200210571289,
                "y": 1.8923163414001465,
                "z": 3.2410976886749269
            },
            "rotation": {
                "x": -0.018886256963014604,
                "y": 0.7547342777252197,
                "z": -0.021748779341578485,
                "w": -0.6553980112075806
            },
            "time": 2.420560836791992
        },
        {
            "position": {
                "x": 57.61039352416992,
                "y": 1.8923163414001465,
                "z": 3.4643325805664064
            },
            "rotation": {
                "x": -0.01825368031859398,
                "y": 0.7663697004318237,
                "z": -0.02179761976003647,
                "w": -0.6417704224586487
            },
            "time": 2.4581377506256105
        },
        {
            "position": {
                "x": 57.57756042480469,
                "y": 1.8923163414001465,
                "z": 3.6484084129333498
            },
            "rotation": {
                "x": -0.016353029757738115,
                "y": 0.773566722869873,
                "z": -0.019978495314717294,
                "w": -0.633188784122467
            },
            "time": 2.4893012046813967
        },
        {
            "position": {
                "x": 57.55384826660156,
                "y": 1.8923163414001465,
                "z": 3.766042709350586
            },
            "rotation": {
                "x": -0.01602815091609955,
                "y": 0.7764040231704712,
                "z": -0.019761620089411737,
                "w": -0.6297217011451721
            },
            "time": 2.50930118560791
        },
        {
            "position": {
                "x": 57.5172004699707,
                "y": 1.8923163414001465,
                "z": 3.9397873878479006
            },
            "rotation": {
                "x": -0.015181053429841996,
                "y": 0.7811077237129211,
                "z": -0.019005633890628816,
                "w": -0.6239222884178162
            },
            "time": 2.538895845413208
        },
        {
            "position": {
                "x": 57.47636413574219,
                "y": 1.8923163414001465,
                "z": 4.120019912719727
            },
            "rotation": {
                "x": -0.013666598126292229,
                "y": 0.7853253483772278,
                "z": -0.01734752394258976,
                "w": -0.618689239025116
            },
            "time": 2.5696959495544435
        },
        {
            "position": {
                "x": 57.44373321533203,
                "y": 1.8923163414001465,
                "z": 4.255551815032959
            },
            "rotation": {
                "x": -0.01263938657939434,
                "y": 0.789262592792511,
                "z": -0.016254886984825136,
                "w": -0.6137105226516724
            },
            "time": 2.5929300785064699
        },
        {
            "position": {
                "x": 57.36227035522461,
                "y": 1.8923163414001465,
                "z": 4.575977325439453
            },
            "rotation": {
                "x": -0.010942220687866211,
                "y": 0.8026279807090759,
                "z": -0.014730908907949925,
                "w": -0.5961976051330566
            },
            "time": 2.648033380508423
        },
        {
            "position": {
                "x": 57.31478500366211,
                "y": 1.8923163414001465,
                "z": 4.733357906341553
            },
            "rotation": {
                "x": -0.009165146388113499,
                "y": 0.8127878308296204,
                "z": -0.012791882269084454,
                "w": -0.5823473334312439
            },
            "time": 2.675431489944458
        },
        {
            "position": {
                "x": 57.25106430053711,
                "y": 1.8923163414001465,
                "z": 4.920984268188477
            },
            "rotation": {
                "x": -0.007238219026476145,
                "y": 0.8231312036514282,
                "z": -0.0104948366060853,
                "w": -0.5677081346511841
            },
            "time": 2.7084567546844484
        },
        {
            "position": {
                "x": 57.200382232666019,
                "y": 1.8923163414001465,
                "z": 5.05431604385376
            },
            "rotation": {
                "x": -0.005430440418422222,
                "y": 0.8309252262115479,
                "z": -0.008111273869872094,
                "w": -0.5562984943389893
            },
            "time": 2.7322299480438234
        },
        {
            "position": {
                "x": 57.15823745727539,
                "y": 1.8923163414001465,
                "z": 5.156590938568115
            },
            "rotation": {
                "x": -0.0037156054750084879,
                "y": 0.8361036777496338,
                "z": -0.005663561634719372,
                "w": -0.5485296249389648
            },
            "time": 2.750666379928589
        },
        {
            "position": {
                "x": 57.096168518066409,
                "y": 1.8923163414001465,
                "z": 5.299569129943848
            },
            "rotation": {
                "x": -0.001427818089723587,
                "y": 0.8444210290908814,
                "z": -0.002250773599371314,
                "w": -0.5356734991073608
            },
            "time": 2.776644468307495
        },
        {
            "position": {
                "x": 57.002540588378909,
                "y": 1.8923163414001465,
                "z": 5.498356342315674
            },
            "rotation": {
                "x": 0.00016939404304139316,
                "y": 0.8507654070854187,
                "z": 0.00027421899721957743,
                "w": -0.5255456566810608
            },
            "time": 2.8132667541503908
        },
        {
            "position": {
                "x": 56.895263671875,
                "y": 1.8923163414001465,
                "z": 5.712679386138916
            },
            "rotation": {
                "x": -0.0020907740108668806,
                "y": -0.8569782376289368,
                "z": -0.0034768495243042709,
                "w": 0.5153366327285767
            },
            "time": 2.8532121181488039
        },
        {
            "position": {
                "x": 56.832122802734378,
                "y": 1.8923163414001465,
                "z": 5.831635475158691
            },
            "rotation": {
                "x": -0.0030321707017719747,
                "y": -0.8590801954269409,
                "z": -0.005089573562145233,
                "w": 0.5118067264556885
            },
            "time": 2.8756580352783205
        },
        {
            "position": {
                "x": 56.74187088012695,
                "y": 1.8923163414001465,
                "z": 5.9983439445495609
            },
            "rotation": {
                "x": -0.0034060273319482805,
                "y": -0.8598397970199585,
                "z": -0.005736574996262789,
                "w": 0.510520339012146
            },
            "time": 2.9072532653808595
        },
        {
            "position": {
                "x": 56.65048599243164,
                "y": 1.8923163414001465,
                "z": 6.165944576263428
            },
            "rotation": {
                "x": -0.0037659036461263897,
                "y": -0.861546516418457,
                "z": -0.006391538772732019,
                "w": 0.5076243877410889
            },
            "time": 2.9390692710876467
        },
        {
            "position": {
                "x": 56.5553092956543,
                "y": 1.8923163414001465,
                "z": 6.337740421295166
            },
            "rotation": {
                "x": -0.003734827972948551,
                "y": -0.8640009760856628,
                "z": -0.006409747991710901,
                "w": 0.5034355521202087
            },
            "time": 2.971802234649658
        },
        {
            "position": {
                "x": 56.44987487792969,
                "y": 1.8923163414001465,
                "z": 6.523765563964844
            },
            "rotation": {
                "x": -0.0036796308122575285,
                "y": -0.8682935237884522,
                "z": -0.006441592704504728,
                "w": 0.49599528312683108
            },
            "time": 3.0074398517608644
        },
        {
            "position": {
                "x": 56.36214828491211,
                "y": 1.8923163414001465,
                "z": 6.672534465789795
            },
            "rotation": {
                "x": -0.0027100241277366878,
                "y": -0.8727149367332459,
                "z": -0.00484450114890933,
                "w": 0.48819857835769656
            },
            "time": 3.036224603652954
        },
        {
            "position": {
                "x": 56.21718215942383,
                "y": 1.8923163414001465,
                "z": 6.908592700958252
            },
            "rotation": {
                "x": -0.0008718348108232021,
                "y": -0.8772470355033875,
                "z": -0.0015932449605315924,
                "w": 0.4800357222557068
            },
            "time": 3.0823941230773927
        },
        {
            "position": {
                "x": 56.13624572753906,
                "y": 1.8923163414001465,
                "z": 7.035029411315918
            },
            "rotation": {
                "x": 0.000024383345589740202,
                "y": -0.8788570761680603,
                "z": 0.000044917505874764174,
                "w": 0.4770851731300354
            },
            "time": 3.107414484024048
        },
        {
            "position": {
                "x": 56.13624572753906,
                "y": 1.8923163414001465,
                "z": 7.035029411315918
            },
            "rotation": {
                "x": -0.0009096002904698253,
                "y": 0.8804541826248169,
                "z": -0.0016891270643100143,
                "w": -0.4741273820400238
            },
            "time": 3.1466469764709474
        },
        {
            "position": {
                "x": 56.13624572753906,
                "y": 1.8923163414001465,
                "z": 7.035029411315918
            },
            "rotation": {
                "x": -0.0009089695522561669,
                "y": 0.880631148815155,
                "z": -0.0016894665313884616,
                "w": -0.47379863262176516
            },
            "time": 3.1731626987457277
        },
        {
            "position": {
                "x": 56.13624572753906,
                "y": 1.8923163414001465,
                "z": 7.035029411315918
            },
            "rotation": {
                "x": -0.0010859201429411769,
                "y": 0.8806304931640625,
                "z": -0.002018357627093792,
                "w": -0.4737982749938965
            },
            "time": 3.2040345668792726
        },
        {
            "position": {
                "x": 56.13624572753906,
                "y": 1.8923163414001465,
                "z": 7.035029411315918
            },
            "rotation": {
                "x": -0.0010859201429411769,
                "y": 0.8806304931640625,
                "z": -0.002018357627093792,
                "w": -0.4737982749938965
            },
            "time": 3.2408788204193117
        }
    ]
}