{
    "transformations": [
        {
            "position": {
                "x": 27.61739730834961,
                "y": 1.3829238414764405,
                "z": -25.91783905029297
            },
            "rotation": {
                "x": -0.0032894888427108528,
                "y": -0.9107930064201355,
                "z": -0.007258094847202301,
                "w": 0.41278645396232607
            },
            "time": 0.01692580059170723
        },
        {
            "position": {
                "x": 27.61739730834961,
                "y": 1.3829238414764405,
                "z": -25.91783905029297
            },
            "rotation": {
                "x": -0.0032894888427108528,
                "y": -0.9107930064201355,
                "z": -0.007258094847202301,
                "w": 0.41278645396232607
            },
            "time": 0.033594198524951938
        },
        {
            "position": {
                "x": 27.61739730834961,
                "y": 1.3829238414764405,
                "z": -25.91783905029297
            },
            "rotation": {
                "x": -0.0032894888427108528,
                "y": -0.9107930064201355,
                "z": -0.007258094847202301,
                "w": 0.41278645396232607
            },
            "time": 0.050260595977306369
        },
        {
            "position": {
                "x": 27.61739730834961,
                "y": 1.3829238414764405,
                "z": -25.91783905029297
            },
            "rotation": {
                "x": -0.0032894888427108528,
                "y": -0.9107930064201355,
                "z": -0.007258094847202301,
                "w": 0.41278645396232607
            },
            "time": 0.06776269525289536
        },
        {
            "position": {
                "x": 27.61739730834961,
                "y": 1.3829238414764405,
                "z": -25.91783905029297
            },
            "rotation": {
                "x": -0.0032894888427108528,
                "y": -0.9107930064201355,
                "z": -0.007258094847202301,
                "w": 0.41278645396232607
            },
            "time": 0.08470309525728226
        },
        {
            "position": {
                "x": 27.61739730834961,
                "y": 1.3829238414764405,
                "z": -25.91783905029297
            },
            "rotation": {
                "x": -0.0032894888427108528,
                "y": -0.9107930064201355,
                "z": -0.007258094847202301,
                "w": 0.41278645396232607
            },
            "time": 0.10166089236736298
        },
        {
            "position": {
                "x": 27.61739730834961,
                "y": 1.3829238414764405,
                "z": -25.91783905029297
            },
            "rotation": {
                "x": -0.0032894888427108528,
                "y": -0.9107930064201355,
                "z": -0.007258094847202301,
                "w": 0.41278645396232607
            },
            "time": 0.11832789331674576
        },
        {
            "position": {
                "x": 27.61739730834961,
                "y": 1.3829238414764405,
                "z": -25.91783905029297
            },
            "rotation": {
                "x": -0.0032894888427108528,
                "y": -0.9107930064201355,
                "z": -0.007258094847202301,
                "w": 0.41278645396232607
            },
            "time": 0.13499540090560914
        },
        {
            "position": {
                "x": 27.61739730834961,
                "y": 1.3829238414764405,
                "z": -25.91783905029297
            },
            "rotation": {
                "x": -0.0032894888427108528,
                "y": -0.9107930064201355,
                "z": -0.007258094847202301,
                "w": 0.41278645396232607
            },
            "time": 0.15166190266609193
        },
        {
            "position": {
                "x": 27.61739730834961,
                "y": 1.3829238414764405,
                "z": -25.91783905029297
            },
            "rotation": {
                "x": -0.0032894888427108528,
                "y": -0.9107930064201355,
                "z": -0.007258094847202301,
                "w": 0.41278645396232607
            },
            "time": 0.16848380863666535
        },
        {
            "position": {
                "x": 27.61739730834961,
                "y": 1.3829238414764405,
                "z": -25.91783905029297
            },
            "rotation": {
                "x": -0.0031733911018818619,
                "y": -0.9140079617500305,
                "z": -0.00715077668428421,
                "w": 0.4056209325790405
            },
            "time": 0.18544061481952668
        },
        {
            "position": {
                "x": 27.61739730834961,
                "y": 1.3829238414764405,
                "z": -25.91783905029297
            },
            "rotation": {
                "x": -0.003079518675804138,
                "y": -0.9192389845848084,
                "z": -0.0071917022578418259,
                "w": 0.3936222195625305
            },
            "time": 0.2025437206029892
        },
        {
            "position": {
                "x": 27.61739730834961,
                "y": 1.3829238414764405,
                "z": -25.91783905029297
            },
            "rotation": {
                "x": -0.0028650190215557815,
                "y": -0.9248133301734924,
                "z": -0.006966296583414078,
                "w": 0.3803466856479645
            },
            "time": 0.2192116230726242
        },
        {
            "position": {
                "x": 27.61739730834961,
                "y": 1.3829238414764405,
                "z": -25.91783905029297
            },
            "rotation": {
                "x": -0.0025292453356087209,
                "y": -0.9343003034591675,
                "z": -0.006630095653235912,
                "w": 0.35641637444496157
            },
            "time": 0.235878124833107
        },
        {
            "position": {
                "x": 27.61739730834961,
                "y": 1.3829238414764405,
                "z": -25.91783905029297
            },
            "rotation": {
                "x": -0.002465576399117708,
                "y": -0.9402288794517517,
                "z": -0.006808916572481394,
                "w": 0.3404662013053894
            },
            "time": 0.25254273414611819
        },
        {
            "position": {
                "x": 27.61739730834961,
                "y": 1.3829238414764405,
                "z": -25.91783905029297
            },
            "rotation": {
                "x": -0.0022275405935943128,
                "y": -0.9448938369750977,
                "z": -0.006430641748011112,
                "w": 0.32730627059936526
            },
            "time": 0.26927852630615237
        },
        {
            "position": {
                "x": 27.61739730834961,
                "y": 1.3829238414764405,
                "z": -25.91783905029297
            },
            "rotation": {
                "x": -0.0020189618226140739,
                "y": -0.9484106302261353,
                "z": -0.006040759850293398,
                "w": 0.3169807493686676
            },
            "time": 0.2859478294849396
        },
        {
            "position": {
                "x": 27.61739730834961,
                "y": 1.3829238414764405,
                "z": -25.91783905029297
            },
            "rotation": {
                "x": -0.0018314853077754379,
                "y": -0.951143205165863,
                "z": -0.005643160082399845,
                "w": 0.30869317054748537
            },
            "time": 0.3026142418384552
        },
        {
            "position": {
                "x": 27.61739730834961,
                "y": 1.3829238414764405,
                "z": -25.91783905029297
            },
            "rotation": {
                "x": -0.0017648775829002262,
                "y": -0.9547138214111328,
                "z": -0.005664344411343336,
                "w": 0.29746654629707339
            },
            "time": 0.31928303837776186
        },
        {
            "position": {
                "x": 27.61739730834961,
                "y": 1.3829238414764405,
                "z": -25.91783905029297
            },
            "rotation": {
                "x": -0.0018072751117870212,
                "y": -0.9568923711776733,
                "z": -0.0059556118212640289,
                "w": 0.2903761863708496
            },
            "time": 0.33609622716903689
        },
        {
            "position": {
                "x": 27.61739730834961,
                "y": 1.3829238414764405,
                "z": -25.91783905029297
            },
            "rotation": {
                "x": -0.001790915266610682,
                "y": -0.9596348404884338,
                "z": -0.006112250965088606,
                "w": 0.2811770439147949
            },
            "time": 0.35276123881340029
        },
        {
            "position": {
                "x": 27.61739730834961,
                "y": 1.3829238414764405,
                "z": -25.91783905029297
            },
            "rotation": {
                "x": -0.0017744475044310094,
                "y": -0.9621699452400208,
                "z": -0.006268337368965149,
                "w": 0.2723720669746399
            },
            "time": 0.370089054107666
        },
        {
            "position": {
                "x": 27.61739730834961,
                "y": 1.3829238414764405,
                "z": -25.91783905029297
            },
            "rotation": {
                "x": -0.001787864719517529,
                "y": -0.964853048324585,
                "z": -0.006566476542502642,
                "w": 0.2627020478248596
            },
            "time": 0.3870110511779785
        },
        {
            "position": {
                "x": 27.61739730834961,
                "y": 1.3829238414764405,
                "z": -25.91783905029297
            },
            "rotation": {
                "x": -0.0017586129251867533,
                "y": -0.9674398303031921,
                "z": -0.006724557839334011,
                "w": 0.2530058026313782
            },
            "time": 0.4040793478488922
        },
        {
            "position": {
                "x": 27.61739730834961,
                "y": 1.3829238414764405,
                "z": -25.91783905029297
            },
            "rotation": {
                "x": -0.0016880985349416733,
                "y": -0.9700361490249634,
                "z": -0.0067426045425236229,
                "w": 0.24286113679409028
            },
            "time": 0.4209827482700348
        },
        {
            "position": {
                "x": 27.61739730834961,
                "y": 1.3829238414764405,
                "z": -25.91783905029297
            },
            "rotation": {
                "x": -0.0014955432852730156,
                "y": -0.9720200300216675,
                "z": -0.006190903950482607,
                "w": 0.2348119169473648
            },
            "time": 0.43806806206703188
        },
        {
            "position": {
                "x": 27.61739730834961,
                "y": 1.3829238414764405,
                "z": -25.91783905029297
            },
            "rotation": {
                "x": -0.0012826770544052125,
                "y": -0.9751105904579163,
                "z": -0.005643073469400406,
                "w": 0.22164376080036164
            },
            "time": 0.4549023509025574
        },
        {
            "position": {
                "x": 27.61739730834961,
                "y": 1.3829238414764405,
                "z": -25.91783905029297
            },
            "rotation": {
                "x": -0.001171391922980547,
                "y": -0.9770092368125916,
                "z": -0.005369868595153093,
                "w": 0.21312637627124787
            },
            "time": 0.4719802439212799
        },
        {
            "position": {
                "x": 27.61739730834961,
                "y": 1.3829238414764405,
                "z": -25.91783905029297
            },
            "rotation": {
                "x": -0.0010033677099272609,
                "y": -0.978924036026001,
                "z": -0.004810897167772055,
                "w": 0.20416583120822907
            },
            "time": 0.4886472523212433
        },
        {
            "position": {
                "x": 27.61739730834961,
                "y": 1.3829238414764405,
                "z": -25.91783905029297
            },
            "rotation": {
                "x": -0.0008798307389952242,
                "y": -0.9804993271827698,
                "z": -0.00439083157107234,
                "w": 0.19647154211997987
            },
            "time": 0.505314826965332
        },
        {
            "position": {
                "x": 27.61739730834961,
                "y": 1.3829238414764405,
                "z": -25.91783905029297
            },
            "rotation": {
                "x": -0.0007868238026276231,
                "y": -0.982177734375,
                "z": -0.004112655762583017,
                "w": 0.18790799379348756
            },
            "time": 0.522803544998169
        },
        {
            "position": {
                "x": 27.579877853393556,
                "y": 1.3837751150131226,
                "z": -26.012306213378908
            },
            "rotation": {
                "x": -0.000675314397085458,
                "y": -0.9848583936691284,
                "z": -0.003837409196421504,
                "w": 0.17331720888614655
            },
            "time": 0.539745032787323
        },
        {
            "position": {
                "x": 27.545740127563478,
                "y": 1.384554386138916,
                "z": -26.106292724609376
            },
            "rotation": {
                "x": -0.0005374179454520345,
                "y": -0.9867632389068604,
                "z": -0.0032707827631384136,
                "w": 0.16213373839855195
            },
            "time": 0.5564112067222595
        },
        {
            "position": {
                "x": 27.513465881347658,
                "y": 1.3852230310440064,
                "z": -26.20185089111328
            },
            "rotation": {
                "x": -0.00043318505049683154,
                "y": -0.9886062145233154,
                "z": -0.0028455525171011688,
                "w": 0.15049780905246736
            },
            "time": 0.5732218027114868
        },
        {
            "position": {
                "x": 27.48371124267578,
                "y": 1.385798692703247,
                "z": -26.29731559753418
            },
            "rotation": {
                "x": -0.00038180185947567225,
                "y": -0.9901893734931946,
                "z": -0.0027061000000685455,
                "w": 0.13970516622066499
            },
            "time": 0.5898879170417786
        },
        {
            "position": {
                "x": 27.456043243408204,
                "y": 1.3863452672958375,
                "z": -26.393417358398439
            },
            "rotation": {
                "x": -0.00033463441650383174,
                "y": -0.9915984869003296,
                "z": -0.0025657364167273046,
                "w": 0.12932856380939485
            },
            "time": 0.606555700302124
        },
        {
            "position": {
                "x": 27.43039894104004,
                "y": 1.3868626356124879,
                "z": -26.490055084228517
            },
            "rotation": {
                "x": -0.0003725598508026451,
                "y": -0.9941811561584473,
                "z": -0.003440198255702853,
                "w": 0.10766588151454926
            },
            "time": 0.6232194900512695
        },
        {
            "position": {
                "x": 27.40896987915039,
                "y": 1.3875553607940674,
                "z": -26.587833404541017
            },
            "rotation": {
                "x": -0.0003859721473418176,
                "y": -0.9946854114532471,
                "z": -0.0037312719505280258,
                "w": 0.10289275646209717
            },
            "time": 0.6399030685424805
        },
        {
            "position": {
                "x": 27.388500213623048,
                "y": 1.3883056640625,
                "z": -26.685720443725587
            },
            "rotation": {
                "x": -0.000382532220100984,
                "y": -0.9955031275749207,
                "z": -0.00402366928756237,
                "w": 0.09464297443628311
            },
            "time": 0.656571090221405
        },
        {
            "position": {
                "x": 27.368894577026368,
                "y": 1.3891466856002808,
                "z": -26.787899017333986
            },
            "rotation": {
                "x": -0.0003509194066282362,
                "y": -0.9962157011032105,
                "z": -0.004026549402624369,
                "w": 0.08682159334421158
            },
            "time": 0.6739121675491333
        },
        {
            "position": {
                "x": 27.351402282714845,
                "y": 1.3899641036987305,
                "z": -26.887489318847658
            },
            "rotation": {
                "x": -0.00031118508195504546,
                "y": -0.9967980980873108,
                "z": -0.0038839310873299839,
                "w": 0.07986462861299515
            },
            "time": 0.6907652616500855
        },
        {
            "position": {
                "x": 27.335479736328126,
                "y": 1.390743374824524,
                "z": -26.98621368408203
            },
            "rotation": {
                "x": -0.00027347716968506575,
                "y": -0.997331976890564,
                "z": -0.0037411998491734268,
                "w": 0.07290375977754593
            },
            "time": 0.7074325680732727
        },
        {
            "position": {
                "x": 27.320938110351564,
                "y": 1.391493558883667,
                "z": -27.085147857666017
            },
            "rotation": {
                "x": -0.0002761060022749007,
                "y": -0.9978148937225342,
                "z": -0.004178133327513933,
                "w": 0.06593918055295944
            },
            "time": 0.7240993976593018
        },
        {
            "position": {
                "x": 27.307762145996095,
                "y": 1.3923320770263672,
                "z": -27.184396743774415
            },
            "rotation": {
                "x": -0.0002726599632296711,
                "y": -0.9982489943504334,
                "z": -0.004615501035004854,
                "w": 0.05897139385342598
            },
            "time": 0.7407866716384888
        },
        {
            "position": {
                "x": 27.295988082885743,
                "y": 1.3932567834854127,
                "z": -27.283695220947267
            },
            "rotation": {
                "x": -0.00024106971977744251,
                "y": -0.9988515973091126,
                "z": -0.005054103210568428,
                "w": 0.04764305055141449
            },
            "time": 0.7574529647827148
        },
        {
            "position": {
                "x": 27.286470413208009,
                "y": 1.3942688703536988,
                "z": -27.38324546813965
            },
            "rotation": {
                "x": -0.00021060144354123622,
                "y": -0.999210774898529,
                "z": -0.005346330348402262,
                "w": 0.039360687136650088
            },
            "time": 0.7741212844848633
        },
        {
            "position": {
                "x": 27.27836799621582,
                "y": 1.3953713178634644,
                "z": -27.48594093322754
            },
            "rotation": {
                "x": -0.00017777120228856802,
                "y": -0.9994875192642212,
                "z": -0.005638541653752327,
                "w": 0.031511712819337848
            },
            "time": 0.7912914752960205
        },
        {
            "position": {
                "x": 27.27198600769043,
                "y": 1.3965145349502564,
                "z": -27.587064743041993
            },
            "rotation": {
                "x": -0.00014553841901943088,
                "y": -0.9996814131736755,
                "z": -0.005930423270910978,
                "w": 0.024533163756132127
            },
            "time": 0.8081799745559692
        },
        {
            "position": {
                "x": 27.266952514648439,
                "y": 1.397731900215149,
                "z": -27.689538955688478
            },
            "rotation": {
                "x": -0.00011198889842489734,
                "y": -0.9998117685317993,
                "z": -0.006076609715819359,
                "w": 0.01842603273689747
            },
            "time": 0.8252806663513184
        },
        {
            "position": {
                "x": 27.263208389282228,
                "y": 1.3989672660827637,
                "z": -27.791091918945314
            },
            "rotation": {
                "x": -0.00007122876559151337,
                "y": -0.9999151229858398,
                "z": -0.006222666706889868,
                "w": 0.011445690877735615
            },
            "time": 0.8422190546989441
        },
        {
            "position": {
                "x": 27.26087760925293,
                "y": 1.4002344608306885,
                "z": -27.892871856689454
            },
            "rotation": {
                "x": -0.000006629387826251332,
                "y": -0.999976396560669,
                "z": -0.006804799661040306,
                "w": 0.0009741993271745741
            },
            "time": 0.8591882586479187
        },
        {
            "position": {
                "x": 27.260679244995118,
                "y": 1.4016172885894776,
                "z": -27.994468688964845
            },
            "rotation": {
                "x": 0.00004262448419467546,
                "y": -0.9999567866325378,
                "z": -0.007095538545399904,
                "w": -0.006006964016705751
            },
            "time": 0.876122772693634
        },
        {
            "position": {
                "x": 27.26190185546875,
                "y": 1.4030616283416749,
                "z": -28.096227645874025
            },
            "rotation": {
                "x": 0.00010036663297796622,
                "y": -0.9998777508735657,
                "z": -0.007240402977913618,
                "w": -0.013860329054296017
            },
            "time": 0.8930855989456177
        },
        {
            "position": {
                "x": 27.264719009399415,
                "y": 1.404534101486206,
                "z": -28.197851181030275
            },
            "rotation": {
                "x": 0.00019034034630749375,
                "y": -0.9996733665466309,
                "z": -0.00782074499875307,
                "w": -0.024329930543899537
            },
            "time": 0.9100313186645508
        },
        {
            "position": {
                "x": 27.269672393798829,
                "y": 1.4061270952224732,
                "z": -28.299535751342775
            },
            "rotation": {
                "x": 0.00028147484408691525,
                "y": -0.9994037747383118,
                "z": -0.00840007048100233,
                "w": -0.03348865360021591
            },
            "time": 0.9270009994506836
        },
        {
            "position": {
                "x": 27.276458740234376,
                "y": 1.4078314304351807,
                "z": -28.40068817138672
            },
            "rotation": {
                "x": 0.00038716758717782795,
                "y": -0.9990312457084656,
                "z": -0.008978397585451603,
                "w": -0.043080348521471027
            },
            "time": 0.9438999891281128
        },
        {
            "position": {
                "x": 27.285066604614259,
                "y": 1.4096288681030274,
                "z": -28.500308990478517
            },
            "rotation": {
                "x": 0.0005493624485097826,
                "y": -0.9983978867530823,
                "z": -0.009843997657299042,
                "w": -0.055717434734106067
            },
            "time": 0.9605678915977478
        },
        {
            "position": {
                "x": 27.296598434448243,
                "y": 1.411672830581665,
                "z": -28.603309631347658
            },
            "rotation": {
                "x": 0.0006545550422742963,
                "y": -0.997978687286377,
                "z": -0.010420727543532849,
                "w": -0.06268583238124848
            },
            "time": 0.977845311164856
        },
        {
            "position": {
                "x": 27.309301376342775,
                "y": 1.4137929677963257,
                "z": -28.704023361206056
            },
            "rotation": {
                "x": 0.0007335325353778899,
                "y": -0.9976040124893189,
                "z": -0.010707021690905095,
                "w": -0.0683453381061554
            },
            "time": 0.9947676062583923
        },
        {
            "position": {
                "x": 27.323118209838868,
                "y": 1.4159680604934693,
                "z": -28.80439567565918
            },
            "rotation": {
                "x": 0.0008097497629933059,
                "y": -0.9971663355827332,
                "z": -0.01084736455231905,
                "w": -0.07443791627883911
            },
            "time": 1.011657953262329
        },
        {
            "position": {
                "x": 27.338340759277345,
                "y": 1.418198823928833,
                "z": -28.905780792236329
            },
            "rotation": {
                "x": 0.0008192163077183068,
                "y": -0.9971010088920593,
                "z": -0.010846653953194619,
                "w": -0.07530815154314041
            },
            "time": 1.0287491083145142
        },
        {
            "position": {
                "x": 27.353588104248048,
                "y": 1.4204075336456299,
                "z": -29.006139755249025
            },
            "rotation": {
                "x": 0.0008541466086171567,
                "y": -0.9969327449798584,
                "z": -0.01098982896655798,
                "w": -0.0774831622838974
            },
            "time": 1.0456714630126954
        },
        {
            "position": {
                "x": 27.369020462036134,
                "y": 1.4226099252700806,
                "z": -29.104820251464845
            },
            "rotation": {
                "x": 0.0008541466086171567,
                "y": -0.9969327449798584,
                "z": -0.01098982896655798,
                "w": -0.0774831622838974
            },
            "time": 1.0623221397399903
        },
        {
            "position": {
                "x": 27.38446617126465,
                "y": 1.4248143434524537,
                "z": -29.203590393066408
            },
            "rotation": {
                "x": 0.0008541466086171567,
                "y": -0.9969327449798584,
                "z": -0.01098982896655798,
                "w": -0.0774831622838974
            },
            "time": 1.0789880752563477
        },
        {
            "position": {
                "x": 27.39991569519043,
                "y": 1.4270190000534058,
                "z": -29.30237579345703
            },
            "rotation": {
                "x": 0.0008541466086171567,
                "y": -0.9969327449798584,
                "z": -0.01098982896655798,
                "w": -0.0774831622838974
            },
            "time": 1.0956566333770753
        },
        {
            "position": {
                "x": 27.415481567382814,
                "y": 1.429240345954895,
                "z": -29.40190887451172
            },
            "rotation": {
                "x": 0.0008541466086171567,
                "y": -0.9969327449798584,
                "z": -0.01098982896655798,
                "w": -0.0774831622838974
            },
            "time": 1.1124510765075684
        },
        {
            "position": {
                "x": 27.431215286254884,
                "y": 1.4314857721328736,
                "z": -29.502521514892579
            },
            "rotation": {
                "x": 0.0008541466086171567,
                "y": -0.9969327449798584,
                "z": -0.01098982896655798,
                "w": -0.0774831622838974
            },
            "time": 1.1294279098510743
        },
        {
            "position": {
                "x": 27.446958541870118,
                "y": 1.4337326288223267,
                "z": -29.603193283081056
            },
            "rotation": {
                "x": 0.0008541466086171567,
                "y": -0.9969327449798584,
                "z": -0.01098982896655798,
                "w": -0.0774831622838974
            },
            "time": 1.1464147567749024
        },
        {
            "position": {
                "x": 27.46265983581543,
                "y": 1.4359734058380128,
                "z": -29.703596115112306
            },
            "rotation": {
                "x": 0.0008541466086171567,
                "y": -0.9969327449798584,
                "z": -0.01098982896655798,
                "w": -0.0774831622838974
            },
            "time": 1.163356065750122
        },
        {
            "position": {
                "x": 27.478492736816408,
                "y": 1.4382327795028687,
                "z": -29.804832458496095
            },
            "rotation": {
                "x": 0.0008541466086171567,
                "y": -0.9969327449798584,
                "z": -0.01098982896655798,
                "w": -0.0774831622838974
            },
            "time": 1.1804379224777222
        },
        {
            "position": {
                "x": 27.494169235229493,
                "y": 1.4404698610305787,
                "z": -29.905071258544923
            },
            "rotation": {
                "x": 0.0008541466086171567,
                "y": -0.9969327449798584,
                "z": -0.01098982896655798,
                "w": -0.0774831622838974
            },
            "time": 1.1973515748977662
        },
        {
            "position": {
                "x": 27.50961685180664,
                "y": 1.4426743984222413,
                "z": -30.003849029541017
            },
            "rotation": {
                "x": 0.0008541466086171567,
                "y": -0.9969327449798584,
                "z": -0.01098982896655798,
                "w": -0.0774831622838974
            },
            "time": 1.2140188217163087
        },
        {
            "position": {
                "x": 27.52506446838379,
                "y": 1.4448789358139039,
                "z": -30.102628707885743
            },
            "rotation": {
                "x": 0.0008541466086171567,
                "y": -0.9969327449798584,
                "z": -0.01098982896655798,
                "w": -0.0774831622838974
            },
            "time": 1.2306863069534302
        },
        {
            "position": {
                "x": 27.540512084960939,
                "y": 1.4470833539962769,
                "z": -30.20140266418457
            },
            "rotation": {
                "x": 0.0008541466086171567,
                "y": -0.9969327449798584,
                "z": -0.01098982896655798,
                "w": -0.0774831622838974
            },
            "time": 1.2473527193069459
        },
        {
            "position": {
                "x": 27.555959701538087,
                "y": 1.4492878913879395,
                "z": -30.30017852783203
            },
            "rotation": {
                "x": 0.0008541466086171567,
                "y": -0.9969327449798584,
                "z": -0.01098982896655798,
                "w": -0.0774831622838974
            },
            "time": 1.2640196084976197
        },
        {
            "position": {
                "x": 27.571748733520509,
                "y": 1.4515410661697388,
                "z": -30.401134490966798
            },
            "rotation": {
                "x": 0.0008541466086171567,
                "y": -0.9969327449798584,
                "z": -0.01098982896655798,
                "w": -0.0774831622838974
            },
            "time": 1.2810542583465577
        },
        {
            "position": {
                "x": 27.587512969970704,
                "y": 1.4537906646728516,
                "z": -30.501934051513673
            },
            "rotation": {
                "x": 0.0008541466086171567,
                "y": -0.9969327449798584,
                "z": -0.01098982896655798,
                "w": -0.0774831622838974
            },
            "time": 1.2980623245239258
        },
        {
            "position": {
                "x": 27.603267669677736,
                "y": 1.4560391902923585,
                "z": -30.602680206298829
            },
            "rotation": {
                "x": 0.0008541466086171567,
                "y": -0.9969327449798584,
                "z": -0.01098982896655798,
                "w": -0.0774831622838974
            },
            "time": 1.3150616884231568
        },
        {
            "position": {
                "x": 27.61871337890625,
                "y": 1.4582436084747315,
                "z": -30.701452255249025
            },
            "rotation": {
                "x": 0.0008541466086171567,
                "y": -0.9969327449798584,
                "z": -0.01098982896655798,
                "w": -0.0774831622838974
            },
            "time": 1.3317277431488038
        },
        {
            "position": {
                "x": 27.6341609954834,
                "y": 1.460448145866394,
                "z": -30.800228118896486
            },
            "rotation": {
                "x": 0.0008502827258780599,
                "y": -0.9967991709709168,
                "z": -0.010698382742702961,
                "w": -0.07922329753637314
            },
            "time": 1.3483946323394776
        },
        {
            "position": {
                "x": 27.649953842163087,
                "y": 1.4625943899154664,
                "z": -30.898948669433595
            },
            "rotation": {
                "x": 0.0008240086608566344,
                "y": -0.9964529275894165,
                "z": -0.009824820794165135,
                "w": -0.08357260376214981
            },
            "time": 1.3650612831115723
        },
        {
            "position": {
                "x": 27.666791915893556,
                "y": 1.4645880460739136,
                "z": -30.998628616333009
            },
            "rotation": {
                "x": 0.0008036253857426345,
                "y": -0.9961985945701599,
                "z": -0.009242729283869267,
                "w": -0.08661624044179917
            },
            "time": 1.381913185119629
        },
        {
            "position": {
                "x": 27.68404769897461,
                "y": 1.466443419456482,
                "z": -31.097108840942384
            },
            "rotation": {
                "x": 0.0007910081185400486,
                "y": -0.9958164095878601,
                "z": -0.00865959096699953,
                "w": -0.09096258878707886
            },
            "time": 1.398579478263855
        },
        {
            "position": {
                "x": 27.70272445678711,
                "y": 1.4682363271713257,
                "z": -31.198484420776368
            },
            "rotation": {
                "x": 0.00076274573802948,
                "y": -0.9955387115478516,
                "z": -0.008077753707766533,
                "w": -0.09400422126054764
            },
            "time": 1.4157624244689942
        },
        {
            "position": {
                "x": 27.721784591674806,
                "y": 1.4698888063430787,
                "z": -31.29850959777832
            },
            "rotation": {
                "x": 0.0007211460033431649,
                "y": -0.9953777194023132,
                "z": -0.007497359067201614,
                "w": -0.09574206918478012
            },
            "time": 1.4327353239059449
        },
        {
            "position": {
                "x": 27.74102210998535,
                "y": 1.4714093208312989,
                "z": -31.397584915161134
            },
            "rotation": {
                "x": 0.0006865531904622912,
                "y": -0.995084822177887,
                "z": -0.006916002836078405,
                "w": -0.09878229349851608
            },
            "time": 1.449558138847351
        },
        {
            "position": {
                "x": 27.76121711730957,
                "y": 1.472837209701538,
                "z": -31.498302459716798
            },
            "rotation": {
                "x": 0.000663603306747973,
                "y": -0.9950001835823059,
                "z": -0.006625985726714134,
                "w": -0.09965088963508606
            },
            "time": 1.4666800498962403
        },
        {
            "position": {
                "x": 27.78104591369629,
                "y": 1.4741690158843995,
                "z": -31.596303939819337
            },
            "rotation": {
                "x": 0.000663248763885349,
                "y": -0.9947813749313355,
                "z": -0.006479845382273197,
                "w": -0.10182148963212967
            },
            "time": 1.4833461046218873
        },
        {
            "position": {
                "x": 27.801305770874025,
                "y": 1.4754718542099,
                "z": -31.694231033325197
            },
            "rotation": {
                "x": 0.0006452224333770573,
                "y": -0.9943303465843201,
                "z": -0.006043294910341501,
                "w": -0.10616133362054825
            },
            "time": 1.5000141859054566
        },
        {
            "position": {
                "x": 27.82245445251465,
                "y": 1.4766894578933716,
                "z": -31.792142868041993
            },
            "rotation": {
                "x": 0.0006394440424628556,
                "y": -0.9938594102859497,
                "z": -0.005751338321715593,
                "w": -0.1104990616440773
            },
            "time": 1.5167102813720704
        },
        {
            "position": {
                "x": 27.844758987426759,
                "y": 1.4778647422790528,
                "z": -31.891206741333009
            },
            "rotation": {
                "x": 0.0006871017394587398,
                "y": -0.9929091930389404,
                "z": -0.005745839327573776,
                "w": -0.11873454600572586
            },
            "time": 1.5336354970932007
        },
        {
            "position": {
                "x": 27.86873435974121,
                "y": 1.479041576385498,
                "z": -31.990015029907228
            },
            "rotation": {
                "x": 0.0006869393400847912,
                "y": -0.9925427436828613,
                "z": -0.00559936324134469,
                "w": -0.1217668205499649
            },
            "time": 1.5505826473236085
        },
        {
            "position": {
                "x": 27.89290428161621,
                "y": 1.4801697731018067,
                "z": -32.087039947509769
            },
            "rotation": {
                "x": 0.0006923797191120684,
                "y": -0.9910998344421387,
                "z": -0.005158787593245506,
                "w": -0.1330191195011139
            },
            "time": 1.5672489404678345
        },
        {
            "position": {
                "x": 27.91927146911621,
                "y": 1.4812108278274537,
                "z": -32.18349838256836
            },
            "rotation": {
                "x": 0.0006940769962966442,
                "y": -0.9899644255638123,
                "z": -0.004865155089646578,
                "w": -0.14123116433620454
            },
            "time": 1.5839157104492188
        },
        {
            "position": {
                "x": 27.947233200073243,
                "y": 1.4821937084197999,
                "z": -32.279502868652347
            },
            "rotation": {
                "x": 0.0006849359488114715,
                "y": -0.9889557361602783,
                "z": -0.00457253260537982,
                "w": -0.14813919365406037
            },
            "time": 1.6005818843841553
        },
        {
            "position": {
                "x": 27.977035522460939,
                "y": 1.4831342697143555,
                "z": -32.37675094604492
            },
            "rotation": {
                "x": 0.0007148480508476496,
                "y": -0.9879649877548218,
                "z": -0.004567951895296574,
                "w": -0.15460863709449769
            },
            "time": 1.6175346374511719
        },
        {
            "position": {
                "x": 28.00821304321289,
                "y": 1.484078049659729,
                "z": -32.47392654418945
            },
            "rotation": {
                "x": 0.0007407473167404532,
                "y": -0.9870721101760864,
                "z": -0.0045638238079845909,
                "w": -0.16021017730236054
            },
            "time": 1.6345442533493043
        },
        {
            "position": {
                "x": 28.03980827331543,
                "y": 1.485001802444458,
                "z": -32.568695068359378
            },
            "rotation": {
                "x": 0.0007579188677482307,
                "y": -0.985563337802887,
                "z": -0.00441350881010294,
                "w": -0.16924788057804109
            },
            "time": 1.6511945724487305
        },
        {
            "position": {
                "x": 28.074068069458009,
                "y": 1.4859216213226319,
                "z": -32.665504455566409
            },
            "rotation": {
                "x": 0.0007482056389562786,
                "y": -0.9849671721458435,
                "z": -0.0042675877921283249,
                "w": -0.17268726229667664
            },
            "time": 1.6683106422424317
        },
        {
            "position": {
                "x": 28.10808563232422,
                "y": 1.4867881536483765,
                "z": -32.75953674316406
            },
            "rotation": {
                "x": 0.0007536635966971517,
                "y": -0.9836597442626953,
                "z": -0.00411886116489768,
                "w": -0.17998871207237245
            },
            "time": 1.6849775314331055
        },
        {
            "position": {
                "x": 28.143495559692384,
                "y": 1.4876255989074708,
                "z": -32.85305404663086
            },
            "rotation": {
                "x": 0.0007863867213018239,
                "y": -0.9808820486068726,
                "z": -0.00396457314491272,
                "w": -0.19456131756305695
            },
            "time": 1.7016441822052003
        },
        {
            "position": {
                "x": 28.089231491088868,
                "y": 1.4884339570999146,
                "z": -32.9836540222168
            },
            "rotation": {
                "x": 0.0008278596214950085,
                "y": -0.9787908792495728,
                "z": -0.003956120926886797,
                "w": -0.20482221245765687
            },
            "time": 1.7183116674423218
        },
        {
            "position": {
                "x": 28.037038803100587,
                "y": 1.4892529249191285,
                "z": -33.11709213256836
            },
            "rotation": {
                "x": 0.0007785335183143616,
                "y": -0.976405918598175,
                "z": -0.003520695958286524,
                "w": -0.21591320633888246
            },
            "time": 1.7351980209350587
        },
        {
            "position": {
                "x": 27.98784828186035,
                "y": 1.489984154701233,
                "z": -33.25178527832031
            },
            "rotation": {
                "x": 0.0007552198367193341,
                "y": -0.973696231842041,
                "z": -0.0032277023419737818,
                "w": -0.2278260588645935
            },
            "time": 1.7520973682403565
        },
        {
            "position": {
                "x": 27.942598342895509,
                "y": 1.4906470775604249,
                "z": -33.38576126098633
            },
            "rotation": {
                "x": 0.0006666633998975158,
                "y": -0.9697867631912231,
                "z": -0.002650341484695673,
                "w": -0.2439388781785965
            },
            "time": 1.7687631845474244
        },
        {
            "position": {
                "x": 27.90043830871582,
                "y": 1.4912121295928956,
                "z": -33.52573776245117
            },
            "rotation": {
                "x": 0.0005456632352434099,
                "y": -0.9672912955284119,
                "z": -0.0020808049011975528,
                "w": -0.2536592185497284
            },
            "time": 1.785991907119751
        },
        {
            "position": {
                "x": 27.86175537109375,
                "y": 1.4916493892669678,
                "z": -33.6641731262207
            },
            "rotation": {
                "x": 0.00041192976641468704,
                "y": -0.9649274945259094,
                "z": -0.0015141497133299709,
                "w": -0.2625119090080261
            },
            "time": 1.802931547164917
        },
        {
            "position": {
                "x": 27.825462341308595,
                "y": 1.4919697046279908,
                "z": -33.80388259887695
            },
            "rotation": {
                "x": 0.0003078739682678133,
                "y": -0.9623636603355408,
                "z": -0.0010902408976107836,
                "w": -0.2717626392841339
            },
            "time": 1.8199431896209717
        },
        {
            "position": {
                "x": 27.791946411132814,
                "y": 1.4922003746032715,
                "z": -33.94389724731445
            },
            "rotation": {
                "x": 0.00015509349759668112,
                "y": -0.9595884084701538,
                "z": -0.0005288642132654786,
                "w": -0.2814067006111145
            },
            "time": 1.8369102478027344
        },
        {
            "position": {
                "x": 27.76178741455078,
                "y": 1.492310643196106,
                "z": -34.08208465576172
            },
            "rotation": {
                "x": -0.000008950377377914265,
                "y": -0.9569697976112366,
                "z": 0.000029516222639358602,
                "w": -0.2901875674724579
            },
            "time": 1.8535791635513306
        },
        {
            "position": {
                "x": 27.734169006347658,
                "y": 1.4923044443130494,
                "z": -34.22078323364258
            },
            "rotation": {
                "x": 0.00018339410598855466,
                "y": 0.9541399478912354,
                "z": -0.0005845250561833382,
                "w": 0.29936036467552187
            },
            "time": 1.8702460527420045
        },
        {
            "position": {
                "x": 27.70922088623047,
                "y": 1.4921818971633912,
                "z": -34.35997772216797
            },
            "rotation": {
                "x": 0.0003694691404234618,
                "y": 0.9509522914886475,
                "z": -0.001135814469307661,
                "w": 0.309335321187973
            },
            "time": 1.8869118690490723
        },
        {
            "position": {
                "x": 27.687009811401368,
                "y": 1.4919410943984986,
                "z": -34.500816345214847
            },
            "rotation": {
                "x": 0.0006693582399748266,
                "y": 0.9461162090301514,
                "z": -0.0019556828774511816,
                "w": 0.32382073998451235
            },
            "time": 1.9037150144577027
        },
        {
            "position": {
                "x": 27.669267654418947,
                "y": 1.4915279150009156,
                "z": -34.64102554321289
            },
            "rotation": {
                "x": 0.0008343798108398914,
                "y": 0.9428179264068604,
                "z": -0.0023602491710335018,
                "w": 0.33329880237579348
            },
            "time": 1.9203705787658692
        },
        {
            "position": {
                "x": 27.654338836669923,
                "y": 1.4910274744033814,
                "z": -34.7816047668457
            },
            "rotation": {
                "x": 0.001001546741463244,
                "y": 0.9401700496673584,
                "z": -0.0027638503815978767,
                "w": 0.340692937374115
            },
            "time": 1.9370312690734864
        },
        {
            "position": {
                "x": 27.641611099243165,
                "y": 1.4904394149780274,
                "z": -34.9224853515625
            },
            "rotation": {
                "x": 0.0011257926234975458,
                "y": 0.9373124837875366,
                "z": -0.0030281057115644218,
                "w": 0.3484750986099243
            },
            "time": 1.9537022113800049
        },
        {
            "position": {
                "x": 27.63111114501953,
                "y": 1.4897863864898682,
                "z": -35.06503677368164
            },
            "rotation": {
                "x": 0.001376739121042192,
                "y": 0.9325113892555237,
                "z": -0.0035551153123378755,
                "w": 0.36112046241760256
            },
            "time": 1.9705479145050049
        },
        {
            "position": {
                "x": 27.624462127685548,
                "y": 1.4890146255493165,
                "z": -35.2080192565918
            },
            "rotation": {
                "x": 0.0015757124638184906,
                "y": 0.9286770820617676,
                "z": -0.0039457157254219059,
                "w": 0.3708650469779968
            },
            "time": 1.987417221069336
        },
        {
            "position": {
                "x": 27.620779037475587,
                "y": 1.488147497177124,
                "z": -35.35228729248047
            },
            "rotation": {
                "x": 0.0017905577551573516,
                "y": 0.924075186252594,
                "z": -0.0043293749913573269,
                "w": 0.38218215107917788
            },
            "time": 2.004425287246704
        },
        {
            "position": {
                "x": 27.620620727539064,
                "y": 1.487196922302246,
                "z": -35.495750427246097
            },
            "rotation": {
                "x": 0.001969733973965049,
                "y": 0.918302595615387,
                "z": -0.004569460172206163,
                "w": 0.39584803581237795
            },
            "time": 2.0213327407836916
        },
        {
            "position": {
                "x": 27.62466049194336,
                "y": 1.4862018823623658,
                "z": -35.63709259033203
            },
            "rotation": {
                "x": 0.0023350745905190708,
                "y": 0.9074398279190064,
                "z": -0.005043349228799343,
                "w": 0.4201453626155853
            },
            "time": 2.0379974842071535
        },
        {
            "position": {
                "x": 27.636964797973634,
                "y": 1.485018253326416,
                "z": -35.78718185424805
            },
            "rotation": {
                "x": 0.0029431404545903208,
                "y": 0.8990094065666199,
                "z": -0.006042580585926771,
                "w": 0.4378776550292969
            },
            "time": 2.0557456016540529
        },
        {
            "position": {
                "x": 27.65635871887207,
                "y": 1.4834915399551392,
                "z": -35.946617126464847
            },
            "rotation": {
                "x": 0.0033827871084213259,
                "y": 0.886227011680603,
                "z": -0.00647227605804801,
                "w": 0.4631936848163605
            },
            "time": 2.074674606323242
        },
        {
            "position": {
                "x": 27.68573570251465,
                "y": 1.4817757606506348,
                "z": -36.11012649536133
            },
            "rotation": {
                "x": 0.0034447999205440284,
                "y": 0.8765432834625244,
                "z": -0.006274060346186161,
                "w": 0.481269896030426
            },
            "time": 2.0942537784576418
        },
        {
            "position": {
                "x": 27.71706771850586,
                "y": 1.4803144931793213,
                "z": -36.25104522705078
            },
            "rotation": {
                "x": 0.0035635712556540968,
                "y": 0.8612163662910461,
                "z": -0.006039089988917112,
                "w": 0.5081901550292969
            },
            "time": 2.111267566680908
        },
        {
            "position": {
                "x": 27.76339340209961,
                "y": 1.4786564111709595,
                "z": -36.41169357299805
            },
            "rotation": {
                "x": 0.0038558440282940866,
                "y": 0.8492331504821777,
                "z": -0.0062021054327487949,
                "w": 0.5279675722122192
            },
            "time": 2.1309726238250734
        },
        {
            "position": {
                "x": 27.818464279174806,
                "y": 1.4768855571746827,
                "z": -36.57406234741211
            },
            "rotation": {
                "x": 0.00430749636143446,
                "y": 0.8307732939720154,
                "z": -0.006429803557693958,
                "w": 0.5565571784973145
            },
            "time": 2.1511800289154054
        },
        {
            "position": {
                "x": 27.887161254882814,
                "y": 1.4749318361282349,
                "z": -36.73881149291992
            },
            "rotation": {
                "x": 0.00420386390760541,
                "y": 0.8176842331886292,
                "z": -0.005971698556095362,
                "w": 0.575620710849762
            },
            "time": 2.17221736907959
        },
        {
            "position": {
                "x": 27.967357635498048,
                "y": 1.4729926586151124,
                "z": -36.9085807800293
            },
            "rotation": {
                "x": 0.004769215360283852,
                "y": 0.7963026762008667,
                "z": -0.006278842221945524,
                "w": 0.6048470139503479
            },
            "time": 2.1943459510803224
        },
        {
            "position": {
                "x": 28.051332473754884,
                "y": 1.4710872173309327,
                "z": -37.05739974975586
            },
            "rotation": {
                "x": 0.005180404521524906,
                "y": 0.7736022472381592,
                "z": -0.006324895657598972,
                "w": 0.6336187720298767
            },
            "time": 2.2144851684570314
        },
        {
            "position": {
                "x": 28.174545288085939,
                "y": 1.468515157699585,
                "z": -37.24260711669922
            },
            "rotation": {
                "x": 0.005041193217039108,
                "y": 0.7478439211845398,
                "z": -0.005679192952811718,
                "w": 0.6638312339782715
            },
            "time": 2.2407028675079347
        },
        {
            "position": {
                "x": 28.262096405029298,
                "y": 1.4669941663742066,
                "z": -37.35392379760742
            },
            "rotation": {
                "x": 0.004991727415472269,
                "y": 0.7299139499664307,
                "z": -0.005330696236342192,
                "w": 0.6835000514984131
            },
            "time": 2.2573940753936769
        },
        {
            "position": {
                "x": 28.399076461791993,
                "y": 1.4648478031158448,
                "z": -37.51020050048828
            },
            "rotation": {
                "x": 0.005080477334558964,
                "y": 0.7043784856796265,
                "z": -0.005041753873229027,
                "w": 0.7097885012626648
            },
            "time": 2.281886100769043
        },
        {
            "position": {
                "x": 28.52268409729004,
                "y": 1.4630916118621827,
                "z": -37.63194274902344
            },
            "rotation": {
                "x": 0.004812684375792742,
                "y": 0.6814193725585938,
                "z": -0.004480966366827488,
                "w": 0.7318636178970337
            },
            "time": 2.3023335933685304
        },
        {
            "position": {
                "x": 28.6595401763916,
                "y": 1.4614074230194092,
                "z": -37.75054931640625
            },
            "rotation": {
                "x": 0.0046119485050439838,
                "y": 0.6600653529167175,
                "z": -0.004052523989230394,
                "w": 0.7511830925941467
            },
            "time": 2.3236773014068605
        },
        {
            "position": {
                "x": 28.832754135131837,
                "y": 1.4595087766647339,
                "z": -37.884010314941409
            },
            "rotation": {
                "x": 0.004709583707153797,
                "y": 0.6415152549743652,
                "z": -0.003938633948564529,
                "w": 0.7670857310295105
            },
            "time": 2.3494482040405275
        },
        {
            "position": {
                "x": 28.969751358032228,
                "y": 1.4580599069595338,
                "z": -37.97927474975586
            },
            "rotation": {
                "x": 0.004695473704487085,
                "y": 0.621557891368866,
                "z": -0.003725698683410883,
                "w": 0.7833453416824341
            },
            "time": 2.3691139221191408
        },
        {
            "position": {
                "x": 29.175127029418947,
                "y": 1.4560099840164185,
                "z": -38.106929779052737
            },
            "rotation": {
                "x": 0.005736448802053928,
                "y": 0.5980408191680908,
                "z": -0.004280616994947195,
                "w": 0.8014336824417114
            },
            "time": 2.397613286972046
        },
        {
            "position": {
                "x": 29.351896286010743,
                "y": 1.4539746046066285,
                "z": -38.20276641845703
            },
            "rotation": {
                "x": 0.00623526144772768,
                "y": 0.5707802772521973,
                "z": -0.0043345564045012,
                "w": 0.821067750453949
            },
            "time": 2.421311616897583
        },
        {
            "position": {
                "x": 29.566404342651368,
                "y": 1.4514405727386475,
                "z": -38.30104446411133
            },
            "rotation": {
                "x": 0.0073956758715212349,
                "y": 0.5355234146118164,
                "z": -0.00468996400013566,
                "w": 0.8444750308990479
            },
            "time": 2.449120044708252
        },
        {
            "position": {
                "x": 29.63768196105957,
                "y": 1.4514405727386475,
                "z": -38.45225143432617
            },
            "rotation": {
                "x": 0.007845420390367508,
                "y": 0.4981769323348999,
                "z": -0.004507820121943951,
                "w": 0.8670282363891602
            },
            "time": 2.4769809246063234
        },
        {
            "position": {
                "x": 29.711505889892579,
                "y": 1.4514405727386475,
                "z": -38.57889938354492
            },
            "rotation": {
                "x": 0.007587549276649952,
                "y": 0.47300705313682558,
                "z": -0.004073662683367729,
                "w": 0.8810165524482727
            },
            "time": 2.501413106918335
        },
        {
            "position": {
                "x": 29.799163818359376,
                "y": 1.4514405727386475,
                "z": -38.711143493652347
            },
            "rotation": {
                "x": 0.007316282019019127,
                "y": 0.44627365469932558,
                "z": -0.0036486899480223657,
                "w": 0.894859254360199
            },
            "time": 2.5278561115264894
        },
        {
            "position": {
                "x": 29.799163818359376,
                "y": 1.4514405727386475,
                "z": -38.711143493652347
            },
            "rotation": {
                "x": 0.007556368131190538,
                "y": 0.4187373220920563,
                "z": -0.0034844623878598215,
                "w": 0.9080693125724793
            },
            "time": 2.5577056407928469
        },
        {
            "position": {
                "x": 29.799163818359376,
                "y": 1.4514405727386475,
                "z": -38.711143493652347
            },
            "rotation": {
                "x": 0.00801229476928711,
                "y": 0.4036226272583008,
                "z": -0.00353481387719512,
                "w": 0.9148836731910706
            },
            "time": 2.583845376968384
        },
        {
            "position": {
                "x": 29.799163818359376,
                "y": 1.4514405727386475,
                "z": -38.711143493652347
            },
            "rotation": {
                "x": 0.008191699162125588,
                "y": 0.39161205291748049,
                "z": -0.003486590925604105,
                "w": 0.9200873374938965
            },
            "time": 2.6144654750823976
        },
        {
            "position": {
                "x": 29.799163818359376,
                "y": 1.4514405727386475,
                "z": -38.711143493652347
            },
            "rotation": {
                "x": 0.007960373535752297,
                "y": 0.3815533518791199,
                "z": -0.003286038525402546,
                "w": 0.9243066906929016
            },
            "time": 2.6449391841888429
        },
        {
            "position": {
                "x": 29.799163818359376,
                "y": 1.4514405727386475,
                "z": -38.711143493652347
            },
            "rotation": {
                "x": 0.007186800707131624,
                "y": 0.3710457384586334,
                "z": -0.002871723612770438,
                "w": 0.9285823702812195
            },
            "time": 2.6750595569610597
        },
        {
            "position": {
                "x": 29.799163818359376,
                "y": 1.4514405727386475,
                "z": -38.711143493652347
            },
            "rotation": {
                "x": 0.00705787492915988,
                "y": 0.36901938915252688,
                "z": -0.002802365692332387,
                "w": 0.9293906688690186
            },
            "time": 2.706301212310791
        },
        {
            "position": {
                "x": 29.799163818359376,
                "y": 1.4514405727386475,
                "z": -38.711143493652347
            },
            "rotation": {
                "x": 0.00705787492915988,
                "y": 0.36901935935020449,
                "z": -0.0028023654595017435,
                "w": 0.9293906688690186
            },
            "time": 2.735820770263672
        },
        {
            "position": {
                "x": 29.799163818359376,
                "y": 1.4514405727386475,
                "z": -38.711143493652347
            },
            "rotation": {
                "x": 0.00705787492915988,
                "y": 0.36901935935020449,
                "z": -0.0028023654595017435,
                "w": 0.9293906688690186
            },
            "time": 2.767777681350708
        },
        {
            "position": {
                "x": 29.799163818359376,
                "y": 1.4514405727386475,
                "z": -38.711143493652347
            },
            "rotation": {
                "x": 0.00705787492915988,
                "y": 0.36901935935020449,
                "z": -0.0028023654595017435,
                "w": 0.9293906688690186
            },
            "time": 2.7998781204223635
        },
        {
            "position": {
                "x": 29.799163818359376,
                "y": 1.4514405727386475,
                "z": -38.711143493652347
            },
            "rotation": {
                "x": 0.00705787492915988,
                "y": 0.36901935935020449,
                "z": -0.0028023654595017435,
                "w": 0.9293906688690186
            },
            "time": 2.8312032222747804
        },
        {
            "position": {
                "x": 29.799163818359376,
                "y": 1.4514405727386475,
                "z": -38.711143493652347
            },
            "rotation": {
                "x": 0.00705787492915988,
                "y": 0.36901935935020449,
                "z": -0.0028023654595017435,
                "w": 0.9293906688690186
            },
            "time": 2.860555648803711
        },
        {
            "position": {
                "x": 29.799163818359376,
                "y": 1.4514405727386475,
                "z": -38.711143493652347
            },
            "rotation": {
                "x": 0.00705787492915988,
                "y": 0.36901935935020449,
                "z": -0.0028023654595017435,
                "w": 0.9293906688690186
            },
            "time": 2.891977310180664
        },
        {
            "position": {
                "x": 29.799163818359376,
                "y": 1.4514405727386475,
                "z": -38.711143493652347
            },
            "rotation": {
                "x": 0.00705787492915988,
                "y": 0.36901935935020449,
                "z": -0.0028023654595017435,
                "w": 0.9293906688690186
            },
            "time": 2.9217607975006105
        },
        {
            "position": {
                "x": 29.799163818359376,
                "y": 1.4514405727386475,
                "z": -38.711143493652347
            },
            "rotation": {
                "x": 0.00705787492915988,
                "y": 0.36901935935020449,
                "z": -0.0028023654595017435,
                "w": 0.9293906688690186
            },
            "time": 2.9545819759368898
        }
    ]
}