%YAML 1.1
%TAG !u! tag:unity3d.com,2011:
--- !u!114 &11400000
MonoBehaviour:
  m_ObjectHideFlags: 0
  m_CorrespondingSourceObject: {fileID: 0}
  m_PrefabInstance: {fileID: 0}
  m_PrefabAsset: {fileID: 0}
  m_GameObject: {fileID: 0}
  m_Enabled: 1
  m_EditorHideFlags: 0
  m_Script: {fileID: 11500000, guid: 9893f61b59b4158438940bc7e31fb92a, type: 3}
  m_Name: TestItem
  m_EditorClassIdentifier: 
  nom: Unknown book
  description: You can't seem to understand what language it is written in
  sprite: {fileID: 21300000, guid: 2f446c9444b48934ab3c90f2e12b8873, type: 3}
  cursorTexture: {fileID: 2800000, guid: d45d2e55989ae5c40a584722531eafcc, type: 3}
