{
    "transformations": [
        {
            "position": {
                "x": -58.55800247192383,
                "y": 1.757921576499939,
                "z": 33.788753509521487
            },
            "rotation": {
                "x": -0.008415432646870613,
                "y": -0.16446612775325776,
                "z": -0.001403213245794177,
                "w": 0.9863458275794983
            },
            "time": 0.01691420003771782
        },
        {
            "position": {
                "x": -58.55800247192383,
                "y": 1.757921576499939,
                "z": 33.788753509521487
            },
            "rotation": {
                "x": -0.008415432646870613,
                "y": -0.16446612775325776,
                "z": -0.001403213245794177,
                "w": 0.9863458275794983
            },
            "time": 0.03402630239725113
        },
        {
            "position": {
                "x": -58.55800247192383,
                "y": 1.757921576499939,
                "z": 33.788753509521487
            },
            "rotation": {
                "x": -0.008415432646870613,
                "y": -0.16446612775325776,
                "z": -0.001403213245794177,
                "w": 0.9863458275794983
            },
            "time": 0.05109010264277458
        },
        {
            "position": {
                "x": -58.55800247192383,
                "y": 1.757921576499939,
                "z": 33.788753509521487
            },
            "rotation": {
                "x": -0.008415432646870613,
                "y": -0.16446612775325776,
                "z": -0.001403213245794177,
                "w": 0.9863458275794983
            },
            "time": 0.06799450516700745
        },
        {
            "position": {
                "x": -58.55800247192383,
                "y": 1.757921576499939,
                "z": 33.788753509521487
            },
            "rotation": {
                "x": -0.008415432646870613,
                "y": -0.16446612775325776,
                "z": -0.001403213245794177,
                "w": 0.9863458275794983
            },
            "time": 0.08500220626592636
        },
        {
            "position": {
                "x": -58.55800247192383,
                "y": 1.757921576499939,
                "z": 33.788753509521487
            },
            "rotation": {
                "x": -0.008415432646870613,
                "y": -0.16446612775325776,
                "z": -0.001403213245794177,
                "w": 0.9863458275794983
            },
            "time": 0.10177630186080933
        },
        {
            "position": {
                "x": -58.55800247192383,
                "y": 1.757921576499939,
                "z": 33.788753509521487
            },
            "rotation": {
                "x": -0.008415432646870613,
                "y": -0.16446612775325776,
                "z": -0.001403213245794177,
                "w": 0.9863458275794983
            },
            "time": 0.11844269931316376
        },
        {
            "position": {
                "x": -58.55800247192383,
                "y": 1.757921576499939,
                "z": 33.788753509521487
            },
            "rotation": {
                "x": -0.008415432646870613,
                "y": -0.16446612775325776,
                "z": -0.001403213245794177,
                "w": 0.9863458275794983
            },
            "time": 0.13511019945144654
        },
        {
            "position": {
                "x": -58.55800247192383,
                "y": 1.757921576499939,
                "z": 33.788753509521487
            },
            "rotation": {
                "x": -0.008415432646870613,
                "y": -0.16446612775325776,
                "z": -0.001403213245794177,
                "w": 0.9863458275794983
            },
            "time": 0.1518286019563675
        },
        {
            "position": {
                "x": -58.55800247192383,
                "y": 1.757921576499939,
                "z": 33.788753509521487
            },
            "rotation": {
                "x": -0.008415432646870613,
                "y": -0.16446612775325776,
                "z": -0.001403213245794177,
                "w": 0.9863458275794983
            },
            "time": 0.16849569976329804
        },
        {
            "position": {
                "x": -58.55800247192383,
                "y": 1.757921576499939,
                "z": 33.788753509521487
            },
            "rotation": {
                "x": -0.008415432646870613,
                "y": -0.16446612775325776,
                "z": -0.001403213245794177,
                "w": 0.9863458275794983
            },
            "time": 0.1851624995470047
        },
        {
            "position": {
                "x": -58.55800247192383,
                "y": 1.757921576499939,
                "z": 33.788753509521487
            },
            "rotation": {
                "x": -0.008415432646870613,
                "y": -0.16446612775325776,
                "z": -0.001403213245794177,
                "w": 0.9863458275794983
            },
            "time": 0.20185419917106629
        },
        {
            "position": {
                "x": -58.55800247192383,
                "y": 1.757921576499939,
                "z": 33.788753509521487
            },
            "rotation": {
                "x": -0.007853588089346886,
                "y": -0.1549910455942154,
                "z": -0.0012321649119257928,
                "w": 0.9878838658332825
            },
            "time": 0.21878360211849214
        },
        {
            "position": {
                "x": -58.55800247192383,
                "y": 1.757921576499939,
                "z": 33.788753509521487
            },
            "rotation": {
                "x": -0.007722650188952684,
                "y": -0.144206240773201,
                "z": -0.001125452690757811,
                "w": 0.9895168542861939
            },
            "time": 0.23545069992542268
        },
        {
            "position": {
                "x": -58.55800247192383,
                "y": 1.757921576499939,
                "z": 33.788753509521487
            },
            "rotation": {
                "x": -0.007594092283397913,
                "y": -0.1299438178539276,
                "z": -0.000995273352600634,
                "w": 0.9914917945861816
            },
            "time": 0.25270819664001467
        },
        {
            "position": {
                "x": -58.55800247192383,
                "y": 1.757921576499939,
                "z": 33.788753509521487
            },
            "rotation": {
                "x": -0.007463936228305101,
                "y": -0.11478766798973084,
                "z": -0.0008624933543615043,
                "w": 0.9933616518974304
            },
            "time": 0.2693733870983124
        },
        {
            "position": {
                "x": -58.55800247192383,
                "y": 1.757921576499939,
                "z": 33.788753509521487
            },
            "rotation": {
                "x": -0.007775219157338142,
                "y": -0.08613736927509308,
                "z": -0.0006722560501657426,
                "w": 0.996252715587616
            },
            "time": 0.2860405743122101
        },
        {
            "position": {
                "x": -58.55800247192383,
                "y": 1.757921576499939,
                "z": 33.788753509521487
            },
            "rotation": {
                "x": -0.007498640101402998,
                "y": -0.06307779252529144,
                "z": -0.0004739548603538424,
                "w": 0.9979803562164307
            },
            "time": 0.30270758271217348
        },
        {
            "position": {
                "x": -58.55800247192383,
                "y": 1.757921576499939,
                "z": 33.788753509521487
            },
            "rotation": {
                "x": -0.0069263349287211899,
                "y": -0.03911229223012924,
                "z": -0.0002711188280954957,
                "w": 0.999210774898529
            },
            "time": 0.31973499059677126
        },
        {
            "position": {
                "x": -58.55800247192383,
                "y": 1.757921576499939,
                "z": 33.788753509521487
            },
            "rotation": {
                "x": -0.007221627980470657,
                "y": -0.01556022185832262,
                "z": -0.00011238666775170714,
                "w": 0.9998528957366943
            },
            "time": 0.3368077874183655
        },
        {
            "position": {
                "x": -58.55800247192383,
                "y": 1.757921576499939,
                "z": 33.788753509521487
            },
            "rotation": {
                "x": -0.007076818495988846,
                "y": 0.008436455391347409,
                "z": 0.00005970688653178513,
                "w": 0.9999393820762634
            },
            "time": 0.3534732758998871
        },
        {
            "position": {
                "x": -58.55800247192383,
                "y": 1.757921576499939,
                "z": 33.788753509521487
            },
            "rotation": {
                "x": 0.0057658362202346329,
                "y": -0.028503719717264177,
                "z": -0.00016441731713712215,
                "w": -0.9995770454406738
            },
            "time": 0.3701416850090027
        },
        {
            "position": {
                "x": -58.55800247192383,
                "y": 1.757921576499939,
                "z": 33.788753509521487
            },
            "rotation": {
                "x": 0.005761128384619951,
                "y": -0.049431025981903079,
                "z": -0.00028513179859146476,
                "w": -0.9987608790397644
            },
            "time": 0.3868071734905243
        },
        {
            "position": {
                "x": -58.55800247192383,
                "y": 1.757921576499939,
                "z": 33.788753509521487
            },
            "rotation": {
                "x": 0.006185255013406277,
                "y": -0.0781686007976532,
                "z": -0.0004849860561080277,
                "w": -0.9969208836555481
            },
            "time": 0.40373507142066958
        },
        {
            "position": {
                "x": -58.55800247192383,
                "y": 1.757921576499939,
                "z": 33.788753509521487
            },
            "rotation": {
                "x": 0.006030811928212643,
                "y": -0.09642407298088074,
                "z": -0.0005842485697939992,
                "w": -0.9953219294548035
            },
            "time": 0.4203999638557434
        },
        {
            "position": {
                "x": -58.55800247192383,
                "y": 1.757921576499939,
                "z": 33.788753509521487
            },
            "rotation": {
                "x": 0.0055856709368526939,
                "y": -0.11464737355709076,
                "z": -0.0006446433253586292,
                "w": -0.9933903813362122
            },
            "time": 0.43749096989631655
        },
        {
            "position": {
                "x": -58.55800247192383,
                "y": 1.757921576499939,
                "z": 33.788753509521487
            },
            "rotation": {
                "x": 0.0052802059799432758,
                "y": -0.13888409733772279,
                "z": -0.0007405238575302064,
                "w": -0.990294337272644
            },
            "time": 0.45415768027305605
        },
        {
            "position": {
                "x": -58.55800247192383,
                "y": 1.757921576499939,
                "z": 33.788753509521487
            },
            "rotation": {
                "x": 0.005560863763093948,
                "y": -0.14795194566249848,
                "z": -0.0008319094777107239,
                "w": -0.9889785647392273
            },
            "time": 0.47139087319374087
        },
        {
            "position": {
                "x": -58.55800247192383,
                "y": 1.757921576499939,
                "z": 33.788753509521487
            },
            "rotation": {
                "x": 0.00625182967633009,
                "y": -0.17507782578468324,
                "z": -0.0011117509566247464,
                "w": -0.9845341444015503
            },
            "time": 0.4885149598121643
        },
        {
            "position": {
                "x": -58.55800247192383,
                "y": 1.757921576499939,
                "z": 33.788753509521487
            },
            "rotation": {
                "x": 0.006659063510596752,
                "y": -0.19266125559806825,
                "z": -0.00130746909417212,
                "w": -0.9812418818473816
            },
            "time": 0.505180835723877
        },
        {
            "position": {
                "x": -58.55800247192383,
                "y": 1.757921576499939,
                "z": 33.788753509521487
            },
            "rotation": {
                "x": 0.006915057078003883,
                "y": -0.21274183690547944,
                "z": -0.0015056265983730555,
                "w": -0.9770828485488892
            },
            "time": 0.5222870111465454
        },
        {
            "position": {
                "x": -58.55800247192383,
                "y": 1.757921576499939,
                "z": 33.788753509521487
            },
            "rotation": {
                "x": 0.0070248995907604698,
                "y": -0.2323087453842163,
                "z": -0.0016778941499069334,
                "w": -0.9726153016090393
            },
            "time": 0.5389503836631775
        },
        {
            "position": {
                "x": -58.55800247192383,
                "y": 1.757921576499939,
                "z": 33.788753509521487
            },
            "rotation": {
                "x": 0.0072721256874501709,
                "y": -0.2513594329357147,
                "z": -0.0018886084435507656,
                "w": -0.9678646326065064
            },
            "time": 0.5556176900863648
        },
        {
            "position": {
                "x": -58.55800247192383,
                "y": 1.757921576499939,
                "z": 33.788753509521487
            },
            "rotation": {
                "x": 0.007901851087808609,
                "y": -0.2837277948856354,
                "z": -0.0023381435312330724,
                "w": -0.958869457244873
            },
            "time": 0.5722841620445252
        },
        {
            "position": {
                "x": -58.55800247192383,
                "y": 1.757921576499939,
                "z": 33.788753509521487
            },
            "rotation": {
                "x": 0.008013795129954815,
                "y": -0.29458698630332949,
                "z": -0.0024704786483198406,
                "w": -0.9555879235267639
            },
            "time": 0.5892094373703003
        },
        {
            "position": {
                "x": -58.55800247192383,
                "y": 1.757921576499939,
                "z": 33.788753509521487
            },
            "rotation": {
                "x": 0.007373997010290623,
                "y": -0.3273463547229767,
                "z": -0.0025546851102262737,
                "w": -0.944872260093689
            },
            "time": 0.6061904430389404
        },
        {
            "position": {
                "x": -58.55800247192383,
                "y": 1.757921576499939,
                "z": 33.788753509521487
            },
            "rotation": {
                "x": 0.007850603200495243,
                "y": -0.3515579402446747,
                "z": -0.0029482508543878795,
                "w": -0.936128556728363
            },
            "time": 0.6231593489646912
        },
        {
            "position": {
                "x": -58.55800247192383,
                "y": 1.757921576499939,
                "z": 33.788753509521487
            },
            "rotation": {
                "x": 0.008310000412166119,
                "y": -0.3759405314922333,
                "z": -0.0033715355675667526,
                "w": -0.9266003966331482
            },
            "time": 0.6398259401321411
        },
        {
            "position": {
                "x": -58.55800247192383,
                "y": 1.757921576499939,
                "z": 33.788753509521487
            },
            "rotation": {
                "x": 0.00862671434879303,
                "y": -0.39806535840034487,
                "z": -0.003743554698303342,
                "w": -0.9173088669776917
            },
            "time": 0.6564927101135254
        },
        {
            "position": {
                "x": -58.55800247192383,
                "y": 1.757921576499939,
                "z": 33.788753509521487
            },
            "rotation": {
                "x": 0.008930343203246594,
                "y": -0.41996070742607119,
                "z": -0.004132715053856373,
                "w": -0.907489001750946
            },
            "time": 0.6731598973274231
        },
        {
            "position": {
                "x": -58.55800247192383,
                "y": 1.757921576499939,
                "z": 33.788753509521487
            },
            "rotation": {
                "x": 0.009565606713294983,
                "y": -0.4502033591270447,
                "z": -0.004823219031095505,
                "w": -0.8928618431091309
            },
            "time": 0.6899458765983582
        },
        {
            "position": {
                "x": -58.55800247192383,
                "y": 1.757921576499939,
                "z": 33.788753509521487
            },
            "rotation": {
                "x": 0.01023342926055193,
                "y": -0.4687987267971039,
                "z": -0.005431681405752897,
                "w": -0.8832290172576904
            },
            "time": 0.706929087638855
        },
        {
            "position": {
                "x": -58.55800247192383,
                "y": 1.757921576499939,
                "z": 33.788753509521487
            },
            "rotation": {
                "x": 0.010757643729448319,
                "y": -0.48642638325691225,
                "z": -0.005989690311253071,
                "w": -0.8736348152160645
            },
            "time": 0.7238447070121765
        },
        {
            "position": {
                "x": -58.55800247192383,
                "y": 1.757921576499939,
                "z": 33.788753509521487
            },
            "rotation": {
                "x": 0.011394931934773922,
                "y": -0.503102719783783,
                "z": -0.0066342419013381008,
                "w": -0.8641260862350464
            },
            "time": 0.7408292889595032
        },
        {
            "position": {
                "x": -58.55800247192383,
                "y": 1.757921576499939,
                "z": 33.788753509521487
            },
            "rotation": {
                "x": 0.011138266883790493,
                "y": -0.5199726819992065,
                "z": -0.006781064905226231,
                "w": -0.8540833592414856
            },
            "time": 0.7574805617332459
        },
        {
            "position": {
                "x": -58.55800247192383,
                "y": 1.757921576499939,
                "z": 33.788753509521487
            },
            "rotation": {
                "x": 0.011245270259678364,
                "y": -0.5370072722434998,
                "z": -0.0071594431065022949,
                "w": -0.8434723019599915
            },
            "time": 0.7741483449935913
        },
        {
            "position": {
                "x": -58.55800247192383,
                "y": 1.757921576499939,
                "z": 33.788753509521487
            },
            "rotation": {
                "x": 0.011746237985789776,
                "y": -0.5621476769447327,
                "z": -0.007985247299075127,
                "w": -0.8269149661064148
            },
            "time": 0.7916935682296753
        },
        {
            "position": {
                "x": -58.55800247192383,
                "y": 1.757921576499939,
                "z": 33.788753509521487
            },
            "rotation": {
                "x": 0.012065654620528221,
                "y": -0.5779138207435608,
                "z": -0.008545609191060067,
                "w": -0.815963864326477
            },
            "time": 0.8086215853691101
        },
        {
            "position": {
                "x": -58.55800247192383,
                "y": 1.757921576499939,
                "z": 33.788753509521487
            },
            "rotation": {
                "x": 0.012387574650347233,
                "y": -0.5917094945907593,
                "z": -0.00909404642879963,
                "w": -0.8060048222541809
            },
            "time": 0.8255720734596252
        },
        {
            "position": {
                "x": -58.55800247192383,
                "y": 1.757921576499939,
                "z": 33.788753509521487
            },
            "rotation": {
                "x": 0.012715030461549759,
                "y": -0.6035957336425781,
                "z": -0.009627950377762318,
                "w": -0.7971310615539551
            },
            "time": 0.8424279689788818
        },
        {
            "position": {
                "x": -58.55800247192383,
                "y": 1.757921576499939,
                "z": 33.788753509521487
            },
            "rotation": {
                "x": 0.012611597776412964,
                "y": -0.6211819052696228,
                "z": -0.009998831897974015,
                "w": -0.783501148223877
            },
            "time": 0.8593618869781494
        },
        {
            "position": {
                "x": -58.55800247192383,
                "y": 1.757921576499939,
                "z": 33.788753509521487
            },
            "rotation": {
                "x": 0.012007025070488453,
                "y": -0.633080244064331,
                "z": -0.009821821004152298,
                "w": -0.7739307880401611
            },
            "time": 0.8763079047203064
        },
        {
            "position": {
                "x": -58.55800247192383,
                "y": 1.757921576499939,
                "z": 33.788753509521487
            },
            "rotation": {
                "x": 0.011411081999540329,
                "y": -0.6448308229446411,
                "z": -0.00962891150265932,
                "w": -0.764179527759552
            },
            "time": 0.8934174180030823
        },
        {
            "position": {
                "x": -58.55800247192383,
                "y": 1.757921576499939,
                "z": 33.788753509521487
            },
            "rotation": {
                "x": 0.010523420758545399,
                "y": -0.6629908084869385,
                "z": -0.009321271441876889,
                "w": -0.7484955787658691
            },
            "time": 0.9119272232055664
        },
        {
            "position": {
                "x": -58.55800247192383,
                "y": 1.757921576499939,
                "z": 33.788753509521487
            },
            "rotation": {
                "x": 0.009582883678376675,
                "y": -0.6868170499801636,
                "z": -0.009056818671524525,
                "w": -0.7267107367515564
            },
            "time": 0.9424788355827332
        },
        {
            "position": {
                "x": -58.55800247192383,
                "y": 1.757921576499939,
                "z": 33.788753509521487
            },
            "rotation": {
                "x": 0.008994062431156636,
                "y": -0.7086934447288513,
                "z": -0.009036037139594555,
                "w": -0.7054014205932617
            },
            "time": 0.9721386432647705
        },
        {
            "position": {
                "x": -58.55800247192383,
                "y": 1.757921576499939,
                "z": 33.788753509521487
            },
            "rotation": {
                "x": 0.008003193885087967,
                "y": -0.731105625629425,
                "z": -0.008577384985983372,
                "w": -0.6821635365486145
            },
            "time": 1.0023901462554932
        },
        {
            "position": {
                "x": -58.35551071166992,
                "y": 1.762684941291809,
                "z": 33.77471160888672
            },
            "rotation": {
                "x": 0.006884507369250059,
                "y": -0.7507438063621521,
                "z": -0.007825000211596489,
                "w": -0.6605113744735718
            },
            "time": 1.036229133605957
        },
        {
            "position": {
                "x": -58.17020797729492,
                "y": 1.7665798664093018,
                "z": 33.750919342041019
            },
            "rotation": {
                "x": 0.005919526796787977,
                "y": -0.7689024209976196,
                "z": -0.00711957598105073,
                "w": -0.6392990946769714
            },
            "time": 1.0673730373382569
        },
        {
            "position": {
                "x": -57.99148941040039,
                "y": 1.7699463367462159,
                "z": 33.717742919921878
            },
            "rotation": {
                "x": 0.0051822480745613579,
                "y": -0.7861894965171814,
                "z": -0.006593364290893078,
                "w": -0.617928683757782
            },
            "time": 1.0976735353469849
        },
        {
            "position": {
                "x": -57.80364990234375,
                "y": 1.7731889486312867,
                "z": 33.67206954956055
            },
            "rotation": {
                "x": 0.004497318994253874,
                "y": -0.801057755947113,
                "z": -0.006019000429660082,
                "w": -0.5985399484634399
            },
            "time": 1.129896879196167
        },
        {
            "position": {
                "x": -57.61820983886719,
                "y": 1.7760950326919556,
                "z": 33.61725616455078
            },
            "rotation": {
                "x": 0.003965076059103012,
                "y": -0.8202160000801086,
                "z": -0.005685577169060707,
                "w": -0.5720120668411255
            },
            "time": 1.1621290445327759
        },
        {
            "position": {
                "x": -57.42915725708008,
                "y": 1.77888822555542,
                "z": 33.54763412475586
            },
            "rotation": {
                "x": 0.0037619981449097397,
                "y": -0.8322581648826599,
                "z": -0.0056480057537555698,
                "w": -0.5543467402458191
            },
            "time": 1.1957095861434937
        },
        {
            "position": {
                "x": -57.243263244628909,
                "y": 1.7816226482391358,
                "z": 33.470001220703128
            },
            "rotation": {
                "x": 0.0033396165817976,
                "y": -0.8427500128746033,
                "z": -0.005228723399341106,
                "w": -0.5382694005966187
            },
            "time": 1.2292883396148682
        },
        {
            "position": {
                "x": -57.05984115600586,
                "y": 1.7841312885284424,
                "z": 33.38499069213867
            },
            "rotation": {
                "x": 0.0023441999219357969,
                "y": -0.8506502509117127,
                "z": -0.0037931217812001707,
                "w": -0.5257132053375244
            },
            "time": 1.2629849910736085
        },
        {
            "position": {
                "x": -56.8784065246582,
                "y": 1.785940408706665,
                "z": 33.29426574707031
            },
            "rotation": {
                "x": 0.0013850622344762087,
                "y": -0.8599238991737366,
                "z": -0.0023334890138357879,
                "w": -0.5104151368141174
            },
            "time": 1.2967954874038697
        },
        {
            "position": {
                "x": -56.70249938964844,
                "y": 1.7870279550552369,
                "z": 33.19829177856445
            },
            "rotation": {
                "x": 0.001141794491559267,
                "y": -0.8652226328849793,
                "z": -0.001970363548025489,
                "w": -0.5013828277587891
            },
            "time": 1.3301936388015748
        },
        {
            "position": {
                "x": -56.517154693603519,
                "y": 1.7880009412765504,
                "z": 33.092071533203128
            },
            "rotation": {
                "x": 0.0010438289027661086,
                "y": -0.871925413608551,
                "z": -0.001858818344771862,
                "w": -0.4896341562271118
            },
            "time": 1.3657983541488648
        },
        {
            "position": {
                "x": -56.35114288330078,
                "y": 1.7888299226760865,
                "z": 32.990867614746097
            },
            "rotation": {
                "x": 0.0011072327615693212,
                "y": -0.8738412261009216,
                "z": -0.001989990472793579,
                "w": -0.48620617389678957
            },
            "time": 1.3982033729553223
        },
        {
            "position": {
                "x": -56.16531753540039,
                "y": 1.7898259162902833,
                "z": 32.87557601928711
            },
            "rotation": {
                "x": 0.0011063645360991359,
                "y": -0.8740532398223877,
                "z": -0.0019904733635485174,
                "w": -0.485824853181839
            },
            "time": 1.4346510171890259
        },
        {
            "position": {
                "x": -55.994544982910159,
                "y": 1.7907418012619019,
                "z": 32.76941680908203
            },
            "rotation": {
                "x": 0.0015242905355989934,
                "y": -0.8751089572906494,
                "z": -0.002756513888016343,
                "w": -0.4839157164096832
            },
            "time": 1.4681648015975953
        },
        {
            "position": {
                "x": -55.81296920776367,
                "y": 1.7920924425125123,
                "z": 32.65544128417969
            },
            "rotation": {
                "x": 0.0019189674640074373,
                "y": -0.8788798451423645,
                "z": -0.0035355323925614359,
                "w": -0.4770262539386749
            },
            "time": 1.5038959980010987
        },
        {
            "position": {
                "x": -55.62978744506836,
                "y": 1.793850064277649,
                "z": 32.53640365600586
            },
            "rotation": {
                "x": 0.001836194540373981,
                "y": -0.8807468414306641,
                "z": -0.003414949169382453,
                "w": -0.4735715091228485
            },
            "time": 1.5403074026107789
        },
        {
            "position": {
                "x": -55.45869064331055,
                "y": 1.7954405546188355,
                "z": 32.42329788208008
            },
            "rotation": {
                "x": 0.0017012021271511913,
                "y": -0.8803342580795288,
                "z": -0.0031572822481393816,
                "w": -0.47434040904045107
            },
            "time": 1.5744922161102296
        },
        {
            "position": {
                "x": -55.30155563354492,
                "y": 1.7967901229858399,
                "z": 32.31981658935547
            },
            "rotation": {
                "x": 0.0017012021271511913,
                "y": -0.8803342580795288,
                "z": -0.0031572822481393816,
                "w": -0.47434040904045107
            },
            "time": 1.6058510541915894
        },
        {
            "position": {
                "x": -55.077857971191409,
                "y": 1.7987114191055298,
                "z": 32.17250061035156
            },
            "rotation": {
                "x": 0.0017012021271511913,
                "y": -0.8803342580795288,
                "z": -0.0031572822481393816,
                "w": -0.47434040904045107
            },
            "time": 1.6504937410354615
        },
        {
            "position": {
                "x": -54.951560974121097,
                "y": 1.7997961044311524,
                "z": 32.08932876586914
            },
            "rotation": {
                "x": 0.0017012021271511913,
                "y": -0.8803342580795288,
                "z": -0.0031572822481393816,
                "w": -0.47434040904045107
            },
            "time": 1.6756982803344727
        },
        {
            "position": {
                "x": -54.76558303833008,
                "y": 1.8013933897018433,
                "z": 31.966854095458986
            },
            "rotation": {
                "x": 0.0017012021271511913,
                "y": -0.8803342580795288,
                "z": -0.0031572822481393816,
                "w": -0.47434040904045107
            },
            "time": 1.712812900543213
        },
        {
            "position": {
                "x": -54.587440490722659,
                "y": 1.8029234409332276,
                "z": 31.849538803100587
            },
            "rotation": {
                "x": 0.0017012021271511913,
                "y": -0.8803342580795288,
                "z": -0.0031572822481393816,
                "w": -0.47434040904045107
            },
            "time": 1.7483643293380738
        },
        {
            "position": {
                "x": -54.42306137084961,
                "y": 1.8043352365493775,
                "z": 31.741287231445314
            },
            "rotation": {
                "x": 0.0017012021271511913,
                "y": -0.8803342580795288,
                "z": -0.0031572822481393816,
                "w": -0.47434040904045107
            },
            "time": 1.781169056892395
        },
        {
            "position": {
                "x": -54.2491340637207,
                "y": 1.8058290481567383,
                "z": 31.626747131347658
            },
            "rotation": {
                "x": 0.0017012021271511913,
                "y": -0.8803342580795288,
                "z": -0.0031572822481393816,
                "w": -0.47434040904045107
            },
            "time": 1.815879225730896
        },
        {
            "position": {
                "x": -54.086158752441409,
                "y": 1.8072288036346436,
                "z": 31.519420623779298
            },
            "rotation": {
                "x": 0.0017012021271511913,
                "y": -0.8803342580795288,
                "z": -0.0031572822481393816,
                "w": -0.47434040904045107
            },
            "time": 1.8484032154083253
        },
        {
            "position": {
                "x": -53.88383102416992,
                "y": 1.8089665174484254,
                "z": 31.386178970336915
            },
            "rotation": {
                "x": 0.0017012021271511913,
                "y": -0.8803342580795288,
                "z": -0.0031572822481393816,
                "w": -0.47434040904045107
            },
            "time": 1.8887808322906495
        },
        {
            "position": {
                "x": -53.70416259765625,
                "y": 1.8105096817016602,
                "z": 31.267858505249025
            },
            "rotation": {
                "x": 0.0017012021271511913,
                "y": -0.8803342580795288,
                "z": -0.0031572822481393816,
                "w": -0.47434040904045107
            },
            "time": 1.9246368408203126
        },
        {
            "position": {
                "x": -53.535919189453128,
                "y": 1.8119546175003052,
                "z": 31.157062530517579
            },
            "rotation": {
                "x": 0.0017012021271511913,
                "y": -0.8803342580795288,
                "z": -0.0031572822481393816,
                "w": -0.47434040904045107
            },
            "time": 1.9582123756408692
        },
        {
            "position": {
                "x": -53.36704635620117,
                "y": 1.8134050369262696,
                "z": 31.045852661132814
            },
            "rotation": {
                "x": 0.0017012021271511913,
                "y": -0.8803342580795288,
                "z": -0.0031572822481393816,
                "w": -0.47434040904045107
            },
            "time": 1.9919133186340333
        },
        {
            "position": {
                "x": -53.1993408203125,
                "y": 1.8148454427719117,
                "z": 30.935409545898439
            },
            "rotation": {
                "x": 0.0017012021271511913,
                "y": -0.8803342580795288,
                "z": -0.0031572822481393816,
                "w": -0.47434040904045107
            },
            "time": 2.0253818035125734
        },
        {
            "position": {
                "x": -53.027984619140628,
                "y": 1.8163172006607056,
                "z": 30.82256317138672
            },
            "rotation": {
                "x": 0.0017012021271511913,
                "y": -0.8803342580795288,
                "z": -0.0031572822481393816,
                "w": -0.47434040904045107
            },
            "time": 2.0595784187316896
        },
        {
            "position": {
                "x": -52.88168716430664,
                "y": 1.8175736665725709,
                "z": 30.726219177246095
            },
            "rotation": {
                "x": 0.0017012021271511913,
                "y": -0.8803342580795288,
                "z": -0.0031572822481393816,
                "w": -0.47434040904045107
            },
            "time": 2.0887744426727297
        },
        {
            "position": {
                "x": -52.706947326660159,
                "y": 1.8190745115280152,
                "z": 30.61114501953125
            },
            "rotation": {
                "x": 0.0017012021271511913,
                "y": -0.8803342580795288,
                "z": -0.0031572822481393816,
                "w": -0.47434040904045107
            },
            "time": 2.1236467361450197
        },
        {
            "position": {
                "x": -52.52775573730469,
                "y": 1.8206135034561158,
                "z": 30.493139266967775
            },
            "rotation": {
                "x": 0.0017012021271511913,
                "y": -0.8803342580795288,
                "z": -0.0031572822481393816,
                "w": -0.47434040904045107
            },
            "time": 2.159407138824463
        },
        {
            "position": {
                "x": -52.35822677612305,
                "y": 1.822069525718689,
                "z": 30.381498336791993
            },
            "rotation": {
                "x": 0.0017012021271511913,
                "y": -0.8803342580795288,
                "z": -0.0031572822481393816,
                "w": -0.47434040904045107
            },
            "time": 2.1932389736175539
        },
        {
            "position": {
                "x": -52.18887710571289,
                "y": 1.823523998260498,
                "z": 30.269973754882814
            },
            "rotation": {
                "x": 0.0017012021271511913,
                "y": -0.8803342580795288,
                "z": -0.0031572822481393816,
                "w": -0.47434040904045107
            },
            "time": 2.2270355224609377
        },
        {
            "position": {
                "x": -51.97047424316406,
                "y": 1.8253997564315797,
                "z": 30.126144409179689
            },
            "rotation": {
                "x": 0.0017012021271511913,
                "y": -0.8803342580795288,
                "z": -0.0031572822481393816,
                "w": -0.47434040904045107
            },
            "time": 2.2706215381622316
        },
        {
            "position": {
                "x": -51.796470642089847,
                "y": 1.8268942832946778,
                "z": 30.011554718017579
            },
            "rotation": {
                "x": 0.0017012021271511913,
                "y": -0.8803342580795288,
                "z": -0.0031572822481393816,
                "w": -0.47434040904045107
            },
            "time": 2.305346727371216
        },
        {
            "position": {
                "x": -51.63982391357422,
                "y": 1.8282396793365479,
                "z": 29.90839385986328
            },
            "rotation": {
                "x": 0.0017012021271511913,
                "y": -0.8803342580795288,
                "z": -0.0031572822481393816,
                "w": -0.47434040904045107
            },
            "time": 2.336608409881592
        },
        {
            "position": {
                "x": -51.48576354980469,
                "y": 1.8295629024505616,
                "z": 29.806936264038087
            },
            "rotation": {
                "x": 0.0017012021271511913,
                "y": -0.8803342580795288,
                "z": -0.0031572822481393816,
                "w": -0.47434040904045107
            },
            "time": 2.367353916168213
        },
        {
            "position": {
                "x": -51.35158920288086,
                "y": 1.830715298652649,
                "z": 29.71857452392578
            },
            "rotation": {
                "x": 0.0017012021271511913,
                "y": -0.8803342580795288,
                "z": -0.0031572822481393816,
                "w": -0.47434040904045107
            },
            "time": 2.3941307067871095
        },
        {
            "position": {
                "x": -51.182769775390628,
                "y": 1.832165241241455,
                "z": 29.607398986816408
            },
            "rotation": {
                "x": 0.0017012021271511913,
                "y": -0.8803342580795288,
                "z": -0.0031572822481393816,
                "w": -0.47434040904045107
            },
            "time": 2.427821159362793
        },
        {
            "position": {
                "x": -51.02861404418945,
                "y": 1.8334892988204957,
                "z": 29.50588035583496
            },
            "rotation": {
                "x": 0.0017012021271511913,
                "y": -0.8803342580795288,
                "z": -0.0031572822481393816,
                "w": -0.47434040904045107
            },
            "time": 2.458585500717163
        },
        {
            "position": {
                "x": -50.835472106933597,
                "y": 1.8351480960845948,
                "z": 29.378686904907228
            },
            "rotation": {
                "x": 0.0017012021271511913,
                "y": -0.8803342580795288,
                "z": -0.0031572822481393816,
                "w": -0.47434040904045107
            },
            "time": 2.4971301555633547
        },
        {
            "position": {
                "x": -50.671504974365237,
                "y": 1.836556315422058,
                "z": 29.270708084106447
            },
            "rotation": {
                "x": 0.0017012021271511913,
                "y": -0.8803342580795288,
                "z": -0.0031572822481393816,
                "w": -0.47434040904045107
            },
            "time": 2.5298521518707277
        },
        {
            "position": {
                "x": -50.50080871582031,
                "y": 1.8380223512649537,
                "z": 29.158296585083009
            },
            "rotation": {
                "x": 0.0017012021271511913,
                "y": -0.8803342580795288,
                "z": -0.0031572822481393816,
                "w": -0.47434040904045107
            },
            "time": 2.563917398452759
        },
        {
            "position": {
                "x": -50.33512878417969,
                "y": 1.8394453525543213,
                "z": 29.0491886138916
            },
            "rotation": {
                "x": 0.0016998241189867259,
                "y": -0.8805411458015442,
                "z": -0.00315802451223135,
                "w": -0.4739561378955841
            },
            "time": 2.5969815254211427
        },
        {
            "position": {
                "x": -50.1604118347168,
                "y": 1.8409467935562134,
                "z": 28.933908462524415
            },
            "rotation": {
                "x": 0.0016998241189867259,
                "y": -0.8805411458015442,
                "z": -0.00315802451223135,
                "w": -0.4739561378955841
            },
            "time": 2.6318695545196535
        },
        {
            "position": {
                "x": -50.01582336425781,
                "y": 1.8421893119812012,
                "z": 28.83850860595703
            },
            "rotation": {
                "x": 0.0016998241189867259,
                "y": -0.8805411458015442,
                "z": -0.00315802451223135,
                "w": -0.4739561378955841
            },
            "time": 2.6607415676116945
        },
        {
            "position": {
                "x": -49.82432556152344,
                "y": 1.8438349962234498,
                "z": 28.712158203125
            },
            "rotation": {
                "x": 0.0016998241189867259,
                "y": -0.8805411458015442,
                "z": -0.00315802451223135,
                "w": -0.4739561378955841
            },
            "time": 2.6989798545837404
        },
        {
            "position": {
                "x": -49.652076721191409,
                "y": 1.8453152179718018,
                "z": 28.598508834838868
            },
            "rotation": {
                "x": 0.0016998241189867259,
                "y": -0.8805411458015442,
                "z": -0.00315802451223135,
                "w": -0.4739561378955841
            },
            "time": 2.7333743572235109
        },
        {
            "position": {
                "x": -49.482479095458987,
                "y": 1.8467726707458497,
                "z": 28.486608505249025
            },
            "rotation": {
                "x": 0.0016998241189867259,
                "y": -0.8805411458015442,
                "z": -0.00315802451223135,
                "w": -0.4739561378955841
            },
            "time": 2.767239809036255
        },
        {
            "position": {
                "x": -49.309757232666019,
                "y": 1.8482569456100464,
                "z": 28.37264633178711
            },
            "rotation": {
                "x": 0.0016998241189867259,
                "y": -0.8805411458015442,
                "z": -0.00315802451223135,
                "w": -0.4739561378955841
            },
            "time": 2.801729202270508
        },
        {
            "position": {
                "x": -49.142093658447269,
                "y": 1.8496978282928467,
                "z": 28.262022018432618
            },
            "rotation": {
                "x": 0.0016998241189867259,
                "y": -0.8805411458015442,
                "z": -0.00315802451223135,
                "w": -0.4739561378955841
            },
            "time": 2.8352084159851076
        },
        {
            "position": {
                "x": -48.98513412475586,
                "y": 1.8510466814041138,
                "z": 28.15846061706543
            },
            "rotation": {
                "x": 0.0021083743777126076,
                "y": -0.8811577558517456,
                "z": -0.003929367288947105,
                "w": -0.4728013873100281
            },
            "time": 2.8665502071380617
        },
        {
            "position": {
                "x": -48.806434631347659,
                "y": 1.852959394454956,
                "z": 28.03988265991211
            },
            "rotation": {
                "x": 0.0034610312432050707,
                "y": -0.8827876448631287,
                "z": -0.006504707969725132,
                "w": -0.46971452236175539
            },
            "time": 2.9022951126098635
        },
        {
            "position": {
                "x": -48.63576126098633,
                "y": 1.8559921979904175,
                "z": 27.92490577697754
            },
            "rotation": {
                "x": 0.003650818718597293,
                "y": -0.883807361125946,
                "z": -0.0068976436741650108,
                "w": -0.46778592467308047
            },
            "time": 2.9365971088409426
        },
        {
            "position": {
                "x": -48.45732879638672,
                "y": 1.8593604564666749,
                "z": 27.80356788635254
            },
            "rotation": {
                "x": 0.0037096503656357528,
                "y": -0.8844179511070252,
                "z": -0.007031042128801346,
                "w": -0.4666280150413513
            },
            "time": 2.972564697265625
        },
        {
            "position": {
                "x": -48.2957878112793,
                "y": 1.8624722957611085,
                "z": 27.693096160888673
            },
            "rotation": {
                "x": 0.003703512717038393,
                "y": -0.8848248720169067,
                "z": -0.007034277077764273,
                "w": -0.46585598587989809
            },
            "time": 3.005185604095459
        },
        {
            "position": {
                "x": -48.12150955200195,
                "y": 1.8658335208892823,
                "z": 27.57346534729004
            },
            "rotation": {
                "x": 0.0036943014711141588,
                "y": -0.8854339122772217,
                "z": -0.007039118558168411,
                "w": -0.46469733119010928
            },
            "time": 3.0404212474823
        },
        {
            "position": {
                "x": -47.957069396972659,
                "y": 1.8690106868743897,
                "z": 27.4599552154541
            },
            "rotation": {
                "x": 0.003614651970565319,
                "y": -0.8862445950508118,
                "z": -0.006916665006428957,
                "w": -0.4631517827510834
            },
            "time": 3.0737273693084719
        },
        {
            "position": {
                "x": -47.802127838134769,
                "y": 1.871956706047058,
                "z": 27.35219955444336
            },
            "rotation": {
                "x": 0.0036025741137564184,
                "y": -0.8870516419410706,
                "z": -0.006922963075339794,
                "w": -0.4616042375564575
            },
            "time": 3.1051859855651857
        },
        {
            "position": {
                "x": -47.620811462402347,
                "y": 1.8754125833511353,
                "z": 27.225162506103517
            },
            "rotation": {
                "x": 0.003517751581966877,
                "y": -0.8882580399513245,
                "z": -0.006803398486226797,
                "w": -0.45928093791007998
            },
            "time": 3.1420888900756838
        },
        {
            "position": {
                "x": -47.44963073730469,
                "y": 1.8786263465881348,
                "z": 27.103885650634767
            },
            "rotation": {
                "x": 0.0034305553417652847,
                "y": -0.8896576762199402,
                "z": -0.006684723775833845,
                "w": -0.45656633377075198
            },
            "time": 3.1770575046539308
        },
        {
            "position": {
                "x": -47.29130172729492,
                "y": 1.881555199623108,
                "z": 26.990253448486329
            },
            "rotation": {
                "x": 0.003401355352252722,
                "y": -0.8916413187980652,
                "z": -0.006699628662317991,
                "w": -0.45268017053604128
            },
            "time": 3.2095420360565187
        },
        {
            "position": {
                "x": -47.12117385864258,
                "y": 1.8847222328186036,
                "z": 26.865890502929689
            },
            "rotation": {
                "x": 0.0033750194124877455,
                "y": -0.8934121131896973,
                "z": -0.006712933536618948,
                "w": -0.4491751790046692
            },
            "time": 3.244668483734131
        },
        {
            "position": {
                "x": -46.95497512817383,
                "y": 1.887834072113037,
                "z": 26.74238395690918
            },
            "rotation": {
                "x": 0.0033662293571978809,
                "y": -0.8939993381500244,
                "z": -0.006717346142977476,
                "w": -0.4480053186416626
            },
            "time": 3.2791831493377687
        },
        {
            "position": {
                "x": -46.796363830566409,
                "y": 1.8908096551895142,
                "z": 26.623870849609376
            },
            "rotation": {
                "x": 0.0033662293571978809,
                "y": -0.8939993381500244,
                "z": -0.006717346142977476,
                "w": -0.4480053186416626
            },
            "time": 3.3121867179870607
        },
        {
            "position": {
                "x": -46.61652374267578,
                "y": 1.8941835165023804,
                "z": 26.48949432373047
            },
            "rotation": {
                "x": 0.0033662293571978809,
                "y": -0.8939993381500244,
                "z": -0.006717346142977476,
                "w": -0.4480053186416626
            },
            "time": 3.349607467651367
        },
        {
            "position": {
                "x": -46.439674377441409,
                "y": 1.8975012302398682,
                "z": 26.35735321044922
            },
            "rotation": {
                "x": 0.0033456969540566208,
                "y": -0.8953635096549988,
                "z": -0.0067275953479111198,
                "w": -0.4452727437019348
            },
            "time": 3.3864057064056398
        },
        {
            "position": {
                "x": -46.28422546386719,
                "y": 1.9004309177398682,
                "z": 26.239715576171876
            },
            "rotation": {
                "x": 0.0033339501824229957,
                "y": -0.8961392641067505,
                "z": -0.006733424961566925,
                "w": -0.4437093436717987
            },
            "time": 3.4189000129699709
        },
        {
            "position": {
                "x": -46.11416244506836,
                "y": 1.9036445617675782,
                "z": 26.110084533691408
            },
            "rotation": {
                "x": 0.0033339501824229957,
                "y": -0.8961392641067505,
                "z": -0.006733424961566925,
                "w": -0.4437093436717987
            },
            "time": 3.454543113708496
        },
        {
            "position": {
                "x": -45.94687271118164,
                "y": 1.9068057537078858,
                "z": 25.98256492614746
            },
            "rotation": {
                "x": 0.0033280730713158848,
                "y": -0.8965261578559876,
                "z": -0.006736332084983587,
                "w": -0.44292718172073367
            },
            "time": 3.48960542678833
        },
        {
            "position": {
                "x": -45.77498245239258,
                "y": 1.9100582599639893,
                "z": 25.851064682006837
            },
            "rotation": {
                "x": 0.003249236149713397,
                "y": -0.8974912762641907,
                "z": -0.006613049190491438,
                "w": -0.4409707188606262
            },
            "time": 3.52567982673645
        },
        {
            "position": {
                "x": -45.639007568359378,
                "y": 1.9125897884368897,
                "z": 25.746097564697267
            },
            "rotation": {
                "x": 0.0032463506795465948,
                "y": -0.8976836204528809,
                "z": -0.006614466663450003,
                "w": -0.4405790865421295
            },
            "time": 3.554312229156494
        },
        {
            "position": {
                "x": -45.46651840209961,
                "y": 1.91580331325531,
                "z": 25.612701416015626
            },
            "rotation": {
                "x": 0.0032463506795465948,
                "y": -0.8976836204528809,
                "z": -0.006614466663450003,
                "w": -0.4405790865421295
            },
            "time": 3.59065842628479
        },
        {
            "position": {
                "x": -45.30799102783203,
                "y": 1.9187567234039307,
                "z": 25.490102767944337
            },
            "rotation": {
                "x": 0.0032463506795465948,
                "y": -0.8976836204528809,
                "z": -0.006614466663450003,
                "w": -0.4405790865421295
            },
            "time": 3.6240625381469728
        },
        {
            "position": {
                "x": -45.139801025390628,
                "y": 1.9218902587890626,
                "z": 25.360031127929689
            },
            "rotation": {
                "x": 0.0032463506795465948,
                "y": -0.8976836204528809,
                "z": -0.006614466663450003,
                "w": -0.4405790865421295
            },
            "time": 3.6595029830932619
        },
        {
            "position": {
                "x": -44.981903076171878,
                "y": 1.9248319864273072,
                "z": 25.2379207611084
            },
            "rotation": {
                "x": 0.0032463506795465948,
                "y": -0.8976836204528809,
                "z": -0.006614466663450003,
                "w": -0.4405790865421295
            },
            "time": 3.6927742958068849
        },
        {
            "position": {
                "x": -44.81635665893555,
                "y": 1.927916169166565,
                "z": 25.109893798828126
            },
            "rotation": {
                "x": 0.0031794453971087934,
                "y": -0.8978766798973084,
                "z": -0.006485299207270145,
                "w": -0.44018781185150149
            },
            "time": 3.7276575565338136
        },
        {
            "position": {
                "x": -44.62176513671875,
                "y": 1.9314723014831544,
                "z": 24.95913314819336
            },
            "rotation": {
                "x": 0.0026459062937647106,
                "y": -0.8996053338050842,
                "z": -0.005451064556837082,
                "w": -0.4366617500782013
            },
            "time": 3.768688440322876
        },
        {
            "position": {
                "x": -44.4979362487793,
                "y": 1.9333823919296265,
                "z": 24.861629486083986
            },
            "rotation": {
                "x": 0.002507566474378109,
                "y": -0.9005574584007263,
                "z": -0.005194878205657005,
                "w": -0.43469882011413576
            },
            "time": 3.7949588298797609
        },
        {
            "position": {
                "x": -44.31721115112305,
                "y": 1.9360454082489014,
                "z": 24.71804428100586
            },
            "rotation": {
                "x": 0.002442136174067855,
                "y": -0.9007477164268494,
                "z": -0.005064971279352903,
                "w": -0.434306263923645
            },
            "time": 3.8334314823150636
        },
        {
            "position": {
                "x": -44.15889358520508,
                "y": 1.9383211135864258,
                "z": 24.5920352935791
            },
            "rotation": {
                "x": 0.002442136174067855,
                "y": -0.9007477164268494,
                "z": -0.005064971279352903,
                "w": -0.434306263923645
            },
            "time": 3.8671576976776125
        },
        {
            "position": {
                "x": -43.992149353027347,
                "y": 1.9407179355621338,
                "z": 24.459320068359376
            },
            "rotation": {
                "x": 0.002442136174067855,
                "y": -0.9007477164268494,
                "z": -0.005064971279352903,
                "w": -0.434306263923645
            },
            "time": 3.902678966522217
        },
        {
            "position": {
                "x": -43.824005126953128,
                "y": 1.9431347846984864,
                "z": 24.32549285888672
            },
            "rotation": {
                "x": 0.002442136174067855,
                "y": -0.9007477164268494,
                "z": -0.005064971279352903,
                "w": -0.434306263923645
            },
            "time": 3.93849778175354
        },
        {
            "position": {
                "x": -43.66766357421875,
                "y": 1.945381999015808,
                "z": 24.201059341430665
            },
            "rotation": {
                "x": 0.0023768190294504167,
                "y": -0.9009379148483276,
                "z": -0.0049350084736943249,
                "w": -0.4339134395122528
            },
            "time": 3.9718024730682375
        },
        {
            "position": {
                "x": -43.50871276855469,
                "y": 1.9476091861724854,
                "z": 24.074321746826173
            },
            "rotation": {
                "x": 0.0021185148507356645,
                "y": -0.9015078544616699,
                "z": -0.004413456656038761,
                "w": -0.4327351152896881
            },
            "time": 4.005686283111572
        },
        {
            "position": {
                "x": -43.358856201171878,
                "y": 1.949489712715149,
                "z": 23.954193115234376
            },
            "rotation": {
                "x": 0.0014133520890027285,
                "y": -0.9033933281898499,
                "z": -0.002977639902383089,
                "w": -0.4288002848625183
            },
            "time": 4.037698268890381
        },
        {
            "position": {
                "x": -43.18456268310547,
                "y": 1.9509726762771607,
                "z": 23.81195831298828
            },
            "rotation": {
                "x": 0.0010973841417580844,
                "y": -0.9041422605514526,
                "z": -0.0023224158212542536,
                "w": -0.427223801612854
            },
            "time": 4.075192928314209
        },
        {
            "position": {
                "x": -43.0246696472168,
                "y": 1.952035903930664,
                "z": 23.6805419921875
            },
            "rotation": {
                "x": 0.0009731172467581928,
                "y": -0.9041429162025452,
                "z": -0.0020594275556504728,
                "w": -0.4272240996360779
            },
            "time": 4.1096882820129398
        },
        {
            "position": {
                "x": -42.87379837036133,
                "y": 1.9529255628585816,
                "z": 23.556541442871095
            },
            "rotation": {
                "x": 0.0009731172467581928,
                "y": -0.9041429162025452,
                "z": -0.0020594275556504728,
                "w": -0.4272240996360779
            },
            "time": 4.142236709594727
        },
        {
            "position": {
                "x": -42.715614318847659,
                "y": 1.9538583755493165,
                "z": 23.426528930664064
            },
            "rotation": {
                "x": 0.0009109837701544166,
                "y": -0.904143214225769,
                "z": -0.0019279331900179387,
                "w": -0.4272242486476898
            },
            "time": 4.176363468170166
        },
        {
            "position": {
                "x": -42.54682922363281,
                "y": 1.9547901153564454,
                "z": 23.287803649902345
            },
            "rotation": {
                "x": 0.0007253543008118868,
                "y": -0.9039574265480042,
                "z": -0.0015333490446209908,
                "w": -0.42761915922164919
            },
            "time": 4.212777137756348
        },
        {
            "position": {
                "x": -42.386993408203128,
                "y": 1.955491542816162,
                "z": 23.156667709350587
            },
            "rotation": {
                "x": 0.0003524312051013112,
                "y": -0.9037717580795288,
                "z": -0.0007441751658916473,
                "w": -0.42801398038864138
            },
            "time": 4.24723482131958
        },
        {
            "position": {
                "x": -42.22257995605469,
                "y": 1.9558415412902833,
                "z": 23.022014617919923
            },
            "rotation": {
                "x": -0.000021078407371533103,
                "y": -0.9035851955413818,
                "z": 0.00004445788363227621,
                "w": -0.42840853333473208
            },
            "time": 4.282654285430908
        },
        {
            "position": {
                "x": -42.06679153442383,
                "y": 1.9558217525482178,
                "z": 22.894655227661134
            },
            "rotation": {
                "x": 0.0003326258447486907,
                "y": 0.903584897518158,
                "z": -0.0007015635492280126,
                "w": 0.4284084141254425
            },
            "time": 4.31619119644165
        },
        {
            "position": {
                "x": -41.895606994628909,
                "y": 1.9554784297943116,
                "z": 22.75470733642578
            },
            "rotation": {
                "x": 0.0007680841954424977,
                "y": 0.9037706255912781,
                "z": -0.0016218459932133556,
                "w": 0.4280134439468384
            },
            "time": 4.353043079376221
        },
        {
            "position": {
                "x": -41.73419189453125,
                "y": 1.9547295570373536,
                "z": 22.62251091003418
            },
            "rotation": {
                "x": 0.0012625993695110083,
                "y": 0.9043275713920593,
                "z": -0.0026750843971967699,
                "w": 0.42682895064353945
            },
            "time": 4.387816905975342
        },
        {
            "position": {
                "x": -41.582698822021487,
                "y": 1.9535685777664185,
                "z": 22.497777938842775
            },
            "rotation": {
                "x": 0.0015686341794207693,
                "y": 0.9048832654953003,
                "z": -0.003334785345941782,
                "w": 0.42564383149147036
            },
            "time": 4.420523166656494
        },
        {
            "position": {
                "x": -41.422264099121097,
                "y": 1.952033519744873,
                "z": 22.364974975585939
            },
            "rotation": {
                "x": 0.0016908785328269005,
                "y": 0.9050679802894592,
                "z": -0.003598743351176381,
                "w": 0.4252484440803528
            },
            "time": 4.455235481262207
        },
        {
            "position": {
                "x": -41.28053283691406,
                "y": 1.9505692720413209,
                "z": 22.247447967529298
            },
            "rotation": {
                "x": 0.0017527284799143673,
                "y": 0.9050674438476563,
                "z": -0.003730380441993475,
                "w": 0.4252481758594513
            },
            "time": 4.4859232902526859
        },
        {
            "position": {
                "x": -41.110389709472659,
                "y": 1.948747158050537,
                "z": 22.10635757446289
            },
            "rotation": {
                "x": 0.0017527284799143673,
                "y": 0.9050674438476563,
                "z": -0.003730380441993475,
                "w": 0.4252481758594513
            },
            "time": 4.522763252258301
        },
        {
            "position": {
                "x": -40.95152282714844,
                "y": 1.9470458030700684,
                "z": 21.97461700439453
            },
            "rotation": {
                "x": 0.0018128931988030673,
                "y": 0.9052523374557495,
                "z": -0.0038628086913377048,
                "w": 0.42485299706459048
            },
            "time": 4.557161808013916
        },
        {
            "position": {
                "x": -40.797950744628909,
                "y": 1.945341944694519,
                "z": 21.847043991088868
            },
            "rotation": {
                "x": 0.0018128931988030673,
                "y": 0.9052523374557495,
                "z": -0.0038628086913377048,
                "w": 0.42485299706459048
            },
            "time": 4.590437412261963
        },
        {
            "position": {
                "x": -40.63200759887695,
                "y": 1.9435007572174073,
                "z": 21.709192276000978
            },
            "rotation": {
                "x": 0.0018729419680312276,
                "y": 0.9054370522499085,
                "z": -0.0039952895604074,
                "w": 0.4244576096534729
            },
            "time": 4.626393795013428
        },
        {
            "position": {
                "x": -40.469539642333987,
                "y": 1.9416353702545167,
                "z": 21.573989868164064
            },
            "rotation": {
                "x": 0.0025282453279942276,
                "y": 0.9072729349136353,
                "z": -0.005454962607473135,
                "w": 0.42049938440322878
            },
            "time": 4.661623001098633
        },
        {
            "position": {
                "x": -40.308753967285159,
                "y": 1.9391014575958253,
                "z": 21.437793731689454
            },
            "rotation": {
                "x": 0.003349380334839225,
                "y": 0.9092676639556885,
                "z": -0.0073185148648917679,
                "w": 0.4161340594291687
            },
            "time": 4.696744918823242
        },
        {
            "position": {
                "x": -40.17573928833008,
                "y": 1.9362720251083375,
                "z": 21.322912216186525
            },
            "rotation": {
                "x": 0.0038043090607970955,
                "y": 0.91070556640625,
                "z": -0.008389821276068688,
                "w": 0.4129534065723419
            },
            "time": 4.726041316986084
        },
        {
            "position": {
                "x": -40.010948181152347,
                "y": 1.9322353601455689,
                "z": 21.178564071655275
            },
            "rotation": {
                "x": 0.0042476593516767029,
                "y": 0.9123097658157349,
                "z": -0.009466222487390042,
                "w": 0.4093693494796753
            },
            "time": 4.762559413909912
        },
        {
            "position": {
                "x": -39.74043655395508,
                "y": 1.9282591342926026,
                "z": 21.194347381591798
            },
            "rotation": {
                "x": 0.00468260096386075,
                "y": 0.9138987064361572,
                "z": -0.010546206496655941,
                "w": 0.4057783782482147
            },
            "time": 4.794497013092041
        },
        {
            "position": {
                "x": -39.44392395019531,
                "y": 1.9234139919281006,
                "z": 21.209320068359376
            },
            "rotation": {
                "x": 0.005215716548264027,
                "y": 0.9158194065093994,
                "z": -0.011900576762855053,
                "w": 0.40138009190559389
            },
            "time": 4.8294901847839359
        },
        {
            "position": {
                "x": -39.168819427490237,
                "y": 1.9183541536331177,
                "z": 21.2205753326416
            },
            "rotation": {
                "x": 0.005552332382649183,
                "y": 0.919786810874939,
                "z": -0.013022548519074917,
                "w": 0.3921630084514618
            },
            "time": 4.861944198608398
        },
        {
            "position": {
                "x": -38.86415481567383,
                "y": 1.91225266456604,
                "z": 21.2269287109375
            },
            "rotation": {
                "x": 0.0064111752435564999,
                "y": 0.9266128540039063,
                "z": -0.015815259888768197,
                "w": 0.3756294548511505
            },
            "time": 4.89786434173584
        },
        {
            "position": {
                "x": -38.54456329345703,
                "y": 1.9045376777648926,
                "z": 21.222187042236329
            },
            "rotation": {
                "x": 0.006815030239522457,
                "y": 0.9318960905075073,
                "z": -0.01753242500126362,
                "w": 0.3622373938560486
            },
            "time": 4.935543537139893
        },
        {
            "position": {
                "x": -38.28084945678711,
                "y": 1.8975144624710084,
                "z": 21.210689544677736
            },
            "rotation": {
                "x": 0.007002823520451784,
                "y": 0.9382002353668213,
                "z": -0.01901610940694809,
                "w": 0.3454992473125458
            },
            "time": 4.966662883758545
        },
        {
            "position": {
                "x": -37.992431640625,
                "y": 1.88922119140625,
                "z": 21.18777084350586
            },
            "rotation": {
                "x": 0.007103730924427509,
                "y": 0.9447739720344544,
                "z": -0.020524075254797937,
                "w": 0.32700228691101076
            },
            "time": 5.000774383544922
        },
        {
            "position": {
                "x": -37.715293884277347,
                "y": 1.880646824836731,
                "z": 21.154773712158204
            },
            "rotation": {
                "x": 0.0072530461475253109,
                "y": 0.952566385269165,
                "z": -0.022772617638111116,
                "w": 0.3033910095691681
            },
            "time": 5.033681392669678
        },
        {
            "position": {
                "x": -37.539546966552737,
                "y": 1.880646824836731,
                "z": 21.279361724853517
            },
            "rotation": {
                "x": 0.0070156739093363289,
                "y": 0.9640264511108398,
                "z": -0.02557200938463211,
                "w": 0.2644804120063782
            },
            "time": 5.069585800170898
        },
        {
            "position": {
                "x": -37.379268646240237,
                "y": 1.880646824836731,
                "z": 21.374465942382814
            },
            "rotation": {
                "x": 0.006470637861639261,
                "y": 0.9733189344406128,
                "z": -0.027660220861434938,
                "w": 0.2276913970708847
            },
            "time": 5.100647449493408
        },
        {
            "position": {
                "x": -37.221290588378909,
                "y": 1.880646824836731,
                "z": 21.45265769958496
            },
            "rotation": {
                "x": 0.005698691122233868,
                "y": 0.98170006275177,
                "z": -0.029756179079413415,
                "w": 0.18800820410251618
            },
            "time": 5.130025863647461
        },
        {
            "position": {
                "x": -37.03959655761719,
                "y": 1.880646824836731,
                "z": 21.524900436401368
            },
            "rotation": {
                "x": 0.0050618574023246769,
                "y": 0.98814857006073,
                "z": -0.033404476940631869,
                "w": 0.1497364342212677
            },
            "time": 5.162613868713379
        },
        {
            "position": {
                "x": -36.858154296875,
                "y": 1.880646824836731,
                "z": 21.581180572509767
            },
            "rotation": {
                "x": 0.004177698399871588,
                "y": 0.9926863312721252,
                "z": -0.03601536154747009,
                "w": 0.11514931917190552
            },
            "time": 5.194275379180908
        },
        {
            "position": {
                "x": -36.6562614440918,
                "y": 1.880646824836731,
                "z": 21.628658294677736
            },
            "rotation": {
                "x": 0.0032349994871765377,
                "y": 0.995757520198822,
                "z": -0.03859231621026993,
                "w": 0.08346933126449585
            },
            "time": 5.228842258453369
        },
        {
            "position": {
                "x": -36.44598388671875,
                "y": 1.880646824836731,
                "z": 21.664159774780275
            },
            "rotation": {
                "x": 0.00191420444753021,
                "y": 0.9980665445327759,
                "z": -0.04071730375289917,
                "w": 0.04692116752266884
            },
            "time": 5.2643842697143559
        },
        {
            "position": {
                "x": -36.23116683959961,
                "y": 1.880646824836731,
                "z": 21.684402465820314
            },
            "rotation": {
                "x": 0.000509569130372256,
                "y": 0.9990357756614685,
                "z": -0.042212385684251788,
                "w": 0.01205991581082344
            },
            "time": 5.3003458976745609
        },
        {
            "position": {
                "x": -36.03880310058594,
                "y": 1.880646824836731,
                "z": 21.68904685974121
            },
            "rotation": {
                "x": -0.000730410625692457,
                "y": 0.9989063143730164,
                "z": -0.04366245120763779,
                "w": -0.016710279509425165
            },
            "time": 5.332415580749512
        },
        {
            "position": {
                "x": -35.879241943359378,
                "y": 1.880646824836731,
                "z": 21.683706283569337
            },
            "rotation": {
                "x": -0.0016858321614563466,
                "y": 0.998295247554779,
                "z": -0.04421764984726906,
                "w": -0.03806078061461449
            },
            "time": 5.3590240478515629
        },
        {
            "position": {
                "x": -35.703250885009769,
                "y": 1.880646824836731,
                "z": 21.67026710510254
            },
            "rotation": {
                "x": -0.0029869158752262594,
                "y": 0.9967978596687317,
                "z": -0.045168209820985797,
                "w": -0.06591697037220001
            },
            "time": 5.388441562652588
        },
        {
            "position": {
                "x": -35.59390640258789,
                "y": 1.880646824836731,
                "z": 21.655742645263673
            },
            "rotation": {
                "x": -0.0036437727976590397,
                "y": 0.9957886338233948,
                "z": -0.045703016221523288,
                "w": -0.07939141988754273
            },
            "time": 5.406825542449951
        },
        {
            "position": {
                "x": -35.45353698730469,
                "y": 1.880646824836731,
                "z": 21.633216857910158
            },
            "rotation": {
                "x": -0.004661452490836382,
                "y": 0.9939476847648621,
                "z": -0.04663265496492386,
                "w": -0.09935613721609116
            },
            "time": 5.430520057678223
        },
        {
            "position": {
                "x": -35.259124755859378,
                "y": 1.880646824836731,
                "z": 21.593957901000978
            },
            "rotation": {
                "x": -0.00617189658805728,
                "y": 0.9905640482902527,
                "z": -0.04762908071279526,
                "w": -0.12835979461669923
            },
            "time": 5.463576316833496
        },
        {
            "position": {
                "x": -35.16241455078125,
                "y": 1.880646824836731,
                "z": 21.568466186523439
            },
            "rotation": {
                "x": -0.006940006278455257,
                "y": 0.988585352897644,
                "z": -0.048110418021678928,
                "w": -0.14260505139827729
            },
            "time": 5.480245113372803
        },
        {
            "position": {
                "x": -35.06599426269531,
                "y": 1.880646824836731,
                "z": 21.540058135986329
            },
            "rotation": {
                "x": -0.008032738231122494,
                "y": 0.9851605296134949,
                "z": -0.04808737337589264,
                "w": -0.1645657867193222
            },
            "time": 5.496998310089111
        },
        {
            "position": {
                "x": -34.97141647338867,
                "y": 1.880646824836731,
                "z": 21.507553100585939
            },
            "rotation": {
                "x": -0.008364214561879635,
                "y": 0.9839196801185608,
                "z": -0.04788336530327797,
                "w": -0.17187002301216126
            },
            "time": 5.513666152954102
        },
        {
            "position": {
                "x": -34.877342224121097,
                "y": 1.880646824836731,
                "z": 21.473651885986329
            },
            "rotation": {
                "x": -0.008969423361122609,
                "y": 0.9816662073135376,
                "z": -0.04777369275689125,
                "w": -0.1843060404062271
            },
            "time": 5.530332565307617
        },
        {
            "position": {
                "x": -34.77932357788086,
                "y": 1.880646824836731,
                "z": 21.435501098632814
            },
            "rotation": {
                "x": -0.009976926259696484,
                "y": 0.9776734113693237,
                "z": -0.04772191867232323,
                "w": -0.20439612865447999
            },
            "time": 5.547862529754639
        },
        {
            "position": {
                "x": -34.68750762939453,
                "y": 1.880646824836731,
                "z": 21.395355224609376
            },
            "rotation": {
                "x": -0.010611490346491337,
                "y": 0.9750019311904907,
                "z": -0.047733671963214877,
                "w": -0.21674898266792298
            },
            "time": 5.564564228057861
        },
        {
            "position": {
                "x": -34.59693145751953,
                "y": 1.880646824836731,
                "z": 21.352989196777345
            },
            "rotation": {
                "x": -0.011086056008934975,
                "y": 0.9724941253662109,
                "z": -0.04732733592391014,
                "w": -0.22779910266399384
            },
            "time": 5.581230163574219
        },
        {
            "position": {
                "x": -34.50730514526367,
                "y": 1.880646824836731,
                "z": 21.308563232421876
            },
            "rotation": {
                "x": -0.011484818533062935,
                "y": 0.9703728556632996,
                "z": -0.04708263278007507,
                "w": -0.2367020696401596
            },
            "time": 5.597902774810791
        },
        {
            "position": {
                "x": -34.41756057739258,
                "y": 1.880646824836731,
                "z": 21.26201057434082
            },
            "rotation": {
                "x": -0.0118692172691226,
                "y": 0.9685835838317871,
                "z": -0.047137025743722919,
                "w": -0.24389170110225678
            },
            "time": 5.614752769470215
        },
        {
            "position": {
                "x": -34.32949447631836,
                "y": 1.880646824836731,
                "z": 21.214656829833986
            },
            "rotation": {
                "x": -0.012177471071481705,
                "y": 0.9669665694236755,
                "z": -0.047058336436748508,
                "w": -0.2502257525920868
            },
            "time": 5.631417751312256
        },
        {
            "position": {
                "x": -34.24201965332031,
                "y": 1.880646824836731,
                "z": 21.166133880615236
            },
            "rotation": {
                "x": -0.012546688318252564,
                "y": 0.9649714827537537,
                "z": -0.04696124792098999,
                "w": -0.2578125
            },
            "time": 5.64808988571167
        },
        {
            "position": {
                "x": -34.15536880493164,
                "y": 1.880646824836731,
                "z": 21.116273880004884
            },
            "rotation": {
                "x": -0.012690066359937191,
                "y": 0.964179515838623,
                "z": -0.046922702342271808,
                "w": -0.2607586681842804
            },
            "time": 5.664752006530762
        },
        {
            "position": {
                "x": -34.068206787109378,
                "y": 1.880646824836731,
                "z": 21.065406799316408
            },
            "rotation": {
                "x": -0.012792404741048813,
                "y": 0.9636083245277405,
                "z": -0.04689490422606468,
                "w": -0.26286157965660097
            },
            "time": 5.681571960449219
        },
        {
            "position": {
                "x": -33.929527282714847,
                "y": 1.890498399734497,
                "z": 21.10087776184082
            },
            "rotation": {
                "x": -0.012837937101721764,
                "y": 0.96293044090271,
                "z": -0.04658115282654762,
                "w": -0.2653872072696686
            },
            "time": 5.698481559753418
        },
        {
            "position": {
                "x": -33.7899284362793,
                "y": 1.9003430604934693,
                "z": 21.13581085205078
            },
            "rotation": {
                "x": -0.012878580950200558,
                "y": 0.9626984596252441,
                "z": -0.046569932252168658,
                "w": -0.2662273645401001
            },
            "time": 5.715480327606201
        },
        {
            "position": {
                "x": -33.653018951416019,
                "y": 1.9099937677383423,
                "z": 21.169816970825197
            },
            "rotation": {
                "x": -0.012878580950200558,
                "y": 0.9626984596252441,
                "z": -0.046569932252168658,
                "w": -0.2662273645401001
            },
            "time": 5.732144355773926
        },
        {
            "position": {
                "x": -33.51447296142578,
                "y": 1.9197598695755005,
                "z": 21.2042293548584
            },
            "rotation": {
                "x": -0.012878580950200558,
                "y": 0.9626984596252441,
                "z": -0.046569932252168658,
                "w": -0.2662273645401001
            },
            "time": 5.749007701873779
        },
        {
            "position": {
                "x": -33.37516403198242,
                "y": 1.9295798540115357,
                "z": 21.238832473754884
            },
            "rotation": {
                "x": -0.012878580950200558,
                "y": 0.9626984596252441,
                "z": -0.046569932252168658,
                "w": -0.2662273645401001
            },
            "time": 5.765964031219482
        },
        {
            "position": {
                "x": -33.23823928833008,
                "y": 1.9392316341400147,
                "z": 21.272842407226564
            },
            "rotation": {
                "x": -0.012878580950200558,
                "y": 0.9626984596252441,
                "z": -0.046569932252168658,
                "w": -0.2662273645401001
            },
            "time": 5.78262996673584
        },
        {
            "position": {
                "x": -33.1010627746582,
                "y": 1.9489014148712159,
                "z": 21.306915283203126
            },
            "rotation": {
                "x": -0.012839858420193196,
                "y": 0.9627052545547485,
                "z": -0.04642990976572037,
                "w": -0.2662292420864105
            },
            "time": 5.7993268966674809
        },
        {
            "position": {
                "x": -32.96435546875,
                "y": 1.958508849143982,
                "z": 21.34087371826172
            },
            "rotation": {
                "x": -0.01286011841148138,
                "y": 0.9625889658927918,
                "z": -0.046424295753240588,
                "w": -0.2666493356227875
            },
            "time": 5.8159661293029789
        },
        {
            "position": {
                "x": -32.825870513916019,
                "y": 1.968239188194275,
                "z": 21.375144958496095
            },
            "rotation": {
                "x": -0.01286171842366457,
                "y": 0.9623627066612244,
                "z": -0.046273086220026019,
                "w": -0.26749110221862795
            },
            "time": 5.832818031311035
        },
        {
            "position": {
                "x": -32.68662643432617,
                "y": 1.9779891967773438,
                "z": 21.40934944152832
            },
            "rotation": {
                "x": -0.012726041488349438,
                "y": 0.9622726440429688,
                "z": -0.04570765793323517,
                "w": -0.2679184079170227
            },
            "time": 5.84975528717041
        },
        {
            "position": {
                "x": -32.5496711730957,
                "y": 1.987460732460022,
                "z": 21.442873001098634
            },
            "rotation": {
                "x": -0.012628904543817044,
                "y": 0.9621754884719849,
                "z": -0.0452822782099247,
                "w": -0.26834389567375185
            },
            "time": 5.866409778594971
        },
        {
            "position": {
                "x": -32.412506103515628,
                "y": 1.9968574047088624,
                "z": 21.47632598876953
            },
            "rotation": {
                "x": -0.012531387619674206,
                "y": 0.9620779752731323,
                "z": -0.04485698044300079,
                "w": -0.26876917481422427
            },
            "time": 5.883085250854492
        },
        {
            "position": {
                "x": -32.27531433105469,
                "y": 2.006166696548462,
                "z": 21.50966453552246
            },
            "rotation": {
                "x": -0.01247265562415123,
                "y": 0.9619736075401306,
                "z": -0.04457169026136398,
                "w": -0.26919251680374148
            },
            "time": 5.8997602462768559
        },
        {
            "position": {
                "x": -32.13732147216797,
                "y": 2.015470027923584,
                "z": 21.543075561523439
            },
            "rotation": {
                "x": -0.012433502823114396,
                "y": 0.9619801044464111,
                "z": -0.04443177580833435,
                "w": -0.2691943347454071
            },
            "time": 5.916528701782227
        },
        {
            "position": {
                "x": -31.99738311767578,
                "y": 2.0248749256134035,
                "z": 21.57695770263672
            },
            "rotation": {
                "x": -0.012433502823114396,
                "y": 0.9619801044464111,
                "z": -0.04443177580833435,
                "w": -0.2691943347454071
            },
            "time": 5.933533191680908
        },
        {
            "position": {
                "x": -31.856752395629884,
                "y": 2.0343263149261476,
                "z": 21.611007690429689
            },
            "rotation": {
                "x": -0.012433502823114396,
                "y": 0.9619801044464111,
                "z": -0.04443177580833435,
                "w": -0.2691943347454071
            },
            "time": 5.950622081756592
        },
        {
            "position": {
                "x": -31.717756271362306,
                "y": 2.043667793273926,
                "z": 21.644662857055665
            },
            "rotation": {
                "x": -0.012433502823114396,
                "y": 0.9619801044464111,
                "z": -0.04443177580833435,
                "w": -0.2691943347454071
            },
            "time": 5.967512130737305
        },
        {
            "position": {
                "x": -31.57831382751465,
                "y": 2.053039312362671,
                "z": 21.67842674255371
            },
            "rotation": {
                "x": -0.012433502823114396,
                "y": 0.9619801044464111,
                "z": -0.04443177580833435,
                "w": -0.2691943347454071
            },
            "time": 5.984456539154053
        },
        {
            "position": {
                "x": -31.438556671142579,
                "y": 2.062432050704956,
                "z": 21.712265014648439
            },
            "rotation": {
                "x": -0.012433502823114396,
                "y": 0.9619801044464111,
                "z": -0.04443177580833435,
                "w": -0.2691943347454071
            },
            "time": 6.001439094543457
        },
        {
            "position": {
                "x": -31.3013916015625,
                "y": 2.071650505065918,
                "z": 21.74547576904297
            },
            "rotation": {
                "x": -0.0123551981523633,
                "y": 0.9619929790496826,
                "z": -0.044151950627565387,
                "w": -0.269197940826416
            },
            "time": 6.018106460571289
        },
        {
            "position": {
                "x": -31.158639907836915,
                "y": 2.081183910369873,
                "z": 21.780044555664064
            },
            "rotation": {
                "x": -0.0120824771001935,
                "y": 0.96226567029953,
                "z": -0.04332300275564194,
                "w": -0.26836904883384707
            },
            "time": 6.035452365875244
        },
        {
            "position": {
                "x": -31.019140243530275,
                "y": 2.0903267860412599,
                "z": 21.81409454345703
            },
            "rotation": {
                "x": -0.011870356276631356,
                "y": 0.962641179561615,
                "z": -0.04277874901890755,
                "w": -0.26711612939834597
            },
            "time": 6.052409648895264
        },
        {
            "position": {
                "x": -30.931615829467775,
                "y": 2.0903267860412599,
                "z": 21.7614688873291
            },
            "rotation": {
                "x": -0.011792654171586037,
                "y": 0.962653636932373,
                "z": -0.04249872639775276,
                "w": -0.2671195864677429
            },
            "time": 6.069430828094482
        },
        {
            "position": {
                "x": -30.931615829467775,
                "y": 2.0903267860412599,
                "z": 21.7614688873291
            },
            "rotation": {
                "x": -0.01179265696555376,
                "y": 0.962653636932373,
                "z": -0.04249873384833336,
                "w": -0.2671195864677429
            },
            "time": 6.086425304412842
        },
        {
            "position": {
                "x": -30.931615829467775,
                "y": 2.0903267860412599,
                "z": 21.7614688873291
            },
            "rotation": {
                "x": -0.011792657896876336,
                "y": 0.962653636932373,
                "z": -0.04249873384833336,
                "w": -0.2671195864677429
            },
            "time": 6.103102207183838
        },
        {
            "position": {
                "x": -30.931615829467775,
                "y": 2.0903267860412599,
                "z": 21.7614688873291
            },
            "rotation": {
                "x": -0.011792657896876336,
                "y": 0.962653636932373,
                "z": -0.04249873384833336,
                "w": -0.2671195864677429
            },
            "time": 6.119756698608398
        }
    ]
}