{
    "transformations": [
        {
            "position": {
                "x": 63.53764724731445,
                "y": 2.123513698577881,
                "z": -6.603065490722656
            },
            "rotation": {
                "x": 0.0061568222008645538,
                "y": -0.6922354102134705,
                "z": -0.005906103178858757,
                "w": -0.7216213941574097
            },
            "time": 0.016667600721120836
        },
        {
            "position": {
                "x": 63.53764724731445,
                "y": 2.123513698577881,
                "z": -6.603065490722656
            },
            "rotation": {
                "x": 0.0061568222008645538,
                "y": -0.6922354102134705,
                "z": -0.005906103178858757,
                "w": -0.7216213941574097
            },
            "time": 0.03333459794521332
        },
        {
            "position": {
                "x": 63.53764724731445,
                "y": 2.123513698577881,
                "z": -6.603065490722656
            },
            "rotation": {
                "x": 0.0061568222008645538,
                "y": -0.6922354102134705,
                "z": -0.005906103178858757,
                "w": -0.7216213941574097
            },
            "time": 0.05025099962949753
        },
        {
            "position": {
                "x": 63.53764724731445,
                "y": 2.123513698577881,
                "z": -6.603065490722656
            },
            "rotation": {
                "x": 0.0061568222008645538,
                "y": -0.6922354102134705,
                "z": -0.005906103178858757,
                "w": -0.7216213941574097
            },
            "time": 0.06725689768791199
        },
        {
            "position": {
                "x": 63.53764724731445,
                "y": 2.123513698577881,
                "z": -6.603065490722656
            },
            "rotation": {
                "x": 0.0061568222008645538,
                "y": -0.6922354102134705,
                "z": -0.005906103178858757,
                "w": -0.7216213941574097
            },
            "time": 0.08392380177974701
        },
        {
            "position": {
                "x": 63.53764724731445,
                "y": 2.123513698577881,
                "z": -6.603065490722656
            },
            "rotation": {
                "x": 0.0061568222008645538,
                "y": -0.6922354102134705,
                "z": -0.005906103178858757,
                "w": -0.7216213941574097
            },
            "time": 0.10112839937210083
        },
        {
            "position": {
                "x": 63.53764724731445,
                "y": 2.123513698577881,
                "z": -6.603065490722656
            },
            "rotation": {
                "x": 0.0061568222008645538,
                "y": -0.6922354102134705,
                "z": -0.005906103178858757,
                "w": -0.7216213941574097
            },
            "time": 0.1177951991558075
        },
        {
            "position": {
                "x": 63.53764724731445,
                "y": 2.123513698577881,
                "z": -6.603065490722656
            },
            "rotation": {
                "x": 0.0061568222008645538,
                "y": -0.6922354102134705,
                "z": -0.005906103178858757,
                "w": -0.7216213941574097
            },
            "time": 0.13494209945201875
        },
        {
            "position": {
                "x": 63.53764724731445,
                "y": 2.123513698577881,
                "z": -6.603065490722656
            },
            "rotation": {
                "x": 0.0061568222008645538,
                "y": -0.6922354102134705,
                "z": -0.005906103178858757,
                "w": -0.7216213941574097
            },
            "time": 0.15184810757637025
        },
        {
            "position": {
                "x": 63.53764724731445,
                "y": 2.123513698577881,
                "z": -6.603065490722656
            },
            "rotation": {
                "x": 0.0061568222008645538,
                "y": -0.6922354102134705,
                "z": -0.005906103178858757,
                "w": -0.7216213941574097
            },
            "time": 0.16881060600280763
        },
        {
            "position": {
                "x": 63.53764724731445,
                "y": 2.123513698577881,
                "z": -6.603065490722656
            },
            "rotation": {
                "x": 0.0061568222008645538,
                "y": -0.6922354102134705,
                "z": -0.005906103178858757,
                "w": -0.7216213941574097
            },
            "time": 0.18547870218753816
        },
        {
            "position": {
                "x": 63.53764724731445,
                "y": 2.123513698577881,
                "z": -6.603065490722656
            },
            "rotation": {
                "x": 0.0061568222008645538,
                "y": -0.6922354102134705,
                "z": -0.005906103178858757,
                "w": -0.7216213941574097
            },
            "time": 0.20214250683784486
        },
        {
            "position": {
                "x": 63.53764724731445,
                "y": 2.123513698577881,
                "z": -6.603065490722656
            },
            "rotation": {
                "x": 0.006051872856914997,
                "y": -0.6922362446784973,
                "z": -0.005805427208542824,
                "w": -0.7216222286224365
            },
            "time": 0.219684898853302
        },
        {
            "position": {
                "x": 63.53764724731445,
                "y": 2.123513698577881,
                "z": -6.603065490722656
            },
            "rotation": {
                "x": 0.005772920325398445,
                "y": -0.6875008940696716,
                "z": -0.005465733353048563,
                "w": -0.726140022277832
            },
            "time": 0.23663029074668885
        },
        {
            "position": {
                "x": 63.53764724731445,
                "y": 2.123513698577881,
                "z": -6.603065490722656
            },
            "rotation": {
                "x": 0.005079188384115696,
                "y": -0.6805040836334229,
                "z": -0.004717283882200718,
                "w": -0.7327115535736084
            },
            "time": 0.25359219312667849
        },
        {
            "position": {
                "x": 63.53764724731445,
                "y": 2.123513698577881,
                "z": -6.603065490722656
            },
            "rotation": {
                "x": 0.0046715750358998779,
                "y": -0.6773031949996948,
                "z": -0.00430090120062232,
                "w": -0.735676646232605
            },
            "time": 0.270525187253952
        },
        {
            "position": {
                "x": 63.53764724731445,
                "y": 2.123513698577881,
                "z": -6.603065490722656
            },
            "rotation": {
                "x": 0.0046715750358998779,
                "y": -0.6773031949996948,
                "z": -0.00430090120062232,
                "w": -0.735676646232605
            },
            "time": 0.28719279170036318
        },
        {
            "position": {
                "x": 63.53764724731445,
                "y": 2.123513698577881,
                "z": -6.603065490722656
            },
            "rotation": {
                "x": 0.0046715750358998779,
                "y": -0.6773031949996948,
                "z": -0.00430090120062232,
                "w": -0.735676646232605
            },
            "time": 0.3038601875305176
        },
        {
            "position": {
                "x": 63.53764724731445,
                "y": 2.123513698577881,
                "z": -6.603065490722656
            },
            "rotation": {
                "x": 0.0046715750358998779,
                "y": -0.6773031949996948,
                "z": -0.00430090120062232,
                "w": -0.735676646232605
            },
            "time": 0.3205260932445526
        },
        {
            "position": {
                "x": 63.53764724731445,
                "y": 2.123513698577881,
                "z": -6.603065490722656
            },
            "rotation": {
                "x": 0.0046715750358998779,
                "y": -0.6773031949996948,
                "z": -0.00430090120062232,
                "w": -0.735676646232605
            },
            "time": 0.3373422920703888
        },
        {
            "position": {
                "x": 63.53764724731445,
                "y": 2.123513698577881,
                "z": -6.603065490722656
            },
            "rotation": {
                "x": 0.0046715750358998779,
                "y": -0.6773031949996948,
                "z": -0.00430090120062232,
                "w": -0.735676646232605
            },
            "time": 0.35435009002685549
        },
        {
            "position": {
                "x": 63.53764724731445,
                "y": 2.123513698577881,
                "z": -6.603065490722656
            },
            "rotation": {
                "x": 0.0046715750358998779,
                "y": -0.6773031949996948,
                "z": -0.00430090120062232,
                "w": -0.735676646232605
            },
            "time": 0.3712552785873413
        },
        {
            "position": {
                "x": 63.53764724731445,
                "y": 2.123513698577881,
                "z": -6.603065490722656
            },
            "rotation": {
                "x": 0.0046715750358998779,
                "y": -0.6773031949996948,
                "z": -0.00430090120062232,
                "w": -0.735676646232605
            },
            "time": 0.3879248797893524
        },
        {
            "position": {
                "x": 63.53764724731445,
                "y": 2.123513698577881,
                "z": -6.603065490722656
            },
            "rotation": {
                "x": 0.0046715750358998779,
                "y": -0.6773031949996948,
                "z": -0.00430090120062232,
                "w": -0.735676646232605
            },
            "time": 0.4053974747657776
        },
        {
            "position": {
                "x": 63.53764724731445,
                "y": 2.123513698577881,
                "z": -6.603065490722656
            },
            "rotation": {
                "x": 0.0046715750358998779,
                "y": -0.6773031949996948,
                "z": -0.00430090120062232,
                "w": -0.735676646232605
            },
            "time": 0.42211467027664187
        },
        {
            "position": {
                "x": 63.53764724731445,
                "y": 2.123513698577881,
                "z": -6.603065490722656
            },
            "rotation": {
                "x": 0.0046715750358998779,
                "y": -0.6773031949996948,
                "z": -0.00430090120062232,
                "w": -0.735676646232605
            },
            "time": 0.43878036737442019
        },
        {
            "position": {
                "x": 63.53764724731445,
                "y": 2.123513698577881,
                "z": -6.603065490722656
            },
            "rotation": {
                "x": 0.0046715750358998779,
                "y": -0.6773031949996948,
                "z": -0.00430090120062232,
                "w": -0.735676646232605
            },
            "time": 0.4554498791694641
        },
        {
            "position": {
                "x": 63.53764724731445,
                "y": 2.123513698577881,
                "z": -6.603065490722656
            },
            "rotation": {
                "x": 0.0046715750358998779,
                "y": -0.6773031949996948,
                "z": -0.00430090120062232,
                "w": -0.735676646232605
            },
            "time": 0.4721161723136902
        },
        {
            "position": {
                "x": 63.53764724731445,
                "y": 2.123513698577881,
                "z": -6.603065490722656
            },
            "rotation": {
                "x": 0.00467345118522644,
                "y": -0.6769821047782898,
                "z": -0.004298862535506487,
                "w": -0.7359721064567566
            },
            "time": 0.4889475703239441
        },
        {
            "position": {
                "x": 63.53764724731445,
                "y": 2.123513698577881,
                "z": -6.603065490722656
            },
            "rotation": {
                "x": 0.00467345118522644,
                "y": -0.6769821047782898,
                "z": -0.004298862535506487,
                "w": -0.7359721064567566
            },
            "time": 0.50588458776474
        },
        {
            "position": {
                "x": 63.53764724731445,
                "y": 2.123513698577881,
                "z": -6.603065490722656
            },
            "rotation": {
                "x": 0.00467345118522644,
                "y": -0.6769821047782898,
                "z": -0.004298862535506487,
                "w": -0.7359721064567566
            },
            "time": 0.5228750705718994
        },
        {
            "position": {
                "x": 63.53764724731445,
                "y": 2.123513698577881,
                "z": -6.603065490722656
            },
            "rotation": {
                "x": 0.00467345118522644,
                "y": -0.6769821047782898,
                "z": -0.004298862535506487,
                "w": -0.7359721064567566
            },
            "time": 0.5395351648330689
        },
        {
            "position": {
                "x": 63.53764724731445,
                "y": 2.123513698577881,
                "z": -6.603065490722656
            },
            "rotation": {
                "x": 0.00467345118522644,
                "y": -0.6769821047782898,
                "z": -0.004298862535506487,
                "w": -0.7359721064567566
            },
            "time": 0.5567506551742554
        },
        {
            "position": {
                "x": 63.53764724731445,
                "y": 2.123513698577881,
                "z": -6.603065490722656
            },
            "rotation": {
                "x": 0.004548219032585621,
                "y": -0.6801875233650208,
                "z": -0.004220452159643173,
                "w": -0.7330119609832764
            },
            "time": 0.5734193325042725
        },
        {
            "position": {
                "x": 63.53764724731445,
                "y": 2.123513698577881,
                "z": -6.603065490722656
            },
            "rotation": {
                "x": 0.004243776667863131,
                "y": -0.6773054599761963,
                "z": -0.003907046280801296,
                "w": -0.7356793284416199
            },
            "time": 0.5900852084159851
        },
        {
            "position": {
                "x": 63.53764724731445,
                "y": 2.123513698577881,
                "z": -6.603065490722656
            },
            "rotation": {
                "x": 0.0040555913001298908,
                "y": -0.6721541285514832,
                "z": -0.0036818142980337145,
                "w": -0.7403910160064697
            },
            "time": 0.6067515015602112
        },
        {
            "position": {
                "x": 63.53764724731445,
                "y": 2.123513698577881,
                "z": -6.603065490722656
            },
            "rotation": {
                "x": 0.003664629068225622,
                "y": -0.6630606055259705,
                "z": -0.00324610504321754,
                "w": -0.74854975938797
            },
            "time": 0.6235771775245667
        },
        {
            "position": {
                "x": 63.53764724731445,
                "y": 2.123513698577881,
                "z": -6.603065490722656
            },
            "rotation": {
                "x": 0.0037248849403113128,
                "y": -0.6489002108573914,
                "z": -0.003176781116053462,
                "w": -0.7608577609062195
            },
            "time": 0.6402423977851868
        },
        {
            "position": {
                "x": 63.53764724731445,
                "y": 2.123513698577881,
                "z": -6.603065490722656
            },
            "rotation": {
                "x": 0.003571915440261364,
                "y": -0.6311338543891907,
                "z": -0.0029063711408525707,
                "w": -0.7756602764129639
            },
            "time": 0.6569101214408875
        },
        {
            "position": {
                "x": 63.53764724731445,
                "y": 2.123513698577881,
                "z": -6.603065490722656
            },
            "rotation": {
                "x": 0.0029929240699857475,
                "y": -0.5974015593528748,
                "z": -0.0022295829840004446,
                "w": -0.8019336462020874
            },
            "time": 0.6735765337944031
        },
        {
            "position": {
                "x": 63.53764724731445,
                "y": 2.123513698577881,
                "z": -6.603065490722656
            },
            "rotation": {
                "x": 0.003902698867022991,
                "y": -0.5701239109039307,
                "z": -0.0027083386667072775,
                "w": -0.8215450048446655
            },
            "time": 0.6904505491256714
        },
        {
            "position": {
                "x": 63.53764724731445,
                "y": 2.123513698577881,
                "z": -6.603065490722656
            },
            "rotation": {
                "x": 0.00459987623617053,
                "y": -0.5429364442825317,
                "z": -0.0029740070458501579,
                "w": -0.8397559523582459
            },
            "time": 0.7073377370834351
        },
        {
            "position": {
                "x": 63.53764724731445,
                "y": 2.123513698577881,
                "z": -6.603065490722656
            },
            "rotation": {
                "x": 0.0041959211230278019,
                "y": -0.515171229839325,
                "z": -0.0025220923125743868,
                "w": -0.8570733070373535
            },
            "time": 0.7240039110183716
        },
        {
            "position": {
                "x": 63.53764724731445,
                "y": 2.123513698577881,
                "z": -6.603065490722656
            },
            "rotation": {
                "x": 0.004526953212916851,
                "y": -0.487994909286499,
                "z": -0.002530994126573205,
                "w": -0.8728310465812683
            },
            "time": 0.741275429725647
        },
        {
            "position": {
                "x": 63.53764724731445,
                "y": 2.123513698577881,
                "z": -6.603065490722656
            },
            "rotation": {
                "x": 0.004726884420961142,
                "y": -0.462660014629364,
                "z": -0.00246688281185925,
                "w": -0.8865197896957398
            },
            "time": 0.7579410076141357
        },
        {
            "position": {
                "x": 63.53764724731445,
                "y": 2.123513698577881,
                "z": -6.603065490722656
            },
            "rotation": {
                "x": 0.004661178216338158,
                "y": -0.43851134181022646,
                "z": -0.00227434653788805,
                "w": -0.8987107276916504
            },
            "time": 0.7751854062080383
        },
        {
            "position": {
                "x": 63.53764724731445,
                "y": 2.123513698577881,
                "z": -6.603065490722656
            },
            "rotation": {
                "x": 0.004980795085430145,
                "y": -0.41602563858032229,
                "z": -0.002278737025335431,
                "w": -0.9093364477157593
            },
            "time": 0.7921392321586609
        },
        {
            "position": {
                "x": 63.53764724731445,
                "y": 2.123513698577881,
                "z": -6.603065490722656
            },
            "rotation": {
                "x": 0.005592597182840109,
                "y": -0.38484108448028567,
                "z": -0.002331904135644436,
                "w": -0.9229629635810852
            },
            "time": 0.8091966509819031
        },
        {
            "position": {
                "x": 63.53764724731445,
                "y": 2.123513698577881,
                "z": -6.603065490722656
            },
            "rotation": {
                "x": 0.006318156607449055,
                "y": -0.36501970887184145,
                "z": -0.00247724330984056,
                "w": -0.930975079536438
            },
            "time": 0.8261802792549133
        },
        {
            "position": {
                "x": 63.53764724731445,
                "y": 2.123513698577881,
                "z": -6.603065490722656
            },
            "rotation": {
                "x": 0.006639471743255854,
                "y": -0.3462608754634857,
                "z": -0.0024506566114723684,
                "w": -0.9381116032600403
            },
            "time": 0.8431435823440552
        },
        {
            "position": {
                "x": 63.53764724731445,
                "y": 2.123513698577881,
                "z": -6.603065490722656
            },
            "rotation": {
                "x": 0.00696425698697567,
                "y": -0.3265379071235657,
                "z": -0.002406052779406309,
                "w": -0.9451554417610169
            },
            "time": 0.8598101735115051
        },
        {
            "position": {
                "x": 63.53764724731445,
                "y": 2.123513698577881,
                "z": -6.603065490722656
            },
            "rotation": {
                "x": 0.007009163033217192,
                "y": -0.308333158493042,
                "z": -0.0022719132248312237,
                "w": -0.9512499570846558
            },
            "time": 0.8764773607254028
        },
        {
            "position": {
                "x": 63.53764724731445,
                "y": 2.123513698577881,
                "z": -6.603065490722656
            },
            "rotation": {
                "x": 0.00721492525190115,
                "y": -0.27913931012153628,
                "z": -0.0020974010694772007,
                "w": -0.9602212905883789
            },
            "time": 0.893349289894104
        },
        {
            "position": {
                "x": 63.53764724731445,
                "y": 2.123513698577881,
                "z": -6.603065490722656
            },
            "rotation": {
                "x": 0.007815474644303322,
                "y": -0.2606528699398041,
                "z": -0.0021101394668221475,
                "w": -0.9653986692428589
            },
            "time": 0.9104371666908264
        },
        {
            "position": {
                "x": 63.53764724731445,
                "y": 2.123513698577881,
                "z": -6.603065490722656
            },
            "rotation": {
                "x": 0.008415513671934605,
                "y": -0.24376347661018372,
                "z": -0.002115285024046898,
                "w": -0.9697958827018738
            },
            "time": 0.9273374676704407
        },
        {
            "position": {
                "x": 63.53764724731445,
                "y": 2.123513698577881,
                "z": -6.603065490722656
            },
            "rotation": {
                "x": 0.00873175822198391,
                "y": -0.22807510197162629,
                "z": -0.002045493107289076,
                "w": -0.9736022353172302
            },
            "time": 0.9440039396286011
        },
        {
            "position": {
                "x": 63.53764724731445,
                "y": 2.123513698577881,
                "z": -6.603065490722656
            },
            "rotation": {
                "x": 0.008335717022418976,
                "y": -0.21318137645721436,
                "z": -0.0018188990652561188,
                "w": -0.9769753813743591
            },
            "time": 0.9612650275230408
        },
        {
            "position": {
                "x": 63.53764724731445,
                "y": 2.123513698577881,
                "z": -6.603065490722656
            },
            "rotation": {
                "x": 0.008217794820666314,
                "y": -0.19952015578746797,
                "z": -0.0016733199590817094,
                "w": -0.979857861995697
            },
            "time": 0.9782799482345581
        },
        {
            "position": {
                "x": 63.53764724731445,
                "y": 2.123513698577881,
                "z": -6.603065490722656
            },
            "rotation": {
                "x": 0.007678094785660505,
                "y": -0.17938587069511414,
                "z": -0.0014000963419675828,
                "w": -0.9837478399276733
            },
            "time": 0.9950793385505676
        },
        {
            "position": {
                "x": 63.53764724731445,
                "y": 2.123513698577881,
                "z": -6.603065490722656
            },
            "rotation": {
                "x": 0.007407866418361664,
                "y": -0.16735441982746125,
                "z": -0.0012575100408867002,
                "w": -0.9858681559562683
            },
            "time": 1.0117552280426026
        },
        {
            "position": {
                "x": 63.53764724731445,
                "y": 2.123513698577881,
                "z": -6.603065490722656
            },
            "rotation": {
                "x": 0.007278008386492729,
                "y": -0.15615975856781007,
                "z": -0.0011506803566589952,
                "w": -0.9877043962478638
            },
            "time": 1.0284146070480347
        },
        {
            "position": {
                "x": 63.53764724731445,
                "y": 2.123513698577881,
                "z": -6.603065490722656
            },
            "rotation": {
                "x": 0.007436847779899836,
                "y": -0.14278572797775269,
                "z": -0.0010728996712714434,
                "w": -0.9897251129150391
            },
            "time": 1.045080542564392
        },
        {
            "position": {
                "x": 63.53764724731445,
                "y": 2.123513698577881,
                "z": -6.603065490722656
            },
            "rotation": {
                "x": 0.0077390968799591068,
                "y": -0.12938548624515534,
                "z": -0.001009846106171608,
                "w": -0.9915636777877808
            },
            "time": 1.0619171857833863
        },
        {
            "position": {
                "x": 63.53764724731445,
                "y": 2.123513698577881,
                "z": -6.603065490722656
            },
            "rotation": {
                "x": 0.007895452901721,
                "y": -0.11682844907045365,
                "z": -0.0009288033470511437,
                "w": -0.9931203126907349
            },
            "time": 1.078879714012146
        },
        {
            "position": {
                "x": 63.53764724731445,
                "y": 2.123513698577881,
                "z": -6.603065490722656
            },
            "rotation": {
                "x": 0.00848879013210535,
                "y": -0.10034611076116562,
                "z": -0.000856169790495187,
                "w": -0.9949160218238831
            },
            "time": 1.0958541631698609
        },
        {
            "position": {
                "x": 63.53764724731445,
                "y": 2.123513698577881,
                "z": -6.603065490722656
            },
            "rotation": {
                "x": 0.008787659928202629,
                "y": -0.0890527069568634,
                "z": -0.0007857172749936581,
                "w": -0.9959878921508789
            },
            "time": 1.112523078918457
        },
        {
            "position": {
                "x": 63.53764724731445,
                "y": 2.123513698577881,
                "z": -6.603065490722656
            },
            "rotation": {
                "x": 0.008795103058218956,
                "y": -0.07905300706624985,
                "z": -0.0006974893622100353,
                "w": -0.9968314170837402
            },
            "time": 1.1297459602355958
        },
        {
            "position": {
                "x": 63.55363082885742,
                "y": 2.125303268432617,
                "z": -6.502930641174316
            },
            "rotation": {
                "x": 0.008514934219419957,
                "y": -0.06295043230056763,
                "z": -0.0005371036240831018,
                "w": -0.9979802370071411
            },
            "time": 1.1466490030288697
        },
        {
            "position": {
                "x": 63.56619644165039,
                "y": 2.127009630203247,
                "z": -6.4037322998046879
            },
            "rotation": {
                "x": 0.008520091883838177,
                "y": -0.05249634385108948,
                "z": -0.00044790757237933576,
                "w": -0.9985846877098084
            },
            "time": 1.1633166074752808
        },
        {
            "position": {
                "x": 63.577049255371097,
                "y": 2.1287763118743898,
                "z": -6.300778865814209
            },
            "rotation": {
                "x": 0.008524470031261444,
                "y": -0.04160056635737419,
                "z": -0.00035494298208504915,
                "w": -0.9990978837013245
            },
            "time": 1.1805731058120728
        },
        {
            "position": {
                "x": 63.58536148071289,
                "y": 2.1304826736450197,
                "z": -6.201141834259033
            },
            "rotation": {
                "x": 0.00867331214249134,
                "y": -0.030263692140579225,
                "z": -0.00026261660968884826,
                "w": -0.9995043277740479
            },
            "time": 1.1972393989562989
        },
        {
            "position": {
                "x": 63.59141159057617,
                "y": 2.132218360900879,
                "z": -6.101321220397949
            },
            "rotation": {
                "x": 0.008676070719957352,
                "y": -0.016741737723350526,
                "z": -0.00014527833263855428,
                "w": -0.999822199344635
            },
            "time": 1.2139091491699219
        },
        {
            "position": {
                "x": 63.59493637084961,
                "y": 2.1340463161468508,
                "z": -5.996066570281982
            },
            "rotation": {
                "x": 0.008531824685633183,
                "y": -0.0027804113924503328,
                "z": -0.000023722934201941825,
                "w": -0.9999597668647766
            },
            "time": 1.2314640283584595
        },
        {
            "position": {
                "x": 63.59549331665039,
                "y": 2.1357526779174806,
                "z": -5.896082878112793
            },
            "rotation": {
                "x": 0.008676656521856785,
                "y": 0.012054037302732468,
                "z": 0.00010460027260705829,
                "w": -0.9998897314071655
            },
            "time": 1.2481306791305543
        },
        {
            "position": {
                "x": 63.593082427978519,
                "y": 2.137489080429077,
                "z": -5.796065807342529
            },
            "rotation": {
                "x": -0.00911017321050167,
                "y": -0.027321962639689447,
                "z": -0.00024901112192310393,
                "w": 0.9995851516723633
            },
            "time": 1.2648075819015504
        },
        {
            "position": {
                "x": 63.587623596191409,
                "y": 2.139310598373413,
                "z": -5.696298599243164
            },
            "rotation": {
                "x": -0.009392434731125832,
                "y": -0.04999277740716934,
                "z": -0.0004701626021414995,
                "w": 0.9987053275108337
            },
            "time": 1.2814630270004273
        },
        {
            "position": {
                "x": 63.57755661010742,
                "y": 2.141206979751587,
                "z": -5.595990180969238
            },
            "rotation": {
                "x": -0.009530085138976574,
                "y": -0.06393203139305115,
                "z": -0.0006105546490289271,
                "w": 0.9979085922241211
            },
            "time": 1.2982680797576905
        },
        {
            "position": {
                "x": 63.564796447753909,
                "y": 2.1431167125701906,
                "z": -5.496825695037842
            },
            "rotation": {
                "x": -0.009666274301707745,
                "y": -0.0769888311624527,
                "z": -0.0007464457885362208,
                "w": 0.9969848394393921
            },
            "time": 1.3149347305297852
        },
        {
            "position": {
                "x": 63.54944610595703,
                "y": 2.1450557708740236,
                "z": -5.398026466369629
            },
            "rotation": {
                "x": -0.010091765783727169,
                "y": -0.08829347789287567,
                "z": -0.0008945768931880593,
                "w": 0.9960429668426514
            },
            "time": 1.3316019773483277
        },
        {
            "position": {
                "x": 63.5318603515625,
                "y": 2.1470818519592287,
                "z": -5.299610137939453
            },
            "rotation": {
                "x": -0.009937126189470292,
                "y": -0.09871920943260193,
                "z": -0.0009858502307906747,
                "w": 0.9950652122497559
            },
            "time": 1.3482680320739747
        },
        {
            "position": {
                "x": 63.512210845947269,
                "y": 2.1490795612335207,
                "z": -5.201552391052246
            },
            "rotation": {
                "x": -0.009637598879635334,
                "y": -0.10870061814785004,
                "z": -0.0010539076756685973,
                "w": 0.994027316570282
            },
            "time": 1.3649392127990723
        },
        {
            "position": {
                "x": 63.49058151245117,
                "y": 2.1510202884674074,
                "z": -5.1038432121276859
            },
            "rotation": {
                "x": -0.009483122266829014,
                "y": -0.11780426651239395,
                "z": -0.0011250377865508199,
                "w": 0.9929909110069275
            },
            "time": 1.3816213607788087
        },
        {
            "position": {
                "x": 63.46718978881836,
                "y": 2.1529300212860109,
                "z": -5.0066375732421879
            },
            "rotation": {
                "x": -0.009898978285491467,
                "y": -0.13165642321109773,
                "z": -0.0013147746212780476,
                "w": 0.9912451505661011
            },
            "time": 1.3982878923416138
        },
        {
            "position": {
                "x": 63.44102096557617,
                "y": 2.1549324989318849,
                "z": -4.9098591804504398
            },
            "rotation": {
                "x": -0.010463964194059372,
                "y": -0.13986890017986298,
                "z": -0.0014781971694901586,
                "w": 0.9901136159896851
            },
            "time": 1.415000319480896
        },
        {
            "position": {
                "x": 63.413326263427737,
                "y": 2.15704607963562,
                "z": -4.8137922286987309
            },
            "rotation": {
                "x": -0.011028796434402466,
                "y": -0.14677664637565614,
                "z": -0.001636597327888012,
                "w": 0.9891068339347839
            },
            "time": 1.4316672086715699
        },
        {
            "position": {
                "x": 63.38429260253906,
                "y": 2.159276008605957,
                "z": -4.718118190765381
            },
            "rotation": {
                "x": -0.011592130176723004,
                "y": -0.153677299618721,
                "z": -0.001802990329451859,
                "w": 0.9880514740943909
            },
            "time": 1.44833505153656
        },
        {
            "position": {
                "x": 63.35392379760742,
                "y": 2.1616222858428957,
                "z": -4.62285852432251
            },
            "rotation": {
                "x": -0.012011573649942875,
                "y": -0.15970933437347413,
                "z": -0.0019434520509094,
                "w": 0.9870890974998474
            },
            "time": 1.465003490447998
        },
        {
            "position": {
                "x": 63.3223991394043,
                "y": 2.164055585861206,
                "z": -4.527993679046631
            },
            "rotation": {
                "x": -0.012145552784204483,
                "y": -0.16444458067417146,
                "z": -0.002024993533268571,
                "w": 0.9863094687461853
            },
            "time": 1.481669306755066
        },
        {
            "position": {
                "x": 63.28996658325195,
                "y": 2.166517972946167,
                "z": -4.433436870574951
            },
            "rotation": {
                "x": -0.01213478296995163,
                "y": -0.1696067750453949,
                "z": -0.002088561188429594,
                "w": 0.9854349493980408
            },
            "time": 1.4983350038528443
        },
        {
            "position": {
                "x": 63.25654220581055,
                "y": 2.168980360031128,
                "z": -4.339217662811279
            },
            "rotation": {
                "x": -0.012123680673539639,
                "y": -0.17476406693458558,
                "z": -0.002152069006115198,
                "w": 0.9845333695411682
            },
            "time": 1.5150020122528077
        },
        {
            "position": {
                "x": 63.221920013427737,
                "y": 2.1714582443237306,
                "z": -4.244769096374512
            },
            "rotation": {
                "x": -0.011532367207109928,
                "y": -0.18335044384002686,
                "z": -0.0021510813385248186,
                "w": 0.9829776287078857
            },
            "time": 1.5317728519439698
        },
        {
            "position": {
                "x": 63.185245513916019,
                "y": 2.1738455295562746,
                "z": -4.14988374710083
            },
            "rotation": {
                "x": -0.011087819002568722,
                "y": -0.1906377077102661,
                "z": -0.0021533884573727848,
                "w": 0.981595516204834
            },
            "time": 1.548731803894043
        },
        {
            "position": {
                "x": 63.147823333740237,
                "y": 2.1761045455932619,
                "z": -4.0571746826171879
            },
            "rotation": {
                "x": -0.010498559102416039,
                "y": -0.19919760525226594,
                "z": -0.0021341831889003517,
                "w": 0.9799007773399353
            },
            "time": 1.565398931503296
        },
        {
            "position": {
                "x": 63.108787536621097,
                "y": 2.1782469749450685,
                "z": -3.96513295173645
            },
            "rotation": {
                "x": -0.010193133726716042,
                "y": -0.2085954248905182,
                "z": -0.0021741895470768215,
                "w": 0.9779465198516846
            },
            "time": 1.5820655822753907
        },
        {
            "position": {
                "x": 63.0679931640625,
                "y": 2.1803314685821535,
                "z": -3.873854875564575
            },
            "rotation": {
                "x": -0.009606637991964817,
                "y": -0.21669691801071168,
                "z": -0.002132505178451538,
                "w": 0.976189374923706
            },
            "time": 1.5987324714660645
        },
        {
            "position": {
                "x": 63.02508544921875,
                "y": 2.1823275089263918,
                "z": -3.7819721698760988
            },
            "rotation": {
                "x": -0.009158874861896038,
                "y": -0.22690851986408235,
                "z": -0.0021339862141758205,
                "w": 0.9738706946372986
            },
            "time": 1.615636944770813
        },
        {
            "position": {
                "x": 62.98015594482422,
                "y": 2.184239625930786,
                "z": -3.6907858848571779
            },
            "rotation": {
                "x": -0.009147576056420803,
                "y": -0.23200470209121705,
                "z": -0.002181913936510682,
                "w": 0.972669243812561
            },
            "time": 1.632582426071167
        },
        {
            "position": {
                "x": 62.934547424316409,
                "y": 2.186140298843384,
                "z": -3.6006224155426027
            },
            "rotation": {
                "x": -0.009559870697557927,
                "y": -0.23709331452846528,
                "z": -0.002333225216716528,
                "w": 0.9714370369911194
            },
            "time": 1.649425745010376
        },
        {
            "position": {
                "x": 62.88754653930664,
                "y": 2.1881484985351564,
                "z": -3.510068655014038
            },
            "rotation": {
                "x": -0.010112147778272629,
                "y": -0.24217519164085389,
                "z": -0.0025241912808269264,
                "w": 0.9701765775680542
            },
            "time": 1.6664332151412964
        },
        {
            "position": {
                "x": 62.839759826660159,
                "y": 2.1902685165405275,
                "z": -3.420311212539673
            },
            "rotation": {
                "x": -0.009812581352889538,
                "y": -0.24894294142723084,
                "z": -0.002522313268855214,
                "w": 0.9684652090072632
            },
            "time": 1.683384656906128
        },
        {
            "position": {
                "x": 62.79071807861328,
                "y": 2.1923294067382814,
                "z": -3.331221342086792
            },
            "rotation": {
                "x": -0.009388979524374009,
                "y": -0.24936652183532716,
                "z": -0.0024177946615964176,
                "w": 0.9683606624603272
            },
            "time": 1.7003374099731446
        },
        {
            "position": {
                "x": 62.74156188964844,
                "y": 2.194303035736084,
                "z": -3.2421085834503176
            },
            "rotation": {
                "x": -0.009388979524374009,
                "y": -0.24936652183532716,
                "z": -0.0024177946615964176,
                "w": 0.9683606624603272
            },
            "time": 1.7173024415969849
        },
        {
            "position": {
                "x": 62.69205093383789,
                "y": 2.196290969848633,
                "z": -3.1523523330688478
            },
            "rotation": {
                "x": -0.009388979524374009,
                "y": -0.24936652183532716,
                "z": -0.0024177946615964176,
                "w": 0.9683606624603272
            },
            "time": 1.7343899011611939
        },
        {
            "position": {
                "x": 62.64376449584961,
                "y": 2.1982297897338869,
                "z": -3.0648138523101808
            },
            "rotation": {
                "x": -0.009388979524374009,
                "y": -0.24936652183532716,
                "z": -0.0024177946615964176,
                "w": 0.9683606624603272
            },
            "time": 1.7510552406311036
        },
        {
            "position": {
                "x": 62.59425354003906,
                "y": 2.2002177238464357,
                "z": -2.9750540256500246
            },
            "rotation": {
                "x": -0.009388979524374009,
                "y": -0.24936652183532716,
                "z": -0.0024177946615964176,
                "w": 0.9683606624603272
            },
            "time": 1.7681434154510499
        },
        {
            "position": {
                "x": 62.545013427734378,
                "y": 2.202194929122925,
                "z": -2.885784149169922
            },
            "rotation": {
                "x": -0.009388979524374009,
                "y": -0.24936652183532716,
                "z": -0.0024177946615964176,
                "w": 0.9683606624603272
            },
            "time": 1.7851383686065674
        },
        {
            "position": {
                "x": 62.49672317504883,
                "y": 2.204133987426758,
                "z": -2.7982373237609865
            },
            "rotation": {
                "x": -0.009388979524374009,
                "y": -0.24936652183532716,
                "z": -0.0024177946615964176,
                "w": 0.9683606624603272
            },
            "time": 1.8018052577972413
        },
        {
            "position": {
                "x": 62.448421478271487,
                "y": 2.20607328414917,
                "z": -2.71067476272583
            },
            "rotation": {
                "x": -0.009388979524374009,
                "y": -0.24936652183532716,
                "z": -0.0024177946615964176,
                "w": 0.9683606624603272
            },
            "time": 1.8184751272201539
        },
        {
            "position": {
                "x": 62.40013122558594,
                "y": 2.208012104034424,
                "z": -2.6231319904327394
            },
            "rotation": {
                "x": -0.009388979524374009,
                "y": -0.24936652183532716,
                "z": -0.0024177946615964176,
                "w": 0.9683606624603272
            },
            "time": 1.8351411819458008
        },
        {
            "position": {
                "x": 62.35063934326172,
                "y": 2.2099993228912355,
                "z": -2.5334067344665529
            },
            "rotation": {
                "x": -0.009388979524374009,
                "y": -0.24936652183532716,
                "z": -0.0024177946615964176,
                "w": 0.9683606624603272
            },
            "time": 1.8522228002548218
        },
        {
            "position": {
                "x": 62.302345275878909,
                "y": 2.2119383811950685,
                "z": -2.445852041244507
            },
            "rotation": {
                "x": -0.009388979524374009,
                "y": -0.24936652183532716,
                "z": -0.0024177946615964176,
                "w": 0.9683606624603272
            },
            "time": 1.8688912391662598
        },
        {
            "position": {
                "x": 62.25215530395508,
                "y": 2.213953733444214,
                "z": -2.3548624515533449
            },
            "rotation": {
                "x": -0.009388979524374009,
                "y": -0.24936652183532716,
                "z": -0.0024177946615964176,
                "w": 0.9683606624603272
            },
            "time": 1.8862135410308838
        },
        {
            "position": {
                "x": 62.20302200317383,
                "y": 2.2159266471862795,
                "z": -2.265787124633789
            },
            "rotation": {
                "x": -0.009388979524374009,
                "y": -0.24936652183532716,
                "z": -0.0024177946615964176,
                "w": 0.9683606624603272
            },
            "time": 1.903171420097351
        },
        {
            "position": {
                "x": 62.15473175048828,
                "y": 2.2178657054901125,
                "z": -2.1782402992248537
            },
            "rotation": {
                "x": -0.009388979524374009,
                "y": -0.24936652183532716,
                "z": -0.0024177946615964176,
                "w": 0.9683606624603272
            },
            "time": 1.919838309288025
        },
        {
            "position": {
                "x": 62.106441497802737,
                "y": 2.2198047637939455,
                "z": -2.090693950653076
            },
            "rotation": {
                "x": -0.009388979524374009,
                "y": -0.24936652183532716,
                "z": -0.0024177946615964176,
                "w": 0.9683606624603272
            },
            "time": 1.9365050792694092
        },
        {
            "position": {
                "x": 62.05815124511719,
                "y": 2.2217438220977785,
                "z": -2.003148078918457
            },
            "rotation": {
                "x": -0.009388979524374009,
                "y": -0.24936652183532716,
                "z": -0.0024177946615964176,
                "w": 0.9683606624603272
            },
            "time": 1.953171730041504
        },
        {
            "position": {
                "x": 62.00971221923828,
                "y": 2.223688840866089,
                "z": -1.915332317352295
            },
            "rotation": {
                "x": -0.009388979524374009,
                "y": -0.24936652183532716,
                "z": -0.0024177946615964176,
                "w": 0.9683606624603272
            },
            "time": 1.9698898792266846
        },
        {
            "position": {
                "x": 61.960472106933597,
                "y": 2.225665807723999,
                "z": -1.8260656595230103
            },
            "rotation": {
                "x": -0.009388979524374009,
                "y": -0.24936652183532716,
                "z": -0.0024177946615964176,
                "w": 0.9683606624603272
            },
            "time": 1.9868842363357545
        },
        {
            "position": {
                "x": 61.91217041015625,
                "y": 2.227605104446411,
                "z": -1.7385029792785645
            },
            "rotation": {
                "x": -0.009388979524374009,
                "y": -0.24936652183532716,
                "z": -0.0024177946615964176,
                "w": 0.9683606624603272
            },
            "time": 2.003554105758667
        },
        {
            "position": {
                "x": 61.8638916015625,
                "y": 2.229543685913086,
                "z": -1.6509760618209839
            },
            "rotation": {
                "x": -0.009388979524374009,
                "y": -0.24936652183532716,
                "z": -0.0024177946615964176,
                "w": 0.9683606624603272
            },
            "time": 2.020217180252075
        },
        {
            "position": {
                "x": 61.81559753417969,
                "y": 2.231482744216919,
                "z": -1.5634270906448365
            },
            "rotation": {
                "x": -0.009388979524374009,
                "y": -0.24936652183532716,
                "z": -0.0024177946615964176,
                "w": 0.9683606624603272
            },
            "time": 2.0368845462799074
        },
        {
            "position": {
                "x": 61.76639175415039,
                "y": 2.2334582805633547,
                "z": -1.474225640296936
            },
            "rotation": {
                "x": -0.009388979524374009,
                "y": -0.24936652183532716,
                "z": -0.0024177946615964176,
                "w": 0.9683606624603272
            },
            "time": 2.053866386413574
        },
        {
            "position": {
                "x": 61.71738815307617,
                "y": 2.2354257106781008,
                "z": -1.385390281677246
            },
            "rotation": {
                "x": -0.009529813192784787,
                "y": -0.2493661642074585,
                "z": -0.0024540612939745189,
                "w": 0.9683592915534973
            },
            "time": 2.0707786083221437
        },
        {
            "position": {
                "x": 61.668426513671878,
                "y": 2.2374210357666017,
                "z": -1.2966278791427613
            },
            "rotation": {
                "x": -0.009526592679321766,
                "y": -0.25063344836235049,
                "z": -0.0024665328674018385,
                "w": 0.9680320620536804
            },
            "time": 2.087677001953125
        },
        {
            "position": {
                "x": 61.619903564453128,
                "y": 2.239389181137085,
                "z": -1.2092067003250123
            },
            "rotation": {
                "x": -0.00951901450753212,
                "y": -0.253589004278183,
                "z": -0.0024956190027296545,
                "w": 0.9672620296478272
            },
            "time": 2.104344129562378
        },
        {
            "position": {
                "x": 61.57084655761719,
                "y": 2.2413573265075685,
                "z": -1.122081995010376
            },
            "rotation": {
                "x": -0.009777567349374295,
                "y": -0.26201939582824709,
                "z": -0.002654805313795805,
                "w": 0.9650094509124756
            },
            "time": 2.121011734008789
        },
        {
            "position": {
                "x": 61.52028274536133,
                "y": 2.2433834075927736,
                "z": -1.0358327627182007
            },
            "rotation": {
                "x": -0.009771752171218396,
                "y": -0.26412418484687807,
                "z": -0.002676131436601281,
                "w": 0.9644355177879334
            },
            "time": 2.1376781463623049
        },
        {
            "position": {
                "x": 61.46934127807617,
                "y": 2.2454097270965578,
                "z": -0.9498034715652466
            },
            "rotation": {
                "x": -0.00906476378440857,
                "y": -0.26622939109802248,
                "z": -0.0025037836749106647,
                "w": 0.9638638496398926
            },
            "time": 2.1543450355529787
        },
        {
            "position": {
                "x": 61.418025970458987,
                "y": 2.2472903728485109,
                "z": -0.8639958500862122
            },
            "rotation": {
                "x": -0.00821167603135109,
                "y": -0.2712748050689697,
                "z": -0.002314497483894229,
                "w": 0.9624641537666321
            },
            "time": 2.1710116863250734
        },
        {
            "position": {
                "x": 61.36579895019531,
                "y": 2.2489969730377199,
                "z": -0.7787072062492371
            },
            "rotation": {
                "x": -0.007928789593279362,
                "y": -0.2725349962711334,
                "z": -0.0022459712345153095,
                "w": 0.9621105790138245
            },
            "time": 2.1876823902130129
        },
        {
            "position": {
                "x": 61.31282424926758,
                "y": 2.250661849975586,
                "z": -0.6927047967910767
            },
            "rotation": {
                "x": -0.007363598328083754,
                "y": -0.2750539779663086,
                "z": -0.002106709638610482,
                "w": 0.9613983035087586
            },
            "time": 2.204519271850586
        },
        {
            "position": {
                "x": 61.258731842041019,
                "y": 2.2522287368774416,
                "z": -0.6059070825576782
            },
            "rotation": {
                "x": -0.006235353648662567,
                "y": -0.28008654713630679,
                "z": -0.001819296390749514,
                "w": 0.9599527716636658
            },
            "time": 2.221566915512085
        },
        {
            "position": {
                "x": 61.204124450683597,
                "y": 2.2535479068756105,
                "z": -0.5202963352203369
            },
            "rotation": {
                "x": -0.0055330488830804829,
                "y": -0.2825998067855835,
                "z": -0.0016301136929541827,
                "w": 0.9592205286026001
            },
            "time": 2.238492250442505
        },
        {
            "position": {
                "x": 61.14992141723633,
                "y": 2.2547013759613039,
                "z": -0.4362899363040924
            },
            "rotation": {
                "x": -0.004972235299646854,
                "y": -0.2842745780944824,
                "z": -0.0014743271749466658,
                "w": 0.9587288498878479
            },
            "time": 2.2551560401916506
        },
        {
            "position": {
                "x": 61.09379196166992,
                "y": 2.2557694911956789,
                "z": -0.34996074438095095
            },
            "rotation": {
                "x": -0.0042711771093308929,
                "y": -0.2872025966644287,
                "z": -0.0012806608574464918,
                "w": 0.9578595161437988
            },
            "time": 2.2723190784454347
        },
        {
            "position": {
                "x": 61.03876876831055,
                "y": 2.2566614151000978,
                "z": -0.2664563059806824
            },
            "rotation": {
                "x": -0.003569703781977296,
                "y": -0.2913801372051239,
                "z": -0.0010873308638110757,
                "w": 0.9566000699996948
            },
            "time": 2.2889866828918459
        },
        {
            "position": {
                "x": 60.98039245605469,
                "y": 2.2574429512023927,
                "z": -0.1795225888490677
            },
            "rotation": {
                "x": -0.0028696232475340368,
                "y": -0.29596880078315737,
                "z": -0.0008891595643945038,
                "w": 0.9551929235458374
            },
            "time": 2.3064396381378176
        },
        {
            "position": {
                "x": 60.923851013183597,
                "y": 2.2580437660217287,
                "z": -0.09704210609197617
            },
            "rotation": {
                "x": -0.002031091833487153,
                "y": -0.30346211791038515,
                "z": -0.0006468648207373917,
                "w": 0.9528411626815796
            },
            "time": 2.323106527328491
        },
        {
            "position": {
                "x": 60.86602020263672,
                "y": 2.258470058441162,
                "z": -0.01546209305524826
            },
            "rotation": {
                "x": -0.0014738659374415875,
                "y": -0.30886247754096987,
                "z": -0.0004786239587701857,
                "w": 0.9511054754257202
            },
            "time": 2.339772939682007
        },
        {
            "position": {
                "x": 60.80725860595703,
                "y": 2.258780002593994,
                "z": 0.06546959280967713
            },
            "rotation": {
                "x": -0.0009188578114844859,
                "y": -0.3142526149749756,
                "z": -0.00030416264780797064,
                "w": 0.949338972568512
            },
            "time": 2.3564419746398927
        },
        {
            "position": {
                "x": 60.747074127197269,
                "y": 2.2589752674102785,
                "z": 0.1464148908853531
            },
            "rotation": {
                "x": -0.0003657217021100223,
                "y": -0.31921902298927309,
                "z": -0.00012319054803811014,
                "w": 0.9476808905601502
            },
            "time": 2.373253345489502
        },
        {
            "position": {
                "x": 60.685508728027347,
                "y": 2.2590537071228029,
                "z": 0.22743362188339234
            },
            "rotation": {
                "x": 0.0001854791771620512,
                "y": -0.3241768479347229,
                "z": 0.00006356054655043408,
                "w": 0.9459965229034424
            },
            "time": 2.3902127742767336
        },
        {
            "position": {
                "x": 60.623104095458987,
                "y": 2.2590138912200929,
                "z": 0.3077946901321411
            },
            "rotation": {
                "x": -0.001008264604024589,
                "y": 0.3315964341163635,
                "z": -0.0003543879429344088,
                "w": -0.9434207677841187
            },
            "time": 2.407170534133911
        },
        {
            "position": {
                "x": 60.55949783325195,
                "y": 2.2587966918945314,
                "z": 0.3870999217033386
            },
            "rotation": {
                "x": -0.0015542374458163977,
                "y": 0.33653128147125246,
                "z": -0.0005554482922889292,
                "w": -0.941670835018158
            },
            "time": 2.424114227294922
        },
        {
            "position": {
                "x": 60.495201110839847,
                "y": 2.2584617137908937,
                "z": 0.4655650854110718
            },
            "rotation": {
                "x": -0.0020981167908757927,
                "y": 0.34145694971084597,
                "z": -0.0007622306002303958,
                "w": -0.9398947954177856
            },
            "time": 2.44102144241333
        },
        {
            "position": {
                "x": 60.430198669433597,
                "y": 2.258009672164917,
                "z": 0.5432220697402954
            },
            "rotation": {
                "x": -0.00263985781930387,
                "y": 0.34637296199798586,
                "z": -0.0009747175499796867,
                "w": -0.9380927085876465
            },
            "time": 2.457900285720825
        },
        {
            "position": {
                "x": 60.36258316040039,
                "y": 2.2574241161346437,
                "z": 0.6223022937774658
            },
            "rotation": {
                "x": -0.003178894519805908,
                "y": 0.351688027381897,
                "z": -0.0011942803394049407,
                "w": -0.9361110925674439
            },
            "time": 2.4752416610717775
        },
        {
            "position": {
                "x": 60.29571533203125,
                "y": 2.2567343711853029,
                "z": 0.6987366676330566
            },
            "rotation": {
                "x": -0.003980538342148066,
                "y": 0.36106356978416445,
                "z": -0.0015412104548886419,
                "w": -0.932531476020813
            },
            "time": 2.4921681880950929
        },
        {
            "position": {
                "x": 60.226806640625,
                "y": 2.2558608055114748,
                "z": 0.7743825316429138
            },
            "rotation": {
                "x": -0.004373954609036446,
                "y": 0.368375688791275,
                "z": -0.001733159995637834,
                "w": -0.9296651482582092
            },
            "time": 2.509223222732544
        },
        {
            "position": {
                "x": 60.15831756591797,
                "y": 2.2549197673797609,
                "z": 0.8472360968589783
            },
            "rotation": {
                "x": -0.004496585577726364,
                "y": 0.37485653162002566,
                "z": -0.0018181733321398497,
                "w": -0.9270702004432678
            },
            "time": 2.5258893966674806
        },
        {
            "position": {
                "x": 60.08881759643555,
                "y": 2.2539496421813967,
                "z": 0.9191261529922485
            },
            "rotation": {
                "x": -0.0046182358637452129,
                "y": 0.3813190460205078,
                "z": -0.0019049806287512184,
                "w": -0.9244300127029419
            },
            "time": 2.542555570602417
        },
        {
            "position": {
                "x": 60.018310546875,
                "y": 2.252950429916382,
                "z": 0.9900475740432739
            },
            "rotation": {
                "x": -0.004876518622040749,
                "y": 0.3861536681652069,
                "z": -0.002041463740170002,
                "w": -0.9224193096160889
            },
            "time": 2.5592236518859865
        },
        {
            "position": {
                "x": 60.017250061035159,
                "y": 2.2518930435180666,
                "z": 1.1314570903778077
            },
            "rotation": {
                "x": -0.005660507827997208,
                "y": 0.39418646693229678,
                "z": -0.0024279344361275436,
                "w": -0.9190098643302918
            },
            "time": 2.575889825820923
        },
        {
            "position": {
                "x": 60.013641357421878,
                "y": 2.2506327629089357,
                "z": 1.2760976552963257
            },
            "rotation": {
                "x": -0.006181166507303715,
                "y": 0.3989916145801544,
                "z": -0.0026896644849330189,
                "w": -0.9169298410415649
            },
            "time": 2.5929417610168459
        },
        {
            "position": {
                "x": 60.008567810058597,
                "y": 2.2492661476135256,
                "z": 1.4193601608276368
            },
            "rotation": {
                "x": -0.006440524477511644,
                "y": 0.40138980746269228,
                "z": -0.002822596812620759,
                "w": -0.9158803224563599
            },
            "time": 2.6098368167877199
        },
        {
            "position": {
                "x": 60.00270080566406,
                "y": 2.2478301525115969,
                "z": 1.5636311769485474
            },
            "rotation": {
                "x": -0.007211814634501934,
                "y": 0.4093642830848694,
                "z": -0.003235931508243084,
                "w": -0.9123367667198181
            },
            "time": 2.626854181289673
        },
        {
            "position": {
                "x": 59.99435043334961,
                "y": 2.246222496032715,
                "z": 1.7072086334228516
            },
            "rotation": {
                "x": -0.007855113595724106,
                "y": 0.4145301878452301,
                "z": -0.0035782423801720144,
                "w": -0.9099946618080139
            },
            "time": 2.6438045501708986
        },
        {
            "position": {
                "x": 59.984474182128909,
                "y": 2.2444841861724855,
                "z": 1.8492577075958253
            },
            "rotation": {
                "x": -0.008362725377082825,
                "y": 0.41968315839767458,
                "z": -0.0038669046480208637,
                "w": -0.9076239466667175
            },
            "time": 2.6605868339538576
        },
        {
            "position": {
                "x": 59.97306823730469,
                "y": 2.2426414489746095,
                "z": 1.9902091026306153
            },
            "rotation": {
                "x": -0.008867298252880574,
                "y": 0.4248223304748535,
                "z": -0.004161430988460779,
                "w": -0.9052237868309021
            },
            "time": 2.6772537231445314
        },
        {
            "position": {
                "x": 59.95975875854492,
                "y": 2.240636110305786,
                "z": 2.1343586444854738
            },
            "rotation": {
                "x": -0.009347254410386086,
                "y": 0.43427586555480959,
                "z": -0.004506712779402733,
                "w": -0.9007201790809631
            },
            "time": 2.6943159103393556
        },
        {
            "position": {
                "x": 59.94381332397461,
                "y": 2.238560914993286,
                "z": 2.274862051010132
            },
            "rotation": {
                "x": -0.00930757075548172,
                "y": 0.44211941957473757,
                "z": -0.004588109441101551,
                "w": -0.8968961834907532
            },
            "time": 2.71098256111145
        },
        {
            "position": {
                "x": 59.9254150390625,
                "y": 2.236485481262207,
                "z": 2.415069103240967
            },
            "rotation": {
                "x": -0.009656824171543122,
                "y": 0.4499272406101227,
                "z": -0.0048654754646122459,
                "w": -0.8929997682571411
            },
            "time": 2.727649450302124
        },
        {
            "position": {
                "x": 59.90457534790039,
                "y": 2.2343227863311769,
                "z": 2.5549378395080568
            },
            "rotation": {
                "x": -0.010115239769220353,
                "y": 0.46041321754455569,
                "z": -0.005246760323643684,
                "w": -0.8876315951347351
            },
            "time": 2.744317054748535
        },
        {
            "position": {
                "x": 59.88023376464844,
                "y": 2.2320237159729006,
                "z": 2.695499897003174
            },
            "rotation": {
                "x": -0.010309331119060517,
                "y": 0.4708368480205536,
                "z": -0.0055025238543748859,
                "w": -0.882142961025238
            },
            "time": 2.7611310482025148
        },
        {
            "position": {
                "x": 59.85224914550781,
                "y": 2.2296369075775148,
                "z": 2.8371825218200685
            },
            "rotation": {
                "x": -0.010236423462629319,
                "y": 0.48234331607818606,
                "z": -0.0056369975209236149,
                "w": -0.8759043216705322
            },
            "time": 2.778153419494629
        },
        {
            "position": {
                "x": 59.82122802734375,
                "y": 2.227299928665161,
                "z": 2.975135564804077
            },
            "rotation": {
                "x": -0.010027827695012093,
                "y": 0.4949057400226593,
                "z": -0.005711819510906935,
                "w": -0.8688700795173645
            },
            "time": 2.7948195934295656
        },
        {
            "position": {
                "x": 59.78622817993164,
                "y": 2.2249908447265627,
                "z": 3.112215042114258
            },
            "rotation": {
                "x": -0.010408067144453526,
                "y": 0.5126155614852905,
                "z": -0.006214482709765434,
                "w": -0.858532726764679
            },
            "time": 2.811495065689087
        },
        {
            "position": {
                "x": 59.745662689208987,
                "y": 2.222566843032837,
                "z": 3.247654914855957
            },
            "rotation": {
                "x": -0.010748119093477726,
                "y": 0.5330655574798584,
                "z": -0.006772573571652174,
                "w": -0.8459785580635071
            },
            "time": 2.828159809112549
        },
        {
            "position": {
                "x": 59.688961029052737,
                "y": 2.2195029258728029,
                "z": 3.4084720611572267
            },
            "rotation": {
                "x": -0.010121271014213562,
                "y": 0.550305187702179,
                "z": -0.006671398412436247,
                "w": -0.8348756432533264
            },
            "time": 2.848259210586548
        },
        {
            "position": {
                "x": 59.62406921386719,
                "y": 2.216503620147705,
                "z": 3.5709335803985597
            },
            "rotation": {
                "x": -0.010013224557042122,
                "y": 0.5776817798614502,
                "z": -0.00708732008934021,
                "w": -0.8161699175834656
            },
            "time": 2.8688793182373049
        },
        {
            "position": {
                "x": 59.5476188659668,
                "y": 2.213430643081665,
                "z": 3.730696201324463
            },
            "rotation": {
                "x": -0.009669656865298748,
                "y": 0.6030343174934387,
                "z": -0.007310639601200819,
                "w": -0.7976230978965759
            },
            "time": 2.8897554874420168
        },
        {
            "position": {
                "x": 59.45400619506836,
                "y": 2.2101380825042726,
                "z": 3.8983795642852785
            },
            "rotation": {
                "x": -0.009254061616957188,
                "y": 0.6230270266532898,
                "z": -0.007371756713837385,
                "w": -0.7821107506752014
            },
            "time": 2.912391424179077
        },
        {
            "position": {
                "x": 59.349822998046878,
                "y": 2.206855058670044,
                "z": 4.064632892608643
            },
            "rotation": {
                "x": -0.009600142948329449,
                "y": 0.6338819265365601,
                "z": -0.007869027554988861,
                "w": -0.7733302712440491
            },
            "time": 2.9355170726776125
        },
        {
            "position": {
                "x": 59.24363708496094,
                "y": 2.2034928798675539,
                "z": 4.2240166664123539
            },
            "rotation": {
                "x": -0.010236108675599099,
                "y": 0.6568640470504761,
                "z": -0.008918753825128079,
                "w": -0.753886878490448
            },
            "time": 2.9580910205841066
        },
        {
            "position": {
                "x": 59.11528396606445,
                "y": 2.199409008026123,
                "z": 4.3936004638671879
            },
            "rotation": {
                "x": -0.010564186610281468,
                "y": 0.674113929271698,
                "z": -0.009643293917179108,
                "w": -0.7384889125823975
            },
            "time": 2.9831602573394777
        },
        {
            "position": {
                "x": 58.923065185546878,
                "y": 2.1933300495147707,
                "z": 4.624557018280029
            },
            "rotation": {
                "x": -0.01070481538772583,
                "y": 0.6947788596153259,
                "z": -0.010343201458454132,
                "w": -0.7190694212913513
            },
            "time": 3.0185794830322267
        },
        {
            "position": {
                "x": 58.82659149169922,
                "y": 2.1903529167175295,
                "z": 4.727942943572998
            },
            "rotation": {
                "x": -0.01107997540384531,
                "y": 0.7044334411621094,
                "z": -0.010999328456819058,
                "w": -0.7095983624458313
            },
            "time": 3.035248041152954
        },
        {
            "position": {
                "x": 58.68562316894531,
                "y": 2.1859171390533449,
                "z": 4.871054649353027
            },
            "rotation": {
                "x": -0.011585729196667672,
                "y": 0.7173067927360535,
                "z": -0.01193082332611084,
                "w": -0.6965590119361877
            },
            "time": 3.0589277744293215
        },
        {
            "position": {
                "x": 58.49273681640625,
                "y": 2.1796793937683107,
                "z": 5.053040981292725
            },
            "rotation": {
                "x": -0.01252877339720726,
                "y": 0.741152822971344,
                "z": -0.013837067410349846,
                "w": -0.6710768938064575
            },
            "time": 3.090188980102539
        },
        {
            "position": {
                "x": 58.30772018432617,
                "y": 2.173363208770752,
                "z": 5.204683303833008
            },
            "rotation": {
                "x": -0.012897023931145668,
                "y": 0.7553154826164246,
                "z": -0.014870753511786461,
                "w": -0.6550657749176025
            },
            "time": 3.118391275405884
        },
        {
            "position": {
                "x": 58.13423538208008,
                "y": 2.167323589324951,
                "z": 5.334895610809326
            },
            "rotation": {
                "x": -0.01388409174978733,
                "y": 0.7688359618186951,
                "z": -0.016703134402632715,
                "w": -0.6390770673751831
            },
            "time": 3.1439647674560549
        },
        {
            "position": {
                "x": 57.92570877075195,
                "y": 2.1595499515533449,
                "z": 5.478187561035156
            },
            "rotation": {
                "x": -0.014873707666993142,
                "y": 0.7825554013252258,
                "z": -0.018709352239966394,
                "w": -0.622122049331665
            },
            "time": 3.1737966537475588
        },
        {
            "position": {
                "x": 57.706382751464847,
                "y": 2.1508054733276369,
                "z": 5.615245819091797
            },
            "rotation": {
                "x": -0.015987850725650789,
                "y": 0.792450487613678,
                "z": -0.020791200920939447,
                "w": -0.6093721985816956
            },
            "time": 3.204293966293335
        },
        {
            "position": {
                "x": 57.53133773803711,
                "y": 2.143293857574463,
                "z": 5.716952323913574
            },
            "rotation": {
                "x": -0.017255304381251336,
                "y": 0.7987340092658997,
                "z": -0.02293246239423752,
                "w": -0.6009994745254517
            },
            "time": 3.2281689643859865
        },
        {
            "position": {
                "x": 57.28345489501953,
                "y": 2.1317899227142336,
                "z": 5.854163646697998
            },
            "rotation": {
                "x": -0.017930593341588975,
                "y": 0.8077770471572876,
                "z": -0.024603169411420823,
                "w": -0.5887014865875244
            },
            "time": 3.2615866661071779
        },
        {
            "position": {
                "x": 57.05368423461914,
                "y": 2.1206600666046144,
                "z": 5.972359657287598
            },
            "rotation": {
                "x": -0.018694721162319185,
                "y": 0.8208648562431336,
                "z": -0.026913948357105256,
                "w": -0.570181667804718
            },
            "time": 3.2920663356781008
        },
        {
            "position": {
                "x": 56.82036209106445,
                "y": 2.1087584495544435,
                "z": 6.079331398010254
            },
            "rotation": {
                "x": -0.01834784634411335,
                "y": 0.8314096927642822,
                "z": -0.027501802891492845,
                "w": -0.5546755194664002
            },
            "time": 3.3223483562469484
        },
        {
            "position": {
                "x": 56.75611114501953,
                "y": 2.1087584495544435,
                "z": 6.233820915222168
            },
            "rotation": {
                "x": -0.01771785318851471,
                "y": 0.8481793403625488,
                "z": -0.028427019715309144,
                "w": -0.5286490321159363
            },
            "time": 3.3502345085144045
        },
        {
            "position": {
                "x": 56.67071533203125,
                "y": 2.1087584495544435,
                "z": 6.407894611358643
            },
            "rotation": {
                "x": -0.016609741374850274,
                "y": 0.8641596436500549,
                "z": -0.028585130348801614,
                "w": -0.5021305680274963
            },
            "time": 3.382550001144409
        },
        {
            "position": {
                "x": 56.5775146484375,
                "y": 2.1087584495544435,
                "z": 6.571417808532715
            },
            "rotation": {
                "x": -0.015523668378591538,
                "y": 0.8755645751953125,
                "z": -0.028197502717375757,
                "w": -0.4820275604724884
            },
            "time": 3.4139199256896974
        },
        {
            "position": {
                "x": 56.5775146484375,
                "y": 2.1087584495544435,
                "z": 6.571417808532715
            },
            "rotation": {
                "x": -0.01486231479793787,
                "y": 0.885471522808075,
                "z": -0.028387634083628656,
                "w": -0.4635876417160034
            },
            "time": 3.443331241607666
        },
        {
            "position": {
                "x": 56.5775146484375,
                "y": 2.1087584495544435,
                "z": 6.571417808532715
            },
            "rotation": {
                "x": -0.013811539858579636,
                "y": 0.895014762878418,
                "z": -0.02778145670890808,
                "w": -0.4449562430381775
            },
            "time": 3.4794511795043947
        },
        {
            "position": {
                "x": 56.5775146484375,
                "y": 2.1087584495544435,
                "z": 6.571417808532715
            },
            "rotation": {
                "x": -0.013173427432775498,
                "y": 0.9020934700965881,
                "z": -0.02760719507932663,
                "w": -0.4304552972316742
            },
            "time": 3.5060951709747316
        },
        {
            "position": {
                "x": 56.5775146484375,
                "y": 2.1087584495544435,
                "z": 6.571417808532715
            },
            "rotation": {
                "x": -0.013102750293910504,
                "y": 0.9041450023651123,
                "z": -0.02780161052942276,
                "w": -0.42611873149871828
            },
            "time": 3.539318561553955
        },
        {
            "position": {
                "x": 56.5775146484375,
                "y": 2.1087584495544435,
                "z": 6.571417808532715
            },
            "rotation": {
                "x": -0.013102751225233078,
                "y": 0.9041450023651123,
                "z": -0.02780161239206791,
                "w": -0.42611873149871828
            },
            "time": 3.5746593475341799
        },
        {
            "position": {
                "x": 56.5775146484375,
                "y": 2.1087584495544435,
                "z": 6.571417808532715
            },
            "rotation": {
                "x": -0.013102752156555653,
                "y": 0.9041450023651123,
                "z": -0.02780161239206791,
                "w": -0.42611873149871828
            },
            "time": 3.610396146774292
        }
    ]
}