{
    "transformations": [
        {
            "position": {
                "x": 1.2179111242294312,
                "y": 1.7479037046432496,
                "z": -63.31543731689453
            },
            "rotation": {
                "x": 0.006965857930481434,
                "y": -0.08710107952356339,
                "z": -0.0006090634851716459,
                "w": -0.9961749911308289
            },
            "time": 0.03279529884457588
        },
        {
            "position": {
                "x": 1.2179111242294312,
                "y": 1.7479037046432496,
                "z": -63.31543731689453
            },
            "rotation": {
                "x": 0.006965857930481434,
                "y": -0.08710107952356339,
                "z": -0.0006090634851716459,
                "w": -0.9961749911308289
            },
            "time": 0.07573069632053375
        },
        {
            "position": {
                "x": 1.2179111242294312,
                "y": 1.7479037046432496,
                "z": -63.31543731689453
            },
            "rotation": {
                "x": 0.006965857930481434,
                "y": -0.08710107952356339,
                "z": -0.0006090634851716459,
                "w": -0.9961749911308289
            },
            "time": 0.10305649787187576
        },
        {
            "position": {
                "x": 1.2179111242294312,
                "y": 1.7479037046432496,
                "z": -63.31543731689453
            },
            "rotation": {
                "x": 0.0069653550162911419,
                "y": -0.08791954815387726,
                "z": -0.0006147866370156407,
                "w": -0.996103048324585
            },
            "time": 0.13151809573173524
        },
        {
            "position": {
                "x": 1.2179111242294312,
                "y": 1.7479037046432496,
                "z": -63.31543731689453
            },
            "rotation": {
                "x": 0.006142054684460163,
                "y": -0.09651028364896774,
                "z": -0.0005955629167146981,
                "w": -0.9953128695487976
            },
            "time": 0.16581319272518159
        },
        {
            "position": {
                "x": 1.2626241445541382,
                "y": 1.7507761716842652,
                "z": -63.087039947509769
            },
            "rotation": {
                "x": 0.005723835434764624,
                "y": -0.11162789911031723,
                "z": -0.0006429689237847924,
                "w": -0.9937334060668945
            },
            "time": 0.20460468530654908
        },
        {
            "position": {
                "x": 1.307373285293579,
                "y": 1.753099799156189,
                "z": -62.8903694152832
            },
            "rotation": {
                "x": 0.00774978194385767,
                "y": -0.1279401034116745,
                "z": -0.000999754760414362,
                "w": -0.9917511343955994
            },
            "time": 0.23822298645973206
        },
        {
            "position": {
                "x": 1.3562262058258057,
                "y": 1.7561084032058716,
                "z": -62.70417404174805
            },
            "rotation": {
                "x": 0.010567326098680497,
                "y": -0.1507163643836975,
                "z": -0.0016111661680042744,
                "w": -0.9885193109512329
            },
            "time": 0.27030977606773379
        },
        {
            "position": {
                "x": 1.419337511062622,
                "y": 1.760636806488037,
                "z": -62.502017974853519
            },
            "rotation": {
                "x": 0.007687099277973175,
                "y": -0.1794862300157547,
                "z": -0.001402548630721867,
                "w": -0.9837294816970825
            },
            "time": 0.30561429262161257
        },
        {
            "position": {
                "x": 1.4970719814300538,
                "y": 1.764077067375183,
                "z": -62.296085357666019
            },
            "rotation": {
                "x": 0.009236100129783154,
                "y": -0.21492207050323487,
                "z": -0.002032635034993291,
                "w": -0.9765854477882385
            },
            "time": 0.34230470657348635
        },
        {
            "position": {
                "x": 1.5892624855041505,
                "y": 1.7682311534881592,
                "z": -62.096778869628909
            },
            "rotation": {
                "x": 0.011941885575652123,
                "y": -0.2496739625930786,
                "z": -0.003079342423006892,
                "w": -0.9682514071464539
            },
            "time": 0.37891072034835818
        },
        {
            "position": {
                "x": 1.7060062885284424,
                "y": 1.7741872072219849,
                "z": -61.885459899902347
            },
            "rotation": {
                "x": 0.013004357926547528,
                "y": -0.2845029830932617,
                "z": -0.003859648248180747,
                "w": -0.9585792422294617
            },
            "time": 0.4191599190235138
        },
        {
            "position": {
                "x": 1.8193939924240113,
                "y": 1.77982759475708,
                "z": -61.711265563964847
            },
            "rotation": {
                "x": 0.016740158200263978,
                "y": -0.3205004930496216,
                "z": -0.005665001459419727,
                "w": -0.9470834732055664
            },
            "time": 0.4538136124610901
        },
        {
            "position": {
                "x": 1.9397931098937989,
                "y": 1.7868385314941407,
                "z": -61.55374526977539
            },
            "rotation": {
                "x": 0.017720263451337816,
                "y": -0.34836211800575259,
                "z": -0.006586928851902485,
                "w": -0.9371694326400757
            },
            "time": 0.48687800765037539
        },
        {
            "position": {
                "x": 2.087728261947632,
                "y": 1.795406460762024,
                "z": -61.38225173950195
            },
            "rotation": {
                "x": 0.016337452456355096,
                "y": -0.3812570571899414,
                "z": -0.006738902535289526,
                "w": -0.9243001341819763
            },
            "time": 0.5246523022651672
        },
        {
            "position": {
                "x": 2.2081263065338136,
                "y": 1.8014453649520875,
                "z": -61.261138916015628
            },
            "rotation": {
                "x": 0.015071558766067028,
                "y": -0.3994167745113373,
                "z": -0.006567410193383694,
                "w": -0.9166221022605896
            },
            "time": 0.5531324744224548
        },
        {
            "position": {
                "x": 2.3649399280548097,
                "y": 1.8084880113601685,
                "z": -61.1153678894043
            },
            "rotation": {
                "x": 0.010779409669339657,
                "y": -0.42712119221687319,
                "z": -0.0050923945382237438,
                "w": -0.9041157960891724
            },
            "time": 0.5888353586196899
        },
        {
            "position": {
                "x": 2.517963171005249,
                "y": 1.813212513923645,
                "z": -60.98955535888672
            },
            "rotation": {
                "x": 0.01029615942388773,
                "y": -0.447073757648468,
                "z": -0.005146493203938007,
                "w": -0.8944230675697327
            },
            "time": 0.6218618750572205
        },
        {
            "position": {
                "x": 2.6805241107940676,
                "y": 1.81789231300354,
                "z": -60.86757278442383
            },
            "rotation": {
                "x": 0.0101617481559515,
                "y": -0.4697079658508301,
                "z": -0.0054070474579930309,
                "w": -0.8827468156814575
            },
            "time": 0.6557439565658569
        },
        {
            "position": {
                "x": 2.8387033939361574,
                "y": 1.8222838640213013,
                "z": -60.76102066040039
            },
            "rotation": {
                "x": 0.011104023084044457,
                "y": -0.49059897661209109,
                "z": -0.006252347491681576,
                "w": -0.8712922930717468
            },
            "time": 0.6875391602516174
        },
        {
            "position": {
                "x": 3.0319454669952394,
                "y": 1.8280452489852906,
                "z": -60.643829345703128
            },
            "rotation": {
                "x": 0.009495431557297707,
                "y": -0.5179206728935242,
                "z": -0.005749508738517761,
                "w": -0.8553566336631775
            },
            "time": 0.7252182364463806
        },
        {
            "position": {
                "x": 3.2146663665771486,
                "y": 1.8326239585876465,
                "z": -60.54826354980469
            },
            "rotation": {
                "x": 0.006946573965251446,
                "y": -0.5353948473930359,
                "z": -0.00440365681424737,
                "w": -0.8445618152618408
            },
            "time": 0.7595938444137573
        },
        {
            "position": {
                "x": 3.3592889308929445,
                "y": 1.8352546691894532,
                "z": -60.480037689208987
            },
            "rotation": {
                "x": 0.005173501092940569,
                "y": -0.5450822114944458,
                "z": -0.0033636908046901228,
                "w": -0.8383599519729614
            },
            "time": 0.7862488627433777
        },
        {
            "position": {
                "x": 3.525254964828491,
                "y": 1.8374959230422974,
                "z": -60.4063606262207
            },
            "rotation": {
                "x": 0.0023926254361867906,
                "y": -0.5584521293640137,
                "z": -0.0016107482369989157,
                "w": -0.829531729221344
            },
            "time": 0.8165153861045837
        },
        {
            "position": {
                "x": 3.6903655529022219,
                "y": 1.8385239839553834,
                "z": -60.33930969238281
            },
            "rotation": {
                "x": 0.00034529564436525106,
                "y": -0.5672828555107117,
                "z": -0.0002378565404796973,
                "w": -0.8235229253768921
            },
            "time": 0.8462168574333191
        },
        {
            "position": {
                "x": 3.888415813446045,
                "y": 1.8387017250061036,
                "z": -60.26376724243164
            },
            "rotation": {
                "x": -0.002328072441741824,
                "y": -0.5837422013282776,
                "z": 0.0016737739788368345,
                "w": -0.8119340538978577
            },
            "time": 0.881544828414917
        },
        {
            "position": {
                "x": 4.051194667816162,
                "y": 1.8377169370651246,
                "z": -60.209075927734378
            },
            "rotation": {
                "x": 0.004607249982655048,
                "y": 0.5969976782798767,
                "z": -0.0034286221489310266,
                "w": 0.8022224307060242
            },
            "time": 0.9101654291152954
        },
        {
            "position": {
                "x": 4.321626663208008,
                "y": 1.834473967552185,
                "z": -60.12800216674805
            },
            "rotation": {
                "x": 0.007434512488543987,
                "y": 0.6162476539611816,
                "z": -0.005817809607833624,
                "w": 0.7874958515167236
            },
            "time": 0.9572223424911499
        },
        {
            "position": {
                "x": 4.427520751953125,
                "y": 1.832413911819458,
                "z": -60.101776123046878
            },
            "rotation": {
                "x": 0.008334329351782799,
                "y": 0.6246161460876465,
                "z": -0.006666704546660185,
                "w": 0.7808590531349182
            },
            "time": 0.9754078388214111
        },
        {
            "position": {
                "x": 4.5785064697265629,
                "y": 1.8291099071502686,
                "z": -60.067787170410159
            },
            "rotation": {
                "x": 0.010109049268066883,
                "y": 0.6386094093322754,
                "z": -0.008390402421355248,
                "w": 0.7694188952445984
            },
            "time": 1.001207709312439
        },
        {
            "position": {
                "x": 4.911008358001709,
                "y": 1.8202190399169922,
                "z": -60.005470275878909
            },
            "rotation": {
                "x": 0.012910199351608754,
                "y": 0.662891149520874,
                "z": -0.011433347128331662,
                "w": 0.7485171556472778
            },
            "time": 1.0576090812683106
        },
        {
            "position": {
                "x": 5.039556503295898,
                "y": 1.8157505989074708,
                "z": -59.98981475830078
            },
            "rotation": {
                "x": 0.013376557268202305,
                "y": 0.6720560789108276,
                "z": -0.012143779546022416,
                "w": 0.7402799129486084
            },
            "time": 1.0792049169540406
        },
        {
            "position": {
                "x": 5.157862186431885,
                "y": 1.8114537000656129,
                "z": -59.97835922241211
            },
            "rotation": {
                "x": 0.012389536947011948,
                "y": 0.6769220232963562,
                "z": -0.011397174559533596,
                "w": 0.7358622550964356
            },
            "time": 1.0990277528762818
        },
        {
            "position": {
                "x": 5.433924674987793,
                "y": 1.8021225929260255,
                "z": -59.955284118652347
            },
            "rotation": {
                "x": 0.012750906869769097,
                "y": 0.6915870904922485,
                "z": -0.012212490662932396,
                "w": 0.7220773100852966
            },
            "time": 1.1452248096466065
        },
        {
            "position": {
                "x": 5.534173488616943,
                "y": 1.7985776662826539,
                "z": -59.950958251953128
            },
            "rotation": {
                "x": 0.012685501947999,
                "y": 0.6954335570335388,
                "z": -0.012280413880944252,
                "w": 0.7183734774589539
            },
            "time": 1.161958932876587
        },
        {
            "position": {
                "x": 5.679688930511475,
                "y": 1.7934341430664063,
                "z": -59.94623565673828
            },
            "rotation": {
                "x": 0.012866521254181862,
                "y": 0.701892614364624,
                "z": -0.012682915665209294,
                "w": 0.712053656578064
            },
            "time": 1.18623948097229
        },
        {
            "position": {
                "x": 5.8352580070495609,
                "y": 1.7878096103668213,
                "z": -59.944000244140628
            },
            "rotation": {
                "x": 0.013057397678494454,
                "y": 0.7074238657951355,
                "z": -0.01307358406484127,
                "w": 0.7065479755401611
            },
            "time": 1.2121872901916505
        },
        {
            "position": {
                "x": 6.028506278991699,
                "y": 1.7806644439697266,
                "z": -59.94424057006836
            },
            "rotation": {
                "x": 0.01374365109950304,
                "y": 0.7166340351104736,
                "z": -0.014127337373793126,
                "w": 0.6971708536148071
            },
            "time": 1.244417428970337
        },
        {
            "position": {
                "x": 6.199779033660889,
                "y": 1.7739064693450928,
                "z": -59.94895553588867
            },
            "rotation": {
                "x": 0.015284833498299122,
                "y": 0.7242855429649353,
                "z": -0.01606426201760769,
                "w": 0.6891435980796814
            },
            "time": 1.272995948791504
        },
        {
            "position": {
                "x": 6.363129615783691,
                "y": 1.7666479349136353,
                "z": -59.95708465576172
            },
            "rotation": {
                "x": 0.015218707732856274,
                "y": 0.7271105051040649,
                "z": -0.01612691767513752,
                "w": 0.6861622333526611
            },
            "time": 1.3002815246582032
        },
        {
            "position": {
                "x": 6.504035949707031,
                "y": 1.7603838443756104,
                "z": -59.96525573730469
            },
            "rotation": {
                "x": 0.015192185528576374,
                "y": 0.7282371520996094,
                "z": -0.016151906922459604,
                "w": 0.6849664449691773
            },
            "time": 1.3238285779953004
        },
        {
            "position": {
                "x": 6.659297943115234,
                "y": 1.753480315208435,
                "z": -59.97477340698242
            },
            "rotation": {
                "x": 0.014891239814460278,
                "y": 0.7290872931480408,
                "z": -0.015871098265051843,
                "w": 0.6840745806694031
            },
            "time": 1.349779725074768
        },
        {
            "position": {
                "x": 6.818875312805176,
                "y": 1.7465153932571412,
                "z": -59.98495101928711
            },
            "rotation": {
                "x": 0.01401119027286768,
                "y": 0.7307903170585632,
                "z": -0.015007100068032742,
                "w": 0.6822932362556458
            },
            "time": 1.3764551877975464
        },
        {
            "position": {
                "x": 6.996802806854248,
                "y": 1.739187479019165,
                "z": -59.99717712402344
            },
            "rotation": {
                "x": 0.012850218452513218,
                "y": 0.7327730655670166,
                "z": -0.01384319830685854,
                "w": 0.6802108883857727
            },
            "time": 1.4062048196792603
        },
        {
            "position": {
                "x": 7.1451735496521,
                "y": 1.733564019203186,
                "z": -60.00823211669922
            },
            "rotation": {
                "x": 0.011979945935308934,
                "y": 0.7344639897346497,
                "z": -0.012969642877578736,
                "w": 0.678417980670929
            },
            "time": 1.4310195446014405
        },
        {
            "position": {
                "x": 7.265882968902588,
                "y": 1.7292860746383668,
                "z": -60.017822265625
            },
            "rotation": {
                "x": 0.011412362568080426,
                "y": 0.7350316047668457,
                "z": -0.01237555593252182,
                "w": 0.6778239011764526
            },
            "time": 1.4512137174606324
        },
        {
            "position": {
                "x": 7.437027454376221,
                "y": 1.723502516746521,
                "z": -60.03170394897461
            },
            "rotation": {
                "x": 0.011412364430725575,
                "y": 0.7350316047668457,
                "z": -0.01237555779516697,
                "w": 0.6778238415718079
            },
            "time": 1.4798476696014405
        },
        {
            "position": {
                "x": 7.541590690612793,
                "y": 1.7199689149856568,
                "z": -60.040184020996097
            },
            "rotation": {
                "x": 0.011412364430725575,
                "y": 0.7350316047668457,
                "z": -0.01237555779516697,
                "w": 0.6778238415718079
            },
            "time": 1.4973421096801758
        },
        {
            "position": {
                "x": 7.71000862121582,
                "y": 1.7142775058746338,
                "z": -60.0538444519043
            },
            "rotation": {
                "x": 0.011412364430725575,
                "y": 0.7350316047668457,
                "z": -0.01237555779516697,
                "w": 0.6778238415718079
            },
            "time": 1.5255199670791627
        },
        {
            "position": {
                "x": 7.85504150390625,
                "y": 1.709376335144043,
                "z": -60.065608978271487
            },
            "rotation": {
                "x": 0.011412364430725575,
                "y": 0.7350316047668457,
                "z": -0.01237555779516697,
                "w": 0.6778238415718079
            },
            "time": 1.5497852563858033
        },
        {
            "position": {
                "x": 7.986277103424072,
                "y": 1.7049413919448853,
                "z": -60.076255798339847
            },
            "rotation": {
                "x": 0.011412364430725575,
                "y": 0.7350316047668457,
                "z": -0.01237555779516697,
                "w": 0.6778238415718079
            },
            "time": 1.5717421770095826
        },
        {
            "position": {
                "x": 8.144887924194336,
                "y": 1.6995813846588135,
                "z": -60.0891227722168
            },
            "rotation": {
                "x": 0.011412364430725575,
                "y": 0.7350316047668457,
                "z": -0.01237555779516697,
                "w": 0.6778238415718079
            },
            "time": 1.5982791185379029
        },
        {
            "position": {
                "x": 8.267091751098633,
                "y": 1.6954516172409058,
                "z": -60.099037170410159
            },
            "rotation": {
                "x": 0.011412364430725575,
                "y": 0.7350316047668457,
                "z": -0.01237555779516697,
                "w": 0.6778238415718079
            },
            "time": 1.6187249422073365
        },
        {
            "position": {
                "x": 8.433001518249512,
                "y": 1.6898448467254639,
                "z": -60.11249542236328
            },
            "rotation": {
                "x": 0.011412364430725575,
                "y": 0.7350316047668457,
                "z": -0.01237555779516697,
                "w": 0.6778238415718079
            },
            "time": 1.6464831829071046
        },
        {
            "position": {
                "x": 8.574514389038086,
                "y": 1.6850626468658448,
                "z": -60.12397384643555
            },
            "rotation": {
                "x": 0.011412364430725575,
                "y": 0.7350316047668457,
                "z": -0.01237555779516697,
                "w": 0.6778238415718079
            },
            "time": 1.6701594591140748
        },
        {
            "position": {
                "x": 8.704190254211426,
                "y": 1.6806803941726685,
                "z": -60.134490966796878
            },
            "rotation": {
                "x": 0.011412364430725575,
                "y": 0.7350316047668457,
                "z": -0.01237555779516697,
                "w": 0.6778238415718079
            },
            "time": 1.6918554306030274
        },
        {
            "position": {
                "x": 8.854594230651856,
                "y": 1.6755976676940919,
                "z": -60.146690368652347
            },
            "rotation": {
                "x": 0.011412364430725575,
                "y": 0.7350316047668457,
                "z": -0.01237555779516697,
                "w": 0.6778238415718079
            },
            "time": 1.7170194387435914
        },
        {
            "position": {
                "x": 8.98433780670166,
                "y": 1.671213150024414,
                "z": -60.1572151184082
            },
            "rotation": {
                "x": 0.011412364430725575,
                "y": 0.7350316047668457,
                "z": -0.01237555779516697,
                "w": 0.6778238415718079
            },
            "time": 1.7387266159057618
        },
        {
            "position": {
                "x": 9.15980052947998,
                "y": 1.6652836799621583,
                "z": -60.17144775390625
            },
            "rotation": {
                "x": 0.011412364430725575,
                "y": 0.7350316047668457,
                "z": -0.01237555779516697,
                "w": 0.6778238415718079
            },
            "time": 1.7680829763412476
        },
        {
            "position": {
                "x": 9.285350799560547,
                "y": 1.6610409021377564,
                "z": -60.18163299560547
            },
            "rotation": {
                "x": 0.011412364430725575,
                "y": 0.7350316047668457,
                "z": -0.01237555779516697,
                "w": 0.6778238415718079
            },
            "time": 1.7890886068344117
        },
        {
            "position": {
                "x": 9.407465934753418,
                "y": 1.656914234161377,
                "z": -60.1915397644043
            },
            "rotation": {
                "x": 0.011412364430725575,
                "y": 0.7350316047668457,
                "z": -0.01237555779516697,
                "w": 0.6778238415718079
            },
            "time": 1.8095195293426514
        },
        {
            "position": {
                "x": 9.560001373291016,
                "y": 1.6517595052719117,
                "z": -60.20391082763672
            },
            "rotation": {
                "x": 0.011412364430725575,
                "y": 0.7350316047668457,
                "z": -0.01237555779516697,
                "w": 0.6778238415718079
            },
            "time": 1.8350399732589722
        },
        {
            "position": {
                "x": 9.688608169555664,
                "y": 1.6474133729934693,
                "z": -60.2143440246582
            },
            "rotation": {
                "x": 0.011412364430725575,
                "y": 0.7350316047668457,
                "z": -0.01237555779516697,
                "w": 0.6778238415718079
            },
            "time": 1.8565571308135987
        },
        {
            "position": {
                "x": 9.837959289550782,
                "y": 1.6423662900924683,
                "z": -60.22645950317383
            },
            "rotation": {
                "x": 0.011412364430725575,
                "y": 0.7350316047668457,
                "z": -0.01237555779516697,
                "w": 0.6778238415718079
            },
            "time": 1.8815449476242066
        },
        {
            "position": {
                "x": 9.96485424041748,
                "y": 1.638077974319458,
                "z": -60.236751556396487
            },
            "rotation": {
                "x": 0.011412364430725575,
                "y": 0.7350316047668457,
                "z": -0.01237555779516697,
                "w": 0.6778238415718079
            },
            "time": 1.9027756452560425
        },
        {
            "position": {
                "x": 10.126835823059082,
                "y": 1.6326040029525757,
                "z": -60.2498893737793
            },
            "rotation": {
                "x": 0.011412364430725575,
                "y": 0.7350316047668457,
                "z": -0.01237555779516697,
                "w": 0.6778238415718079
            },
            "time": 1.9298765659332276
        },
        {
            "position": {
                "x": 10.260741233825684,
                "y": 1.628078818321228,
                "z": -60.26074981689453
            },
            "rotation": {
                "x": 0.011412364430725575,
                "y": 0.7350316047668457,
                "z": -0.01237555779516697,
                "w": 0.6778238415718079
            },
            "time": 1.9522801637649537
        },
        {
            "position": {
                "x": 10.39344310760498,
                "y": 1.6235942840576172,
                "z": -60.271514892578128
            },
            "rotation": {
                "x": 0.011412364430725575,
                "y": 0.7350316047668457,
                "z": -0.01237555779516697,
                "w": 0.6778238415718079
            },
            "time": 1.9744824171066285
        },
        {
            "position": {
                "x": 10.54492473602295,
                "y": 1.6184751987457276,
                "z": -60.2838020324707
            },
            "rotation": {
                "x": 0.011412364430725575,
                "y": 0.7350316047668457,
                "z": -0.01237555779516697,
                "w": 0.6778238415718079
            },
            "time": 1.9998266696929932
        },
        {
            "position": {
                "x": 10.79352855682373,
                "y": 1.6100739240646363,
                "z": -60.3039665222168
            },
            "rotation": {
                "x": 0.011412364430725575,
                "y": 0.7350316047668457,
                "z": -0.01237555779516697,
                "w": 0.6778238415718079
            },
            "time": 2.0414202213287355
        },
        {
            "position": {
                "x": 10.895509719848633,
                "y": 1.6066275835037232,
                "z": -60.31223678588867
            },
            "rotation": {
                "x": 0.011412364430725575,
                "y": 0.7350316047668457,
                "z": -0.01237555779516697,
                "w": 0.6778238415718079
            },
            "time": 2.0584824085235597
        },
        {
            "position": {
                "x": 10.99512004852295,
                "y": 1.6032613515853882,
                "z": -60.320316314697269
            },
            "rotation": {
                "x": 0.011412364430725575,
                "y": 0.7350316047668457,
                "z": -0.01237555779516697,
                "w": 0.6778238415718079
            },
            "time": 2.075148105621338
        },
        {
            "position": {
                "x": 11.105917930603028,
                "y": 1.5995171070098878,
                "z": -60.32930374145508
            },
            "rotation": {
                "x": 0.011412364430725575,
                "y": 0.7350316047668457,
                "z": -0.01237555779516697,
                "w": 0.6778238415718079
            },
            "time": 2.0936853885650636
        },
        {
            "position": {
                "x": 11.236024856567383,
                "y": 1.5951203107833863,
                "z": -60.33985900878906
            },
            "rotation": {
                "x": 0.011412364430725575,
                "y": 0.7350316047668457,
                "z": -0.01237555779516697,
                "w": 0.6778238415718079
            },
            "time": 2.1154534816741945
        },
        {
            "position": {
                "x": 11.358166694641114,
                "y": 1.5909926891326905,
                "z": -60.34976577758789
            },
            "rotation": {
                "x": 0.0114072784781456,
                "y": 0.7353100180625916,
                "z": -0.012380245141685009,
                "w": 0.677521824836731
            },
            "time": 2.1358888149261476
        },
        {
            "position": {
                "x": 11.518987655639649,
                "y": 1.5855575799942017,
                "z": -60.362945556640628
            },
            "rotation": {
                "x": 0.01138691883534193,
                "y": 0.7364224195480347,
                "z": -0.012398974969983101,
                "w": 0.6763125658035278
            },
            "time": 2.162797451019287
        },
        {
            "position": {
                "x": 11.632575035095215,
                "y": 1.5817177295684815,
                "z": -60.37262725830078
            },
            "rotation": {
                "x": 0.011376728303730488,
                "y": 0.7369778752326965,
                "z": -0.01240832731127739,
                "w": 0.6757072806358337
            },
            "time": 2.1818079948425295
        },
        {
            "position": {
                "x": 11.785911560058594,
                "y": 1.5765334367752076,
                "z": -60.38595199584961
            },
            "rotation": {
                "x": 0.011356323026120663,
                "y": 0.7380872964859009,
                "z": -0.012427007779479027,
                "w": 0.674495279788971
            },
            "time": 2.207474946975708
        },
        {
            "position": {
                "x": 11.909446716308594,
                "y": 1.5723555088043213,
                "z": -60.397098541259769
            },
            "rotation": {
                "x": 0.011346107348799706,
                "y": 0.7386412620544434,
                "z": -0.012436334043741227,
                "w": 0.6738885641098023
            },
            "time": 2.2281594276428224
        },
        {
            "position": {
                "x": 12.056774139404297,
                "y": 1.56737220287323,
                "z": -60.4106330871582
            },
            "rotation": {
                "x": 0.01134099904447794,
                "y": 0.7389179468154907,
                "z": -0.012440994381904602,
                "w": 0.6735851168632507
            },
            "time": 2.252831220626831
        },
        {
            "position": {
                "x": 12.1970796585083,
                "y": 1.5626260042190552,
                "z": -60.423641204833987
            },
            "rotation": {
                "x": 0.011340999975800515,
                "y": 0.738917887210846,
                "z": -0.012440993450582028,
                "w": 0.6735851764678955
            },
            "time": 2.2763290405273439
        },
        {
            "position": {
                "x": 12.317325592041016,
                "y": 1.5585583448410035,
                "z": -60.43478775024414
            },
            "rotation": {
                "x": 0.0113154212012887,
                "y": 0.7402999401092529,
                "z": -0.012464262545108796,
                "w": 0.6720659136772156
            },
            "time": 2.2964675426483156
        },
        {
            "position": {
                "x": 12.459142684936524,
                "y": 1.5537590980529786,
                "z": -60.448524475097659
            },
            "rotation": {
                "x": 0.01131029985845089,
                "y": 0.7405759692192078,
                "z": -0.012468909844756127,
                "w": 0.6717617511749268
            },
            "time": 2.320227861404419
        },
        {
            "position": {
                "x": 12.579421043395996,
                "y": 1.549688458442688,
                "z": -60.46027374267578
            },
            "rotation": {
                "x": 0.01130517665296793,
                "y": 0.7408519387245178,
                "z": -0.012473555281758309,
                "w": 0.6714574694633484
            },
            "time": 2.340381145477295
        },
        {
            "position": {
                "x": 12.725266456604004,
                "y": 1.5447521209716797,
                "z": -60.474639892578128
            },
            "rotation": {
                "x": 0.011294925585389138,
                "y": 0.741403341293335,
                "z": -0.0124828414991498,
                "w": 0.6708484888076782
            },
            "time": 2.3648202419281008
        },
        {
            "position": {
                "x": 12.831472396850586,
                "y": 1.5411568880081177,
                "z": -60.48527908325195
            },
            "rotation": {
                "x": 0.011294926516711712,
                "y": 0.741403341293335,
                "z": -0.012482843361794949,
                "w": 0.6708484888076782
            },
            "time": 2.382619857788086
        },
        {
            "position": {
                "x": 12.97401237487793,
                "y": 1.5363316535949708,
                "z": -60.49955749511719
            },
            "rotation": {
                "x": 0.011294926516711712,
                "y": 0.741403341293335,
                "z": -0.012482843361794949,
                "w": 0.6708484888076782
            },
            "time": 2.4065089225769045
        },
        {
            "position": {
                "x": 13.09475326538086,
                "y": 1.532244324684143,
                "z": -60.51165008544922
            },
            "rotation": {
                "x": 0.011294926516711712,
                "y": 0.741403341293335,
                "z": -0.012482843361794949,
                "w": 0.6708484888076782
            },
            "time": 2.4267446994781496
        },
        {
            "position": {
                "x": 13.258846282958985,
                "y": 1.5266895294189454,
                "z": -60.5280876159668
            },
            "rotation": {
                "x": 0.010487123392522335,
                "y": 0.740314781665802,
                "z": -0.011551867239177227,
                "w": 0.6720793843269348
            },
            "time": 2.4542460441589357
        },
        {
            "position": {
                "x": 13.35842514038086,
                "y": 1.5235666036605836,
                "z": -60.5377311706543
            },
            "rotation": {
                "x": 0.00995288323611021,
                "y": 0.739218533039093,
                "z": -0.010927251540124417,
                "w": 0.6733034253120422
            },
            "time": 2.470928192138672
        },
        {
            "position": {
                "x": 13.508011817932129,
                "y": 1.519123911857605,
                "z": -60.55172348022461
            },
            "rotation": {
                "x": 0.00887035857886076,
                "y": 0.7375736236572266,
                "z": -0.009690661914646626,
                "w": 0.6751388907432556
            },
            "time": 2.495979070663452
        },
        {
            "position": {
                "x": 13.611638069152832,
                "y": 1.5163897275924683,
                "z": -60.5609016418457
            },
            "rotation": {
                "x": 0.008608412928879261,
                "y": 0.7364671230316162,
                "z": -0.009373518638312817,
                "w": 0.6763536334037781
            },
            "time": 2.5133237838745119
        },
        {
            "position": {
                "x": 13.749670028686524,
                "y": 1.5128628015518189,
                "z": -60.572669982910159
            },
            "rotation": {
                "x": 0.007517064455896616,
                "y": 0.7348120808601379,
                "z": -0.008144782856106758,
                "w": 0.6781801581382752
            },
            "time": 2.5364198684692385
        },
        {
            "position": {
                "x": 13.856520652770996,
                "y": 1.5104862451553345,
                "z": -60.58124923706055
            },
            "rotation": {
                "x": 0.0066931177861988548,
                "y": 0.7337061166763306,
                "z": -0.0072281621396541599,
                "w": 0.6793955564498901
            },
            "time": 2.5542900562286379
        },
        {
            "position": {
                "x": 14.004695892333985,
                "y": 1.50755774974823,
                "z": -60.592655181884769
            },
            "rotation": {
                "x": 0.0058713555335998539,
                "y": 0.7320376038551331,
                "z": -0.00630944175645709,
                "w": 0.6812097430229187
            },
            "time": 2.579063892364502
        },
        {
            "position": {
                "x": 14.136260032653809,
                "y": 1.5052838325500489,
                "z": -60.60213088989258
            },
            "rotation": {
                "x": 0.005603831727057695,
                "y": 0.7306392788887024,
                "z": -0.00599720748141408,
                "w": 0.6827143430709839
            },
            "time": 2.6010513305664064
        },
        {
            "position": {
                "x": 14.249835968017579,
                "y": 1.5034148693084717,
                "z": -60.609840393066409
            },
            "rotation": {
                "x": 0.0050517478957772259,
                "y": 0.7295210957527161,
                "z": -0.005388590041548014,
                "w": 0.6839185357093811
            },
            "time": 2.6200268268585207
        },
        {
            "position": {
                "x": 14.384346961975098,
                "y": 1.5014234781265259,
                "z": -60.6185302734375
            },
            "rotation": {
                "x": 0.004497677553445101,
                "y": 0.7284003496170044,
                "z": -0.00478180218487978,
                "w": 0.6851203441619873
            },
            "time": 2.6424944400787355
        },
        {
            "position": {
                "x": 14.497093200683594,
                "y": 1.499940276145935,
                "z": -60.62544250488281
            },
            "rotation": {
                "x": 0.0033806548453867437,
                "y": 0.7267162203788757,
                "z": -0.0035765101201832296,
                "w": 0.686920166015625
            },
            "time": 2.6613223552703859
        },
        {
            "position": {
                "x": 14.638402938842774,
                "y": 1.498547077178955,
                "z": -60.63340377807617
            },
            "rotation": {
                "x": 0.001975632505491376,
                "y": 0.724743664264679,
                "z": -0.002078085206449032,
                "w": 0.6890127062797546
            },
            "time": 2.6849124431610109
        },
        {
            "position": {
                "x": 14.782809257507325,
                "y": 1.4977178573608399,
                "z": -60.640708923339847
            },
            "rotation": {
                "x": 0.001129369018599391,
                "y": 0.7230451107025147,
                "z": -0.0011820874642580748,
                "w": 0.6907989382743836
            },
            "time": 2.7090113162994386
        },
        {
            "position": {
                "x": 14.925535202026368,
                "y": 1.4972506761550904,
                "z": -60.64722442626953
            },
            "rotation": {
                "x": 0.0008473916677758098,
                "y": 0.7216250896453857,
                "z": -0.0008833078318275511,
                "w": 0.6922830939292908
            },
            "time": 2.7328238487243654
        },
        {
            "position": {
                "x": 15.03210163116455,
                "y": 1.4969896078109742,
                "z": -60.651649475097659
            },
            "rotation": {
                "x": 0.0008473917259834707,
                "y": 0.7216250896453857,
                "z": -0.000883307890035212,
                "w": 0.6922830939292908
            },
            "time": 2.7506003379821779
        },
        {
            "position": {
                "x": 15.198599815368653,
                "y": 1.4965816736221314,
                "z": -60.65856170654297
            },
            "rotation": {
                "x": 0.0008473919006064534,
                "y": 0.7216250896453857,
                "z": -0.0008833080646581948,
                "w": 0.6922830939292908
            },
            "time": 2.778373956680298
        },
        {
            "position": {
                "x": 15.298519134521485,
                "y": 1.496336817741394,
                "z": -60.66271209716797
            },
            "rotation": {
                "x": 0.0008473920752294362,
                "y": 0.7216250896453857,
                "z": -0.0008833082392811775,
                "w": 0.6922830939292908
            },
            "time": 2.795041561126709
        },
        {
            "position": {
                "x": 15.423736572265625,
                "y": 1.4960299730300904,
                "z": -60.667911529541019
            },
            "rotation": {
                "x": 0.0008473923080600798,
                "y": 0.7216250896453857,
                "z": -0.0008833084721118212,
                "w": 0.6922830939292908
            },
            "time": 2.8159291744232179
        },
        {
            "position": {
                "x": 15.539693832397461,
                "y": 1.4957458972930909,
                "z": -60.672725677490237
            },
            "rotation": {
                "x": 0.0008473923662677407,
                "y": 0.7216250896453857,
                "z": -0.000883308588527143,
                "w": 0.6922830939292908
            },
            "time": 2.8352720737457277
        },
        {
            "position": {
                "x": 15.705629348754883,
                "y": 1.495339274406433,
                "z": -60.67961502075195
            },
            "rotation": {
                "x": 0.0008473925408907235,
                "y": 0.7216250896453857,
                "z": -0.0008833087631501257,
                "w": 0.6922830939292908
            },
            "time": 2.8629517555236818
        },
        {
            "position": {
                "x": 15.80555248260498,
                "y": 1.4950944185256959,
                "z": -60.68376541137695
            },
            "rotation": {
                "x": 0.0008473927155137062,
                "y": 0.7216250896453857,
                "z": -0.0008833088795654476,
                "w": 0.6922830939292908
            },
            "time": 2.87962007522583
        },
        {
            "position": {
                "x": 15.9694242477417,
                "y": 1.4946755170822144,
                "z": -60.86183547973633
            },
            "rotation": {
                "x": 0.0008477555820718408,
                "y": 0.7213405966758728,
                "z": -0.000882960855960846,
                "w": 0.6925793886184692
            },
            "time": 2.908139944076538
        },
        {
            "position": {
                "x": 16.070770263671876,
                "y": 1.4944167137145997,
                "z": -60.97178268432617
            },
            "rotation": {
                "x": 0.0002795388863887638,
                "y": 0.7193464636802673,
                "z": -0.0002894765930250287,
                "w": 0.6946513652801514
            },
            "time": 2.925762414932251
        },
        {
            "position": {
                "x": 16.171689987182618,
                "y": 1.4943325519561768,
                "z": -61.08000946044922
            },
            "rotation": {
                "x": -0.0005809893482364714,
                "y": 0.7141899466514587,
                "z": 0.0005928078899160028,
                "w": 0.6999514698982239
            },
            "time": 2.943202018737793
        },
        {
            "position": {
                "x": 16.30238914489746,
                "y": 1.494554042816162,
                "z": -61.21608352661133
            },
            "rotation": {
                "x": 0.0020365642849355938,
                "y": -0.7081221342086792,
                "z": -0.0020424427930265667,
                "w": -0.7060840725898743
            },
            "time": 2.965437412261963
        },
        {
            "position": {
                "x": 16.423948287963868,
                "y": 1.4952572584152222,
                "z": -61.338348388671878
            },
            "rotation": {
                "x": 0.0029222574084997179,
                "y": -0.7043380737304688,
                "z": -0.0028995550237596037,
                "w": -0.7098527550697327
            },
            "time": 2.9857563972473146
        },
        {
            "position": {
                "x": 16.566944122314454,
                "y": 1.4964255094528199,
                "z": -61.47913360595703
            },
            "rotation": {
                "x": 0.004116902593523264,
                "y": -0.6993577480316162,
                "z": -0.004028251860290766,
                "w": -0.7147486209869385
            },
            "time": 3.009406089782715
        },
        {
            "position": {
                "x": 16.700674057006837,
                "y": 1.4979336261749268,
                "z": -61.607173919677737
            },
            "rotation": {
                "x": 0.0041367108933627609,
                "y": -0.6958256959915161,
                "z": -0.004007907584309578,
                "w": -0.7181876301765442
            },
            "time": 3.0312259197235109
        },
        {
            "position": {
                "x": 16.832748413085939,
                "y": 1.4994091987609864,
                "z": -61.73115539550781
            },
            "rotation": {
                "x": 0.003273546462878585,
                "y": -0.6907973289489746,
                "z": -0.003127593547105789,
                "w": -0.7230342626571655
            },
            "time": 3.0525753498077394
        },
        {
            "position": {
                "x": 16.97217559814453,
                "y": 1.5006178617477418,
                "z": -61.858421325683597
            },
            "rotation": {
                "x": 0.0015069636283442379,
                "y": -0.6827405095100403,
                "z": -0.001408135169185698,
                "w": -0.7306579947471619
            },
            "time": 3.0748233795166017
        },
        {
            "position": {
                "x": 17.17456817626953,
                "y": 1.501401424407959,
                "z": -62.03508377075195
            },
            "rotation": {
                "x": -0.0002982615842483938,
                "y": -0.6715572476387024,
                "z": 0.00027032732032239437,
                "w": -0.7409526109695435
            },
            "time": 3.1064841747283937
        },
        {
            "position": {
                "x": 17.323139190673829,
                "y": 1.5012919902801514,
                "z": -62.157012939453128
            },
            "rotation": {
                "x": 0.0006106713553890586,
                "y": 0.6605257391929627,
                "z": -0.0005372436135075986,
                "w": 0.7508029937744141
            },
            "time": 3.1291348934173586
        },
        {
            "position": {
                "x": 17.43506622314453,
                "y": 1.5011292695999146,
                "z": -62.24345779418945
            },
            "rotation": {
                "x": -0.0012537873117253185,
                "y": 0.650909960269928,
                "z": 0.0010750172659754754,
                "w": 0.7591531276702881
            },
            "time": 3.1458017826080324
        },
        {
            "position": {
                "x": 17.563631057739259,
                "y": 1.501501441001892,
                "z": -62.337623596191409
            },
            "rotation": {
                "x": 0.0018866353202611209,
                "y": -0.646531879901886,
                "z": -0.0015988950617611409,
                "w": -0.7628830075263977
            },
            "time": 3.1645827293395998
        },
        {
            "position": {
                "x": 17.815210342407228,
                "y": 1.5025830268859864,
                "z": -62.51748275756836
            },
            "rotation": {
                "x": 0.0019158698851242662,
                "y": -0.6323188543319702,
                "z": -0.0015637456672266126,
                "w": -0.7747043371200562
            },
            "time": 3.2010295391082765
        },
        {
            "position": {
                "x": 17.943323135375978,
                "y": 1.503119945526123,
                "z": -62.60209655761719
            },
            "rotation": {
                "x": 0.0009697763016447425,
                "y": -0.6236883997917175,
                "z": -0.0007737749256193638,
                "w": -0.7816720604896545
            },
            "time": 3.2191238403320314
        },
        {
            "position": {
                "x": 18.084882736206056,
                "y": 1.5034133195877076,
                "z": -62.69114685058594
            },
            "rotation": {
                "x": 0.000986273167654872,
                "y": -0.6068488359451294,
                "z": -0.0007530277362093329,
                "w": -0.7948163151741028
            },
            "time": 3.23883318901062
        },
        {
            "position": {
                "x": 18.257617950439454,
                "y": 1.5037623643875123,
                "z": -62.78976821899414
            },
            "rotation": {
                "x": 0.0016621430404484273,
                "y": -0.5920515060424805,
                "z": -0.0012210911372676492,
                "w": -0.8058974742889404
            },
            "time": 3.262274742126465
        },
        {
            "position": {
                "x": 18.455137252807618,
                "y": 1.5044125318527222,
                "z": -62.8930549621582
            },
            "rotation": {
                "x": 0.0026862306986004116,
                "y": -0.5790621042251587,
                "z": -0.0019079339690506459,
                "w": -0.8152768611907959
            },
            "time": 3.288543224334717
        },
        {
            "position": {
                "x": 18.652076721191408,
                "y": 1.5054315328598023,
                "z": -62.98813247680664
            },
            "rotation": {
                "x": 0.00305360509082675,
                "y": -0.5666024088859558,
                "z": -0.0020997761748731138,
                "w": -0.8239830136299133
            },
            "time": 3.3143162727355959
        },
        {
            "position": {
                "x": 18.8663387298584,
                "y": 1.506661057472229,
                "z": -63.083656311035159
            },
            "rotation": {
                "x": 0.005877896212041378,
                "y": -0.541630744934082,
                "z": -0.00378740974701941,
                "w": -0.8405874371528626
            },
            "time": 3.341963529586792
        },
        {
            "position": {
                "x": 19.093334197998048,
                "y": 1.5090590715408326,
                "z": -63.16895294189453
            },
            "rotation": {
                "x": 0.008525979705154896,
                "y": -0.5034471750259399,
                "z": -0.0049682073295116428,
                "w": -0.863969624042511
            },
            "time": 3.3705430030822756
        },
        {
            "position": {
                "x": 19.32648277282715,
                "y": 1.5124350786209107,
                "z": -63.23345947265625
            },
            "rotation": {
                "x": 0.0072224377654492859,
                "y": -0.47840410470962527,
                "z": -0.003934903535991907,
                "w": -0.8781012892723084
            },
            "time": 3.399054765701294
        },
        {
            "position": {
                "x": 19.592588424682618,
                "y": 1.5156015157699586,
                "z": -63.29084014892578
            },
            "rotation": {
                "x": 0.006975075230002403,
                "y": -0.45076051354408266,
                "z": -0.003522351151332259,
                "w": -0.8926107287406921
            },
            "time": 3.431138753890991
        },
        {
            "position": {
                "x": 19.843475341796876,
                "y": 1.518405556678772,
                "z": -63.328739166259769
            },
            "rotation": {
                "x": 0.00967640895396471,
                "y": -0.42489728331565859,
                "z": -0.004542175680398941,
                "w": -0.9051784873008728
            },
            "time": 3.461043357849121
        },
        {
            "position": {
                "x": 20.046051025390626,
                "y": 1.5214812755584717,
                "z": -63.3475227355957
            },
            "rotation": {
                "x": 0.011676285415887833,
                "y": -0.4005678594112396,
                "z": -0.005105058196932077,
                "w": -0.9161785244941711
            },
            "time": 3.4850223064422609
        },
        {
            "position": {
                "x": 20.38422203063965,
                "y": 1.527580976486206,
                "z": -63.360755920410159
            },
            "rotation": {
                "x": 0.013426489196717739,
                "y": -0.3591461777687073,
                "z": -0.005167407914996147,
                "w": -0.9331704378128052
            },
            "time": 3.5249130725860597
        },
        {
            "position": {
                "x": 20.61977767944336,
                "y": 1.5323801040649415,
                "z": -63.348873138427737
            },
            "rotation": {
                "x": 0.014706026762723923,
                "y": -0.3368050158023834,
                "z": -0.005261129699647427,
                "w": -0.9414449334144592
            },
            "time": 3.5527145862579347
        },
        {
            "position": {
                "x": 20.899782180786134,
                "y": 1.5385955572128297,
                "z": -63.32133865356445
            },
            "rotation": {
                "x": 0.012478847056627274,
                "y": -0.31623950600624087,
                "z": -0.00416018720716238,
                "w": -0.9485881924629211
            },
            "time": 3.5858805179595949
        },
        {
            "position": {
                "x": 21.150850296020509,
                "y": 1.54331374168396,
                "z": -63.28553771972656
            },
            "rotation": {
                "x": 0.012175596319139004,
                "y": -0.29512128233909609,
                "z": -0.0037611182779073717,
                "w": -0.9553748369216919
            },
            "time": 3.6157736778259279
        },
        {
            "position": {
                "x": 21.476375579833986,
                "y": 1.549283742904663,
                "z": -63.224273681640628
            },
            "rotation": {
                "x": 0.00833459384739399,
                "y": -0.26159828901290896,
                "z": -0.0022590707521885635,
                "w": -0.9651382565498352
            },
            "time": 3.6548171043395998
        },
        {
            "position": {
                "x": 21.70475959777832,
                "y": 1.5521668195724488,
                "z": -63.16450881958008
            },
            "rotation": {
                "x": 0.005199834238737822,
                "y": -0.23454324901103974,
                "z": -0.0012546007055789233,
                "w": -0.9720909595489502
            },
            "time": 3.682640790939331
        },
        {
            "position": {
                "x": 21.974496841430665,
                "y": 1.5543107986450196,
                "z": -63.07754898071289
            },
            "rotation": {
                "x": 0.0028189276345074178,
                "y": -0.2113185077905655,
                "z": -0.0006094573764130473,
                "w": -0.9774130582809448
            },
            "time": 3.7160418033599855
        },
        {
            "position": {
                "x": 22.227293014526368,
                "y": 1.5554122924804688,
                "z": -62.98252868652344
            },
            "rotation": {
                "x": 0.0032358637545257808,
                "y": -0.1883746236562729,
                "z": -0.0006206698017194867,
                "w": -0.9820917248725891
            },
            "time": 3.7478694915771486
        },
        {
            "position": {
                "x": 22.483640670776368,
                "y": 1.5567126274108887,
                "z": -62.872215270996097
            },
            "rotation": {
                "x": 0.006487684324383736,
                "y": -0.16816045343875886,
                "z": -0.0011067567393183709,
                "w": -0.985737681388855
            },
            "time": 3.78075909614563
        },
        {
            "position": {
                "x": 22.72604751586914,
                "y": 1.5592151880264283,
                "z": -62.755889892578128
            },
            "rotation": {
                "x": 0.008547822013497353,
                "y": -0.14218565821647645,
                "z": -0.0012278992217034102,
                "w": -0.989802360534668
            },
            "time": 3.8124473094940187
        },
        {
            "position": {
                "x": 23.167387008666993,
                "y": 1.5653570890426636,
                "z": -62.514801025390628
            },
            "rotation": {
                "x": 0.011429225094616413,
                "y": -0.11896742880344391,
                "z": -0.0013695230009034277,
                "w": -0.9928314089775086
            },
            "time": 3.871718645095825
        },
        {
            "position": {
                "x": 23.28818702697754,
                "y": 1.5676593780517579,
                "z": -62.44127655029297
            },
            "rotation": {
                "x": 0.011433115229010582,
                "y": -0.11611181497573853,
                "z": -0.0013366498751565815,
                "w": -0.9931694269180298
            },
            "time": 3.8883869647979738
        },
        {
            "position": {
                "x": 23.48552131652832,
                "y": 1.5676593780517579,
                "z": -62.48805618286133
            },
            "rotation": {
                "x": 0.011439039371907711,
                "y": -0.11162251234054566,
                "z": -0.0012849702034145594,
                "w": -0.9936840534210205
            },
            "time": 3.922187566757202
        },
        {
            "position": {
                "x": 23.761627197265626,
                "y": 1.5676593780517579,
                "z": -62.550880432128909
            },
            "rotation": {
                "x": 0.011038742959499359,
                "y": -0.10508903861045838,
                "z": -0.0011665826896205545,
                "w": -0.9944009184837341
            },
            "time": 3.969381332397461
        },
        {
            "position": {
                "x": 23.861055374145509,
                "y": 1.5676593780517579,
                "z": -62.5721321105957
            },
            "rotation": {
                "x": 0.011449211277067662,
                "y": -0.1034543439745903,
                "z": -0.001190940267406404,
                "w": -0.9945676326751709
            },
            "time": 3.9863271713256838
        },
        {
            "position": {
                "x": 24.030139923095704,
                "y": 1.5676593780517579,
                "z": -62.60769271850586
            },
            "rotation": {
                "x": 0.011449698358774186,
                "y": -0.1030457466840744,
                "z": -0.0011862365063279868,
                "w": -0.994610071182251
            },
            "time": 4.015124320983887
        },
        {
            "position": {
                "x": 24.030139923095704,
                "y": 1.5676593780517579,
                "z": -62.60769271850586
            },
            "rotation": {
                "x": 0.011449698358774186,
                "y": -0.1030457392334938,
                "z": -0.0011862363899126649,
                "w": -0.994610071182251
            },
            "time": 4.05259370803833
        },
        {
            "position": {
                "x": 24.030139923095704,
                "y": 1.5676593780517579,
                "z": -62.60769271850586
            },
            "rotation": {
                "x": 0.011450185440480709,
                "y": -0.10263711214065552,
                "z": -0.0011815325124189258,
                "w": -0.994652271270752
            },
            "time": 4.085408687591553
        },
        {
            "position": {
                "x": 24.030139923095704,
                "y": 1.5676593780517579,
                "z": -62.60769271850586
            },
            "rotation": {
                "x": 0.011450185440480709,
                "y": -0.10263710469007492,
                "z": -0.001181532396003604,
                "w": -0.994652271270752
            },
            "time": 4.1408915519714359
        }
    ]
}